"factor"	"estimate"	"stdErr"	"tValue"	"pValue"	"iter"
"1"	"(Intercept)"	1.94169391121611e-05	2.73098917811291	7.10985575035417e-06	0.999994328537971	2
"2"	"users"	-2.35950317004849e-06	0.291238943976457	-8.1016059797251e-06	0.999993537428563	2
"3"	"userType_catReturning Visitor"	-0.000579354412365016	3.8423374266665	-0.000150781763294445	0.999879722870332	2
"4"	"continent_catAfrica"	-0.00922884520387677	2.87484570013818	-0.00321020540456595	0.997439255113415	2
"5"	"continent_catAmericas"	0.179530562805138	2.73253365705875	0.0657011350405036	0.947628568022665	2
"6"	"continent_catAsia"	0.00909261765216304	2.74366824873755	0.00331403683967507	0.997356430239633	2
"7"	"continent_catEurope"	0.151878761696332	2.73859368136037	0.0554586694368211	0.955783853551198	2
"8"	"continent_catOceania"	1.40778580418578	2.73569569247782	0.514598830585101	0.606944212592094	2
"9"	"users:userType_catReturning Visitor"	0.000283909984014171	3.62439317276334e-05	7.83331086008281	1.18199218807599e-14	2
"10"	"users:continent_catAfrica"	0.00014848315922431	0.291495875013389	0.000509383397680978	0.999593669889414	2
"11"	"users:continent_catAmericas"	8.0989148695156e-06	0.291238944210776	2.78084886328054e-05	0.999977817442028	2
"12"	"users:continent_catAsia"	0.0001032632568911	0.291239094608874	0.000354565231119744	0.999717166807081	2
"13"	"users:continent_catEurope"	1.29094602709847e-05	0.291238959512849	4.43260073878104e-05	0.999964641579723	2
"14"	"users:continent_catOceania"	-0.000112538306124872	0.29123894511492	-0.000386412284526251	0.999691762727439	2
"15"	"userType_catReturning Visitor:continent_catAfrica"	0.188434147147326	4.04251786165864	0.046613064826388	0.962830690185401	2
"16"	"userType_catReturning Visitor:continent_catAmericas"	0.415450564093222	3.84507321983178	0.10804750399822	0.913979135151496	2
"17"	"userType_catReturning Visitor:continent_catAsia"	1.59203770139958	3.8594010602084	0.412509007631774	0.680052558793144	2
"18"	"userType_catReturning Visitor:continent_catEurope"	0.823680110643078	3.84670999938255	0.214125866201323	0.830491451394698	2
"19"	"userType_catReturning Visitor:continent_catOceania"	0.0216091032692374	3.85101991767808	0.00561126759434323	0.995523970520701	2
