"factor"	"estimate"	"stdErr"	"tValue"	"pValue"	"iter"	"inMod"
"10"	"users"	-7.40793707640501e-05	7.371216442228e-06	-10.049816247379	1.30376646720749e-23	9	""
"11"	"monthFebruary"	-0.712817844132154	0.525930859640235	-1.35534515814447	0.175348974333507	9	""
"12"	"monthJanuary"	-1.88313001453709	0.618749765406694	-3.04344360163005	0.00234708169544994	9	""
"13"	"monthMarch"	-0.510728301006088	0.474120500638873	-1.0772120174468	0.28142066780302	9	""
"14"	"week"	-0.0786701483978093	0.0371823293236911	-2.11579397602946	0.034395641097397	9	""
"15"	"PageDepth_cat"	7.09593439129943	0.0835776928805074	84.9022525836483	0	9	""
"16"	"userType_catReturning Visitor"	1.27030491788369	0.0961434152892923	13.2126044624209	2.0686830186568e-39	9	"e"
