"sessionsToTransaction"	"users"	"revenuePerUser"	"cat"
"1"	1	36476	110.287994865967	0
"2"	10	77	105.885062103896	4
"3"	11	34	128.621361323529	4
"4"	12	43	101.325994046512	4
"5"	13	17	95.9556987647059	4
"6"	14	26	90.7522537307692	4
"7"	15	17	106.540159705882	4
"8"	16	60	152.999727	4
"9"	17	26	97.6728628076923	4
"10"	18	9	86.9975486666667	4
"11"	19	17	96.4597207058824	4
"12"	2	8671	108.711380024795	1
"13"	20	9	90.4439387777778	4
"14"	22	26	171.367462884615	4
"15"	23	9	95.204146	4
"16"	24	17	168.847353117647	4
"17"	26	9	109.484768	4
"18"	27	9	90.4439387777778	4
"19"	3	3033	109.009312236729	2
"20"	4	1380	114.000962894203	3
"21"	5	805	104.61440768323	4
"22"	6	351	115.001726165242	4
"23"	7	197	110.144044588832	4
"24"	8	154	109.128803363636	4
"25"	9	120	111.166073175	4
