"flashVersion"	"users"	"revenuePerUser"	"cat"
"1"	"(not set)"	1291134	1.7101316325424	10
"2"	"10.0 r12"	60	0	0
"3"	"10.0 r2"	9	0	0
"4"	"10.0 r22"	266	0	0
"5"	"10.0 r32"	154	5.28568473376623	0
"6"	"10.0 r42"	26	31.3075172692308	0
"7"	"10.0 r45"	283	2.87630900706714	0
"8"	"10.1 r102"	351	0	0
"9"	"10.1 r103"	26	31.3075172692308	0
"10"	"10.1 r105"	446	0	0
"11"	"10.1 r106"	26	0	0
"12"	"10.1 r120"	9	0	0
"13"	"10.1 r123"	17	0	0
"14"	"10.1 r52"	26	0	0
"15"	"10.1 r53"	34	0	0
"16"	"10.1 r72"	17	0	0
"17"	"10.1 r82"	43	0	0
"18"	"10.1 r85"	43	0	0
"19"	"10.1 r90"	17	0	0
"20"	"10.1 r92"	86	0	0
"21"	"10.1 r95"	9	0	0
"22"	"10.1 r999"	17	0	0
"23"	"10.2 r152"	86	9.46506336046512	0
"24"	"10.2 r153"	77	0	0
"25"	"10.2 r154"	43	0	0
"26"	"10.2 r157"	94	0	0
"27"	"10.2 r159"	51	0	0
"28"	"10.2 r164"	9	0	0
"29"	"10.3 r181"	394	0	0
"30"	"10.3 r183"	1645	4.4124256887538	0
"31"	"10.3 r185"	446	1.92115989686099	0
"32"	"10.3 r186"	308	0	0
"33"	"11.0 r1"	214	4.40430395327103	0
"34"	"11.1 r102"	1337	4.58218907853403	0
"35"	"11.1 r111"	643	0	0
"36"	"11.1 r112"	34	0	0
"37"	"11.1 r115"	3496	2.19356234668192	1
"38"	"11.1 r121"	454	2.07603754625551	0
"39"	"11.2 r202"	5655	1.49700312413793	3
"40"	"11.2 r999"	171	0	0
"41"	"11.3 r300"	677	1.45548436041359	0
"42"	"11.3 r31"	60	0	0
"43"	"11.3 r372"	120	0	0
"44"	"11.3 r375"	17	0	0
"45"	"11.3 r376"	9	0	0
"46"	"11.3 r377"	9	0	0
"47"	"11.4 r31"	51	16.8007316470588	0
"48"	"11.4 r402"	600	3.14173682	0
"49"	"11.5 r31"	334	11.5442153143713	0
"50"	"11.5 r502"	797	3.33274237766625	0
"51"	"11.6 r602"	2888	2.759206033241	0
"52"	"11.7 r700"	2768	7.19706198013006	0
"53"	"11.8 r800"	3007	4.89716576454938	0
"54"	"11.9 r900"	4404	5.18742617983651	2
"55"	"12.0 r0"	5869	3.13156592179247	5
"56"	"12.1 r720"	9	0	0
"57"	"13.0 r0"	5792	2.58959550915055	4
"58"	"14.0 r0"	12133	3.03491169438721	6
"59"	"15.0 r0"	46389	3.62420443997499	7
"60"	"16.0 r0"	628079	4.39076850192571	9
"61"	"17.0 r0"	103926	3.46946888895945	8
"62"	"30.2 r999"	9	0	0
"63"	"6.0 r21"	129	0	0
"64"	"7.0 r19"	9	0	0
"65"	"8.1 r90"	9	0	0
"66"	"9.0 r124"	34	0	0
"67"	"9.0 r159"	9	0	0
"68"	"9.0 r16"	9	0	0
"69"	"9.0 r246"	34	0	0
"70"	"9.0 r28"	9	0	0
"71"	"9.0 r31"	9	0	0
"72"	"9.0 r45"	43	0	0
"73"	"9.1 r122"	9	0	0
"74"	"99.999 r999"	9	0	0
"75"	"Flash"	34	23.9410426176471	0
