"source"	"users"	"revenuePerUser"	"cat"
"1"	"(direct)"	334552	1.91056393544202	8
"2"	"10.1.0.1:8000"	17	0	0
"3"	"10.10.1.43:15871"	9	0	0
"4"	"10.200.201.253"	9	0	0
"5"	"10.6.216.27:15871"	9	0	0
"6"	"10.69.1.2:8090"	9	0	0
"7"	"123.sogou.com"	9	585.505498222222	0
"8"	"123365126.keywordblocks.com"	9	0	0
"9"	"131.253.14.125"	9	0	0
"10"	"139.182.27.20"	9	0	0
"11"	"141.248.96.40"	9	0	0
"12"	"172.27.72.27"	9	0	0
"13"	"192.168.33.1"	9	0	0
"14"	"1erforum.de"	43	0	0
"15"	"2014prices.com"	9	0	0
"16"	"206.190.45.150"	9	0	0
"17"	"23.227.38.56:6080"	9	0	0
"18"	"2dehands.be"	34	0	0
"19"	"54.225.87.145"	9	0	0
"20"	"58.176.217.12"	9	0	0
"21"	"65.55.108.4"	9	90.4439387777778	0
"22"	"9gag.com"	51	0	0
"23"	"9lives.be"	9	0	0
"24"	"ADFIX"	600	2.57051194333333	0
"25"	"Abandoned Cart - Follow-Up Emails"	248	32.822397125	0
"26"	"AdFix"	94	0	0
"27"	"Cool Material"	591	0	0
"28"	"Digg"	16074	0.921060133694165	0
"29"	"Elite Daily"	9	0	0
"30"	"FACEBOOK"	1097	0	0
"31"	"FUEL451"	2091	2.2214664988044	0
"32"	"Facebook"	115467	1.6701867977604	5
"33"	"Friendbuy"	300	0	0
"34"	"Hypebeast"	94	0	0
"35"	"Instagram"	63097	1.51354539553386	2
"36"	"Master List - Dynamic"	19639	1.97836532695147	0
"37"	"Master+List+-+Dynamic"	394	7.50276328680203	0
"38"	"Mens Holiday 2014 Press Release"	77	0	0
"39"	"NEW CHECKOUT FLOW: Abandoned Cart - Follow-Up Emails"	77	26.1502297272727	0
"40"	"Newsletter with names"	17	0	0
"41"	"Pinterest"	16383	1.63457028669963	0
"42"	"Pinterest-utm_medium=Ad Campaign-utm_campaign=1-pp=1"	17	0	0
"43"	"Pinterest-utm_medium=Ad Campaign-utm_campaign=3-pp=1"	9	0	0
"44"	"Pinterest-utm_medium=Ad-20Campaign-utm_campaign=1"	103	0	0
"45"	"Pinterest-utm_medium=Ad-20Campaign-utm_campaign=3"	51	0	0
"46"	"Pinterest-utm_medium=Paid-utm_campaign=Gold-2BPearl-2BLeather-2BJeans"	17	0	0
"47"	"Pinterest-utm_medium=Pins-utm_campaign=Profile"	17	0	0
"48"	"Pinterest-utm_medium=Pinterest-utm_campaign=chadsyme"	26	0	0
"49"	"Pinterest-utm_medium=Promoted-utm_campaign=10"	26	0	0
"50"	"Pinterest-utm_medium=Promoted-utm_campaign=7"	34	0	0
"51"	"Pinterest-utm_medium=Promoted-utm_campaign=8"	60	0	0
"52"	"Placed Order"	1182	0	0
"53"	"Shopify Partner Blog"	343	5.74555633527697	0
"54"	"Twitter"	2613	2.918427898584	0
"55"	"Uncrate"	12613	1.74638430674701	0
"56"	"Welcome Campaign - Newsletter Signup"	3590	2.92315181309192	0
"57"	"Welcome+Campaign+-+Newsletter+Signup"	146	12.3243723287671	0
"58"	"Yankodesign"	34	0	0
"59"	"a.adroll.com"	51	0	0
"60"	"abbao.cn"	9	0	0
"61"	"abs-cbnnews.com"	9	0	0
"62"	"accuweather.com"	9	0	0
"63"	"ad-apac.doubleclick.net"	103	0	0
"64"	"ad-emea.doubleclick.net"	300	0	0
"65"	"ad.doubleclick.net"	283	0	0
"66"	"adf.ly"	9	90.4439387777778	0
"67"	"admin.indiegogo.com"	9	0	0
"68"	"adroll"	82925	1.63553581884836	4
"69"	"ads.yahoo.com"	17	0	0
"70"	"adslgate.com"	60	32.1313993	0
"71"	"ae.jobrapido.com"	9	0	0
"72"	"airows.com"	17	0	0
"73"	"alcasar"	9	0	0
"74"	"alicemail3e.rossoalice.alice.it"	9	0	0
"75"	"alicemail9b.rossoalice.alice.it"	9	0	0
"76"	"altenen.com"	240	16.0656996458333	0
"77"	"amaniamber.tumblr.com"	9	0	0
"78"	"amazon.ca"	26	41.1941016538462	0
"79"	"amazon.co.uk"	51	0	0
"80"	"amazon.com"	154	13.069550987013	0
"81"	"amazon.de"	9	0	0
"82"	"amazon.es"	9	0	0
"83"	"ams1.ib.adnxs.com"	506	0	0
"84"	"androidauthority.com"	17	0	0
"85"	"angeliquecooperblog.blogspot.co.uk"	9	0	0
"86"	"angeliquecooperblog.blogspot.com"	51	0	0
"87"	"angeliquecooperblog.blogspot.fr"	9	0	0
"88"	"angeliquecooperblog.com"	17	0	0
"89"	"anonymz.com"	9	0	0
"90"	"aol"	17	0	0
"91"	"appbrain.com"	9	0	0
"92"	"apps.facebook.com"	9	0	0
"93"	"archive.hkgolden.com"	9	0	0
"94"	"arcor.de"	9	0	0
"95"	"articulo.mercadolibre.com.mx"	9	0	0
"96"	"ask"	103	0	0
"97"	"ask.fm"	9	0	0
"98"	"askmen.com"	454	0	0
"99"	"au.askmen.com"	17	0	0
"100"	"autoadmit.com"	43	0	0
"101"	"avg"	26	0	0
"102"	"avsite.gr"	26	0	0
"103"	"awesomemob.com"	9	104.724560666667	0
"104"	"baidu"	668	0	0
"105"	"ballerstatus.com"	34	0	0
"106"	"bartcode.de"	9	0	0
"107"	"bay172.mail.live.com"	9	90.4439387777778	0
"108"	"bay180.mail.live.com"	9	0	0
"109"	"bbc.com"	9	0	0
"110"	"bcd.edfa3ly.co"	26	0	0
"111"	"bensbargains.net"	17	0	0
"112"	"bild.de"	9	0	0
"113"	"bing"	12004	2.18048108247251	0
"114"	"bing.com"	17	0	0
"115"	"bit.ly"	9	0	0
"116"	"blawnde.com"	103	9.39027146601942	0
"117"	"blog.naver.com"	9	0	0
"118"	"blu168.mail.live.com"	9	0	0
"119"	"bmwpower.lv"	326	0	0
"120"	"boards.4chan.org"	9	0	0
"121"	"bookmarklet"	17	0	0
"122"	"br.nate.com"	9	0	0
"123"	"brightong.com"	9	0	0
"124"	"browneyedsoutherngal.tumblr.com"	9	0	0
"125"	"burnout.lv"	26	0	0
"126"	"buttons-for-website.com"	43	0	0
"127"	"ca.askmen.com"	77	0	0
"128"	"canonrumors.com"	9	0	0
"129"	"carbonandfiber.tumblr.com"	51	0	0
"130"	"carsforum.co.il"	9	0	0
"131"	"cbssports.com"	9	0	0
"132"	"cert.localnetwork.zone"	9	0	0
"133"	"cforum1.cari.com.my"	9	0	0
"134"	"challengertalk.com"	9	0	0
"135"	"champagnelifestyleblog.com"	17	0	0
"136"	"chelseabanker.tumblr.com"	9	0	0
"137"	"chillding.nl"	17	0	0
"138"	"cl.netseer.com"	9	0	0
"139"	"click.rockettab.com"	17	0	0
"140"	"clickers.rtb.adroll.com"	9	0	0
"141"	"clicks.bestqualitysearch.com"	17	0	0
"142"	"cliosport.net"	17	0	0
"143"	"cn.hypebeast.com"	266	0	0
"144"	"coleccha.com"	9	0	0
"145"	"coll-nac.coll.lr.local"	43	0	0
"146"	"comcast"	9	0	0
"147"	"compareuk.net"	9	0	0
"148"	"complex.com"	9	0	0
"149"	"coniugazione.reverso.net"	9	0	0
"150"	"contemporarymasculine.com"	17	0	0
"151"	"coolmaterial.com"	403	6.16582682878412	0
"152"	"coupns.com.au"	94	44.4370415744681	0
"153"	"couponfollow.com"	6238	46.5268018695095	0
"154"	"couponvario.com"	34	0	0
"155"	"cpw.mail.aol.com"	9	0	0
"156"	"creativebloq.com"	257	0	0
"157"	"creatorcheck.net"	103	0	0
"158"	"curebit"	7523	3.60536822929682	0
"159"	"curebit.com"	7206	4.38852666985845	0
"160"	"cvk3Jh"	771	2.500498	0
"161"	"dSDjH4"	51	16.8007316470588	0
"162"	"daf.fm"	9	0	0
"163"	"dailymotion.com"	34	0	0
"164"	"dapenti.com"	9	0	0
"165"	"dapperq.com"	9	0	0
"166"	"darkwarez.pl"	17	0	0
"167"	"davedubois.tumblr.com"	9	0	0
"168"	"davegill.ca"	9	0	0
"169"	"de.pinterest.com"	17	0	0
"170"	"de.pokerstrategy.com"	60	0	0
"171"	"dealabs.com"	9	0	0
"172"	"dealcouponz.com"	9	0	0
"173"	"dealextra.com.au"	9	90.4439387777778	0
"174"	"dealgenius.com.moresiteslike.org"	9	0	0
"175"	"dealnews.com"	9	0	0
"176"	"deals.skyseek.net"	43	0	0
"177"	"dealsextra.com.au"	69	41.6000725072464	0
"178"	"dealvario.com"	51	33.0554395294118	0
"179"	"delta-search.com"	9	104.724560666667	0
"180"	"derstandard.at"	77	0	0
"181"	"detail.chiebukuro.yahoo.co.jp"	77	0	0
"182"	"detailersclub.no"	9	0	0
"183"	"detailingnation.com"	17	0	0
"184"	"didigames.com"	9	0	0
"185"	"digg"	26	0	0
"186"	"digg.com"	4678	0.430433452116289	0
"187"	"digitalbookworld.com"	9	0	0
"188"	"disneymoviesonlinenew.blogspot.com"	17	0	0
"189"	"disqus.com"	111	0	0
"190"	"divyabhaskar.co.in"	9	0	0
"191"	"dk.pinterest.com"	17	0	0
"192"	"dmarge.com"	9	0	0
"193"	"dnsrsearch.com"	17	0	0
"194"	"doeistufi.nl"	9	0	0
"195"	"doko-search.com"	9	0	0
"196"	"doughjeaux.tumblr.com"	9	0	0
"197"	"dp.g.doubleclick.net"	9	0	0
"198"	"dragosu.ro"	9	0	0
"199"	"dressupwho.com"	17	0	0
"200"	"dribbble.com"	17	0	0
"201"	"dub109.mail.live.com"	9	0	0
"202"	"dub127.mail.live.com"	9	0	0
"203"	"duckduckgo.com"	231	4.08017768831169	0
"204"	"dyn.adknowledge.com"	9	0	0
"205"	"easypodcast.it"	17	0	0
"206"	"ebay.co.uk"	94	0	0
"207"	"ebay.com"	60	0	0
"208"	"ecommerce-platforms.com"	9	0	0
"209"	"ecommerce.shopify.com"	9	0	0
"210"	"eksiduyuru.com"	51	0	0
"211"	"elektronikforumet.com"	26	0	0
"212"	"elfster.com"	9	0	0
"213"	"elitedaily.com"	94	0	0
"214"	"ellatarry.tumblr.com"	26	0	0
"215"	"ellemayleckenby.com"	9	0	0
"216"	"elnuevoherald.com"	9	0	0
"217"	"emeil.ir"	9	0	0
"218"	"entheresan.com"	9	0	0
"219"	"entrepreneur.com"	154	0	0
"220"	"envyavenue.tumblr.com"	9	0	0
"221"	"es.pinterest.com"	26	0	0
"222"	"es.shopify.com"	9	0	0
"223"	"espncricinfo.com"	9	0	0
"224"	"esquire.com"	9	0	0
"225"	"etc.net.nz"	9	0	0
"226"	"eurofotbal.cz"	9	0	0
"227"	"everydaycarry.com"	386	0	0
"228"	"everydaynormalguy.com"	9	0	0
"229"	"everydding.com"	9	0	0
"230"	"experts.shopify.com"	9	0	0
"231"	"express.com.pk"	9	0	0
"232"	"fabforgottennobility.tumblr.com"	9	0	0
"233"	"facbeook"	951	1.11379841009464	0
"234"	"facebook"	1215826	1.78429355431452	10
"235"	"facebook.com"	120334	0.466925567262785	6
"236"	"famousoutfits.com"	9	0	0
"237"	"fancy.com"	17	0	0
"238"	"fancy.to"	26	0	0
"239"	"fantagazzetta.com"	9	0	0
"240"	"fanyi.youdao.com"	17	0	0
"241"	"fashioncoolture.com.br"	103	0	0
"242"	"fatsecret.be"	9	0	0
"243"	"feedly.com"	43	0	0
"244"	"ferfikarorak.com"	9	0	0
"245"	"filelist.ro"	9	0	0
"246"	"fixedgear.se"	9	0	0
"247"	"fkn-famous.com"	17	0	0
"248"	"flipboard.com"	17	0	0
"249"	"focus.de"	17	0	0
"250"	"footballmanagernow.co.uk"	17	0	0
"251"	"forocoches.com"	531	0	0
"252"	"forum.bodybuilding.com"	77	0	0
"253"	"forum.chronomag.cz"	231	0	0
"254"	"forum.everydaycarry.com"	17	0	0
"255"	"forum.football365.com"	60	0	0
"256"	"forum.hangarnet.com.br"	9	0	0
"257"	"forum.klanrur.rs"	60	0	0
"258"	"forum.rsca.com"	9	0	0
"259"	"forum.saatforumu.com"	26	36.2508094615385	0
"260"	"forum.scigacz.pl"	9	0	0
"261"	"forum.tz-uk.com"	17	0	0
"262"	"forum.xda-developers.com"	26	0	0
"263"	"forum1.hkgolden.com"	34	0	0
"264"	"forum10.hkgolden.com"	9	0	0
"265"	"forum14.hkgolden.com"	9	0	0
"266"	"forum3.hkgolden.com"	17	0	0
"267"	"forum4.hkgolden.com"	43	0	0
"268"	"forum5.hkgolden.com"	9	0	0
"269"	"forum6.hkgolden.com"	17	0	0
"270"	"forum7.hkgolden.com"	9	0	0
"271"	"forum8.hkgolden.com"	17	0	0
"272"	"forum9.hkgolden.com"	9	0	0
"273"	"forums.hardwarezone.com.sg"	17	0	0
"274"	"forums.joerogan.net"	9	0	0
"275"	"forums.offtopic.com"	43	0	0
"276"	"forums.overclockers.co.uk"	34	0	0
"277"	"forums.redflagdeals.com"	531	0	0
"278"	"forums.somethingawful.com"	17	0	0
"279"	"forums.watchuseek.com"	154	0	0
"280"	"forums.whirlpool.net.au"	26	0	0
"281"	"forumserver.twoplustwo.com"	17	0	0
"282"	"foxnewsplayer-a.akamaihd.net"	9	0	0
"283"	"fr.pinterest.com"	17	0	0
"284"	"fra1.ib.adnxs.com"	154	0	0
"285"	"fragbite.se"	51	0	0
"286"	"frameup.tumblr.com"	9	0	0
"287"	"freemail.hu"	9	0	0
"288"	"futhart.tumblr.com"	9	0	0
"289"	"fxp.co.il"	368	2.56119849456522	0
"290"	"gamerz.be"	51	0	0
"291"	"games.egedsoft.com"	9	0	0
"292"	"gateway.lan1.de"	9	0	0
"293"	"gathering.tweakers.net"	60	0	0
"294"	"generationmp3.com"	103	0	0
"295"	"gentlemanandmeathead.com"	17	0	0
"296"	"getpocket.com"	94	0	0
"297"	"giga.de"	9	0	0
"298"	"glamurama.uol.com.br"	266	0	0
"299"	"globo"	26	0	0
"300"	"google"	348981	3.52745859394638	9
"301"	"google.at"	9	0	0
"302"	"google.co.in"	26	0	0
"303"	"google.co.uk"	9	0	0
"304"	"google.co.ve"	9	0	0
"305"	"google.com"	34	0	0
"306"	"google.com.ar"	9	0	0
"307"	"google.com.br"	9	0	0
"308"	"google.com.pk"	9	0	0
"309"	"google.com.sa"	9	0	0
"310"	"google.com.sg"	9	0	0
"311"	"google.com.tr"	9	0	0
"312"	"google.de"	1234	0.694357628849271	0
"313"	"google.es"	9	0	0
"314"	"google.fr"	231	0	0
"315"	"google.nl"	9	0	0
"316"	"google.pl"	17	0	0
"317"	"google.ru"	9	0	0
"318"	"google.si"	9	0	0
"319"	"googleads.g.doubleclick.net"	7035	0.456736308315565	0
"320"	"goto.marokko.nl"	26	0	0
"321"	"gottabemobile.com"	9	0	0
"322"	"gr.pinterest.com"	9	0	0
"323"	"grandsmack.se"	51	0	0
"324"	"gtm.hk"	600	0	0
"325"	"gumtree.com"	9	0	0
"326"	"gutefrage.net"	368	4.54030642119565	0
"327"	"gyakorikerdesek.hu"	43	0	0
"328"	"h0llow3yes.tumblr.com"	9	0	0
"329"	"habs.power2wifi.com"	9	0	0
"330"	"hackforums.net"	9	0	0
"331"	"hamsterpaj.net"	51	0	0
"332"	"haosou.com"	86	9.96322458139535	0
"333"	"hardware.slashdot.jp"	9	0	0
"334"	"healthination.com"	9	0	0
"335"	"heaviedutiestyle.com"	9	0	0
"336"	"heise.de"	9	0	0
"337"	"hideref.l7cache.com"	17	0	0
"338"	"home.cableone.net"	9	0	0
"339"	"homeboy.gr"	26	0	0
"340"	"horlogeforum.nl"	17	0	0
"341"	"hpguest.hp.com:8080"	9	0	0
"342"	"hs.fuel451.com"	446	0	0
"343"	"huffingtonpost.com"	26	0	0
"344"	"hukd.mydealz.de"	1002	5.72935130439122	0
"345"	"hype5.pl"	240	0	0
"346"	"hypebeast.com"	171	0	0
"347"	"i.maxthon.com"	9	0	0
"348"	"ib.adnxs.com"	9	0	0
"349"	"ickiliyim.tumblr.com"	9	0	0
"350"	"iconosquare.com"	43	0	0
"351"	"idealprice.co.uk"	9	0	0
"352"	"iga.net"	9	0	0
"353"	"images.google"	9	0	0
"354"	"imasdk.googleapis.com"	111	0	0
"355"	"incisozluk.com.tr"	9	0	0
"356"	"independent.co.uk"	9	0	0
"357"	"indiegogo.com"	651	0	0
"358"	"infomash.org"	9	0	0
"359"	"inside-handy.de"	9	0	0
"360"	"inspirationfeed.com"	34	0	0
"361"	"instagram.com"	531	0	0
"362"	"intern.facebook.com"	9	0	0
"363"	"internacional.elpais.com"	9	0	0
"364"	"ismolaitela.com"	9	0	0
"365"	"it-talent.de"	17	0	0
"366"	"it.pinterest.com"	9	0	0
"367"	"italian-luxury.co"	9	0	0
"368"	"itcafe.hu"	9	0	0
"369"	"itnurk.com"	34	0	0
"370"	"j-sonchen.tumblr.com"	9	0	0
"371"	"jabuk.si"	51	0	0
"372"	"jamaicaobserver.com"	9	0	0
"373"	"java.dzone.com"	17	0	0
"374"	"jdm-option.pl"	103	0	0
"375"	"jeuxvideo.com"	231	4.08017768831169	0
"376"	"jimmyr.com"	34	0	0
"377"	"jobtalk.jp"	9	0	0
"378"	"joker.si"	9	0	0
"379"	"jp.match.com"	9	0	0
"380"	"jp.pinterest.com"	9	0	0
"381"	"jp.zaloapp.com"	34	0	0
"382"	"jpost.com"	9	0	0
"383"	"justify-sexy.tumblr.com"	43	0	0
"384"	"k9safesearch.com"	9	0	0
"385"	"kampfkunst-board.info"	26	0	0
"386"	"kanyetothe.com"	9	0	0
"387"	"kaskus.co.id"	9	0	0
"388"	"kattmaten.tumblr.com"	17	0	0
"389"	"kijiji.ca"	17	0	0
"390"	"kino.de"	9	0	0
"391"	"kiosko.net"	9	0	0
"392"	"kizi.com"	9	0	0
"393"	"kleiderkreisel.de"	9	0	0
"394"	"knewone.com"	26	0	0
"395"	"kvasir"	9	0	0
"396"	"kwick.de"	9	0	0
"397"	"l.facebook.com"	53886	1.31287906083213	1
"398"	"l.yimg.com"	86	0	0
"399"	"landing-pages.yotpo.com"	291	0	0
"400"	"lasprovincias.es"	9	0	0
"401"	"lax1.ib.adnxs.com"	154	0	0
"402"	"lepetitpoussoir.fr"	34	28.9812621176471	0
"403"	"life1nmotion.tumblr.com"	51	0	0
"404"	"linkedin.com"	26	0	0
"405"	"liveatc.net"	9	0	0
"406"	"livingpursuit.com"	9	0	0
"407"	"lm.facebook.com"	19964	0.327696066068924	0
"408"	"lookrichshopcheap.blogspot.ca"	9	0	0
"409"	"lookrichshopcheap.blogspot.co.uk"	17	0	0
"410"	"lookrichshopcheap.blogspot.com"	9	0	0
"411"	"lookrichshopcheap.blogspot.com.au"	9	0	0
"412"	"lookrichshopcheap.blogspot.nl"	9	0	0
"413"	"lovintrends.com"	9	0	0
"414"	"lowerprices.us"	9	0	0
"415"	"lsiri045.tumblr.com"	9	0	0
"416"	"lumyous.tumblr.com"	9	0	0
"417"	"luxuryera.co"	137	0	0
"418"	"m.blog.naver.com"	9	0	0
"419"	"m.chiebukuro.yahoo.co.jp"	154	0	0
"420"	"m.ebay.co.uk"	9	0	0
"421"	"m.ebay.com"	9	0	0
"422"	"m.espn.go.com"	9	0	0
"423"	"m.facebook.com"	233779	0.369954232540134	7
"424"	"m.forocoches.com"	137	0	0
"425"	"m.intern.facebook.com"	9	0	0
"426"	"m.jeuxvideo.com"	86	0	0
"427"	"m.kaskus.co.id"	9	0	0
"428"	"m.mailbeta.libero.it"	9	0	0
"429"	"m.mobilarena.hu"	17	0	0
"430"	"m.neogaf.com"	26	0	0
"431"	"m.prohardver.hu"	9	0	0
"432"	"m.sp.sm.cn"	60	0	0
"433"	"m.vk.com"	34	0	0
"434"	"m3.hkgolden.com"	9	0	0
"435"	"macrumors.com"	9	0	0
"436"	"madclient.uimserv.net"	9	0	0
"437"	"mahee.ru"	9	0	0
"438"	"mail.7plus.sk"	9	0	0
"439"	"mail.com"	9	0	0
"440"	"mail.google.com"	34	73.8392156176471	0
"441"	"mail.inbox.lv"	9	0	0
"442"	"mail.naver.com"	34	0	0
"443"	"mail.qq.com"	9	0	0
"444"	"mail.tds.net"	9	0	0
"445"	"mail.xnet.is"	9	0	0
"446"	"mail22a.webmail.libero.it"	9	0	0
"447"	"mail36a.webmail.libero.it"	9	0	0
"448"	"mail45b.webmail.libero.it"	9	0	0
"449"	"mail55a.webmail.libero.it"	17	0	0
"450"	"mail60b.webmail.libero.it"	9	109.484768	0
"451"	"mail70.abv.bg"	9	95.204146	0
"452"	"mail7a.webmail.libero.it"	9	0	0
"453"	"manage.kmail-lists.com"	163	0	0
"454"	"manfuel.de"	34	0	0
"455"	"manofmany.com"	514	1.41694886575875	0
"456"	"mashable.com"	17	0	0
"457"	"matadornetwork.com"	9	0	0
"458"	"mathrubhumi.com"	17	0	0
"459"	"mcmtwatches.com"	9	0	0
"460"	"mediavida.com"	231	0	0
"461"	"meetup.com"	9	0	0
"462"	"men-watch-out.de"	9	0	0
"463"	"menofstyle.gr"	26	0	0
"464"	"mesak.tw"	43	0	0
"465"	"metaz0an.tumblr.com"	9	0	0
"466"	"misterdaily.nl"	9	0	0
"467"	"mm.0x20.org"	9	0	0
"468"	"mm.web.de"	9	0	0
"469"	"mobafire.com"	9	0	0
"470"	"mobilarena.hu"	9	0	0
"471"	"mobile.de"	9	0	0
"472"	"mobile.pistonheads.com"	9	0	0
"473"	"modernambition.co"	17	0	0
"474"	"montrealracing.com"	51	0	0
"475"	"motorsport-total.com"	9	0	0
"476"	"mrhunt.de"	240	3.39164770416667	0
"477"	"mselfserve.ca"	9	0	0
"478"	"mtb-news.de"	9	0	0
"479"	"musclebuilder.hu"	17	0	0
"480"	"musthavetech.net"	9	0	0
"481"	"muyani.com"	9	0	0
"482"	"mvcintosh.tumblr.com"	26	0	0
"483"	"mvmt-erfahrung.de"	1054	12.0721386337761	0
"484"	"mvmt-erfahrung.us10.list-manage.com"	43	36.8639309767442	0
"485"	"mvmt-watches.myshopify.com"	3102	52.3468487849774	0
"486"	"mvmtuhren.de"	154	0	0
"487"	"mvmtwatches.freshdesk.com"	9	0	0
"488"	"mvmtwatches.tumblr.com"	171	0	0
"489"	"mvmtwatchesreview.com"	9	0	0
"490"	"myadvertisingpays.com"	26	0	0
"491"	"mynet.com"	9	0	0
"492"	"myphone.gr"	17	0	0
"493"	"myregistry.com"	9	0	0
"494"	"nacgw.portnet.tld"	9	0	0
"495"	"natural-mirror.tumblr.com"	9	0	0
"496"	"neeed.com"	9	0	0
"497"	"neogaf.com"	34	0	0
"498"	"neonet.ee"	17	0	0
"499"	"newmail.walla.co.il"	9	0	0
"500"	"news.layervault.com"	34	0	0
"501"	"newsletterarchive.org"	9	0	0
"502"	"newsru.co.il"	9	0	0
"503"	"nikemania.com"	625	0	0
"504"	"notdoppler.com"	9	0	0
"505"	"notify.bluecoat.com"	43	0	0
"506"	"notify.vwag.com"	9	0	0
"507"	"nullrefer.com"	26	0	0
"508"	"nxstyle.me"	94	0	0
"509"	"nym1.ib.adnxs.com"	214	0	0
"510"	"nyx.cz"	9	0	0
"511"	"obsid.se"	129	6.31004224031008	0
"512"	"offers.bycontext.com"	754	1.30684736339523	0
"513"	"offsite.com.cy"	34	0	0
"514"	"ok.ru"	9	0	0
"515"	"only-search.com"	17	0	0
"516"	"openrg.home"	9	0	0
"517"	"optimizely.com"	26	0	0
"518"	"orologi.forumfree.it"	9	0	0
"519"	"overclockzone.com"	86	0	0
"520"	"pagead2.googlesyndication.com"	9	0	0
"521"	"partnerads.ysm.yahoo.com"	17	0	0
"522"	"partners.cstools.facebook.com"	9	0	0
"523"	"partners.facebook.com"	69	0	0
"524"	"partners.intern.facebook.com"	9	0	0
"525"	"pasqualeponticelli.com"	26	0	0
"526"	"pc.poradna.net"	9	0	0
"527"	"peinture.comprendrechoisir.com"	9	0	0
"528"	"pickit.io"	9	0	0
"529"	"pik.ba"	9	0	0
"530"	"pinterest"	71495	1.51318584296804	3
"531"	"pinterest-utm_medium=cpc-utm_campaign=female_male_gift-pp=1"	86	0	0
"532"	"pinterest-utm_medium=cpc-utm_content=441499-utm_campaign=mens-v2-pp=1"	9	0	0
"533"	"pinterest-utm_medium=marketing-utm_campaign=pins"	51	0	0
"534"	"pinterest-utm_medium=paid-utm_campaign=black_black_wood_background-pp=1"	69	0	0
"535"	"pinterest-utm_medium=paid-utm_campaign=black_tan_leather2_wood_background-pp=1"	103	0	0
"536"	"pinterest-utm_medium=paid-utm_campaign=black_tan_leather_wood_background-pp=1"	17	0	0
"537"	"pinterest-utm_medium=paid-utm_campaign=gold_leather_scarf_black_coat-pp=1"	17	0	0
"538"	"pinterest-utm_medium=paid-utm_campaign=gold_leather_vertical_arm_colorful_dress-pp=1"	51	0	0
"539"	"pinterest-utm_medium=paid-utm_campaign=gold_pearl_leather_stock_photo-pp=1"	34	0	0
"540"	"pinterest-utm_medium=paid-utm_campaign=womens_rose_gold_stock_photo-pp=1"	9	0	0
"541"	"pinterest-utm_medium=promoted_pin-utm_content=gold_pearl_leather_stock_photo-utm_campaign=0002-pp=1"	17	0	0
"542"	"pinterest.com"	26416	0.340380050348274	0
"543"	"pistonheads.com"	51	0	0
"544"	"pitchside23.tumblr.com"	9	0	0
"545"	"pl.pinterest.com"	9	0	0
"546"	"planetgoldilocks.com"	9	0	0
"547"	"plus.url.google.com"	34	0	0
"548"	"poczta.o2.pl"	26	0	0
"549"	"poczta.wp.pl"	26	0	0
"550"	"poczta10.o2.pl"	9	0	0
"551"	"popist.com"	17	0	0
"552"	"portail.hotspot.2isr.fr"	9	0	0
"553"	"portal.sitecom.com"	9	0	0
"554"	"portalsatova.com"	51	0	0
"555"	"post-gazette.com"	9	0	0
"556"	"pr0gramm.com"	334	0	0
"557"	"primermagazine.com"	26	0	0
"558"	"prohardver.hu"	34	0	0
"559"	"promopro.com"	2708	27.7685216410635	0
"560"	"protopage.com"	26	0	0
"561"	"prvlx.tumblr.com"	9	0	0
"562"	"psxextreme.info"	17	0	0
"563"	"pubads.g.doubleclick.net"	9	0	0
"564"	"pulsenews"	51	0	0
"565"	"purerave.com"	9	0	0
"566"	"r.duckduckgo.com"	34	0	0
"567"	"raddestlooks.net"	9	0	0
"568"	"rcportal.sk"	9	0	0
"569"	"rd.wechat.com"	9	0	0
"570"	"readmore.de"	180	0	0
"571"	"readspike.com"	9	0	0
"572"	"realcmqforum.com"	9	0	0
"573"	"reddit.com"	2253	0.760619009764758	0
"574"	"regalpourlesyeux.tumblr.com"	9	0	0
"575"	"related.forbes.com"	17	0	0
"576"	"retailmenot.com"	51	35.2815364705882	0
"577"	"reuters.com"	26	0	0
"578"	"rincondecaballeros.com"	26	0	0
"579"	"rotter.name"	17	0	0
"580"	"rscl.be"	9	0	0
"581"	"rsvlts.com"	9	0	0
"582"	"ru.pinterest.com"	9	0	0
"583"	"s.ppomppu.co.kr"	9	0	0
"584"	"s5.deami.net"	9	0	0
"585"	"says-news.dev"	9	0	0
"586"	"scores.espn.go.com"	9	0	0
"587"	"search-results"	9	0	0
"588"	"search.blekko.com"	9	0	0
"589"	"search.clearch.org"	9	0	0
"590"	"search.fbdownloader.com"	17	0	0
"591"	"search.gifthulk.com"	9	0	0
"592"	"search.iminent.com"	17	47.8820852352941	0
"593"	"search.incredibar.com"	9	0	0
"594"	"search.pch.com"	17	0	0
"595"	"search.portalsepeti.com"	9	0	0
"596"	"search.snapdo.com"	9	0	0
"597"	"search.tb.ask.com"	51	0	0
"598"	"search.toolbars.alexa.com"	9	0	0
"599"	"search.webssearches.com"	17	0	0
"600"	"searches.omiga-plus.com"	9	0	0
"601"	"searches.uninstallmaster.com"	17	0	0
"602"	"searchlock.com"	9	0	0
"603"	"searchopedia.co.uk"	9	0	0
"604"	"secure.livechatinc.com"	34	0	0
"605"	"securedns.comodo.com"	9	0	0
"606"	"seekingalpha.com"	17	0	0
"607"	"seenews.info"	9	0	0
"608"	"selectism.com"	34	0	0
"609"	"semalt.semalt.com"	69	0	0
"610"	"seznam"	51	0	0
"611"	"sfcu.com.au"	17	0	0
"612"	"shake-your-skeleton.tumblr.com"	9	0	0
"613"	"shares.telegraph.co.uk"	9	0	0
"614"	"shellyrose21.tumblr.com"	9	0	0
"615"	"shopify.abovemarket.com"	17	0	0
"616"	"shopify.ca"	17	0	0
"617"	"shopify.co.uk"	9	0	0
"618"	"shopify.com"	291	0	0
"619"	"shopify.com.sg"	9	0	0
"620"	"shopify.in"	9	0	0
"621"	"shopifypartnerblog.myshopify.com"	17	0	0
"622"	"shopping.com"	9	0	0
"623"	"shopscanner.co.uk"	9	0	0
"624"	"shortlist.com"	120	7.85434205	0
"625"	"show.status"	9	0	0
"626"	"sin1.g.adnxs.com"	257	0	0
"627"	"sirisara.lk"	9	0	0
"628"	"site32.social-buttons.com"	9	0	0
"629"	"site38.social-buttons.com"	26	0	0
"630"	"skaaiste.tumblr.com"	9	0	0
"631"	"slizg.eu"	617	0	0
"632"	"smallworlds.com"	9	0	0
"633"	"smile.amazon.com"	9	90.4439387777778	0
"634"	"smoksho.com"	9	0	0
"635"	"sneakhype.com"	223	0	0
"636"	"snt151.mail.live.com"	9	0	0
"637"	"social"	1645	1.5365775550152	0
"638"	"social-buttons.com"	43	0	0
"639"	"society.people.com.cn"	9	0	0
"640"	"sofacoach.de"	9	0	0
"641"	"sogou"	17	0	0
"642"	"solitaireonline.com"	9	0	0
"643"	"sparknotes.com"	9	0	0
"644"	"spenddmag.nl"	129	0	0
"645"	"spfc.terra.com.br"	9	0	0
"646"	"sportbild.bild.de"	9	0	0
"647"	"sportdog.gr"	9	0	0
"648"	"spotmix.libero.it"	9	0	0
"649"	"spox.com"	9	0	0
"650"	"srchack.org"	9	0	0
"651"	"st.chatango.com"	9	0	0
"652"	"startsiden"	9	0	0
"653"	"stips.co.il"	17	0	0
"654"	"streetcoyote.tumblr.com"	9	0	0
"655"	"stumbleupon.com"	26	0	0
"656"	"stupiddope.com"	9	0	0
"657"	"styleengine.com"	17	0	0
"658"	"styleforum.ru"	9	0	0
"659"	"stylishlyme.com"	9	0	0
"660"	"suche.gmx.net"	9	0	0
"661"	"suche.t-online.de"	9	0	0
"662"	"suchen.mobile.de"	103	0	0
"663"	"swagsyndicate.com"	9	0	0
"664"	"swarvemen.com"	9	0	0
"665"	"t.co"	1422	0.51217420323488	0
"666"	"talkmorgan.com"	26	0	0
"667"	"task.megainformationtech.com"	17	0	0
"668"	"team-andro.com"	34	0	0
"669"	"telchina.pl"	86	0	0
"670"	"tetrisfriends.com"	9	0	0
"671"	"the-perfect-gentlemann.tumblr.com"	9	0	0
"672"	"the-right-angle.tumblr.com"	9	0	0
"673"	"theawesomer.com"	17	0	0
"674"	"theclassyissue.com"	9	0	0
"675"	"thecomman.com"	146	0	0
"676"	"thecow.me"	26	0	0
"677"	"thedugout.tv"	9	0	0
"678"	"thegadgetflow.com"	60	0	0
"679"	"thegreekz.com"	77	0	0
"680"	"theindychannel.com"	9	0	0
"681"	"themanliness.net"	308	0	0
"682"	"theredirector.s3-website-us-east-1.amazonaws.com"	9	0	0
"683"	"thesetingstaketime.com"	17	0	0
"684"	"thesharpgentleman.com"	9	0	0
"685"	"thesmartsearch.net"	17	47.8820852352941	0
"686"	"thetimebum.com"	26	0	0
"687"	"theultralinx.com"	17	0	0
"688"	"thevarsitylife.com"	9	0	0
"689"	"theverge.com"	9	0	0
"690"	"thumbs-up.dk"	17	0	0
"691"	"timesofindia.indiatimes.com"	9	0	0
"692"	"tinytwisst.com"	51	0	0
"693"	"tjock.se"	154	0	0
"694"	"torg.pl"	34	0	0
"695"	"torrentsmd.com"	34	0	0
"696"	"torrentsmd.me"	9	0	0
"697"	"tpc.googlesyndication.com"	7797	0.564345561754521	0
"698"	"transfermarkt.de"	9	0	0
"699"	"translate.google.ca"	26	0	0
"700"	"translate.google.co.cr"	9	0	0
"701"	"translate.google.com"	9	0	0
"702"	"translate.google.com.mx"	9	0	0
"703"	"translate.google.com.tr"	9	0	0
"704"	"translate.google.de"	69	0	0
"705"	"translate.google.es"	34	0	0
"706"	"translate.google.fr"	17	0	0
"707"	"translate.google.it"	60	0	0
"708"	"translate.google.nl"	17	0	0
"709"	"translate.google.ru"	9	0	0
"710"	"translate.google.se"	9	0	0
"711"	"translate.googleusercontent.com"	69	39.7373826956522	0
"712"	"tribalwar.com"	9	0	0
"713"	"tuttojuve.com"	9	0	0
"714"	"tweedehands.nl"	9	0	0
"715"	"twitch.tv"	17	0	0
"716"	"twitter"	377	4.31827824137931	0
"717"	"twitter.com"	17	0	0
"718"	"uhrforum.de"	514	0	0
"719"	"uk.askmen.com"	17	0	0
"720"	"uk.complex.com"	60	0	0
"721"	"uk.pinterest.com"	17	0	0
"722"	"uncrate.com"	4104	0.396683941764133	0
"723"	"undertheline.net"	9	0	0
"724"	"url.alibaba.com"	34	0	0
"725"	"us-mg5.mail.yahoo.com"	9	0	0
"726"	"us.wow.com"	51	0	0
"727"	"usatoday.com"	9	0	0
"728"	"vansandfemales.tumblr.com"	9	0	0
"729"	"versheid.com"	9	90.4439387777778	0
"730"	"video.foxnews.com"	94	0	0
"731"	"virgilio"	9	0	0
"732"	"visteadecuadamente.com"	43	0	0
"733"	"vividessentials.tumblr.com"	9	0	0
"734"	"vk.com"	291	0	0
"735"	"vnzno1.net"	26	0	0
"736"	"vnzno1.us"	9	0	0
"737"	"vosteran.com"	9	0	0
"738"	"vozforums.com"	17	0	0
"739"	"wallstreetoasis.com"	26	0	0
"740"	"walterkort.nl"	120	0	0
"741"	"wanelo.com"	17	0	0
"742"	"watch.com"	26	0	0
"743"	"watchfreeks.com"	9	0	0
"744"	"watchreport.com"	94	0	0
"745"	"wearevanity.co"	129	0	0
"746"	"web-26.citromail.hu"	9	0	0
"747"	"web.mail.comcast.net"	9	0	0
"748"	"web.orange.es"	9	0	0
"749"	"web.whatsapp.com"	9	0	0
"750"	"web4men.sk"	86	0	0
"751"	"webcrawler.com"	17	0	0
"752"	"webmail.myway.com"	9	0	0
"753"	"webmail.virgilio.it"	9	0	0
"754"	"webptt.com"	17	0	0
"755"	"websta.me"	9	0	0
"756"	"weshop.co.id"	9	0	0
"757"	"wetteronline.de"	9	0	0
"758"	"whoscored.com"	9	0	0
"759"	"wishlistr.com"	9	0	0
"760"	"woobox.com"	523	1.55639665200765	0
"761"	"wrist.im"	120	0	0
"762"	"wristporn.net"	9	0	0
"763"	"wristprn.tumblr.com"	9	0	0
"764"	"writelonger.com"	9	0	0
"765"	"ww1.worldwaches.com"	9	0	0
"766"	"ww3.autoscout24.de"	9	0	0
"767"	"wykop.pl"	428	0	0
"768"	"xatakahome.com"	9	0	0
"769"	"xatakamovil.com"	9	0	0
"770"	"xoxohth.com"	34	0	0
"771"	"yahoo"	5021	3.27586260485959	0
"772"	"yandex"	231	0	0
"773"	"yandex.ru"	17	0	0
"774"	"yankodesign"	43	0	0
"775"	"yankodesign.com"	163	0	0
"776"	"yb.com"	9	0	0
"777"	"yepi.com"	9	0	0
"778"	"yeuxdore.tumblr.com"	9	0	0
"779"	"ylilauta.org"	69	0	0
"780"	"yotpo"	2682	1.99794526360925	0
"781"	"youagainstyesterday.tumblr.com"	9	0	0
"782"	"yougetsignal.com"	17	0	0
"783"	"youtube.com"	43	0	0
"784"	"zegarkiclub.pl"	9	0	0
"785"	"zhihu.com"	540	0	0
