"date"	"adGroup"	"revenuePerUser"	"users"	"cat"	"pred_RPU"
"1"	"2015-01-08"	"(not set)"	2.14654685622747	29964	"(not set)"	2.13378105062815
"3"	"2015-01-08"	"Dynamic Search Ads - All Pages"	0	52	"Dynamic Search Ads - All Pages"	0.0214883510518034
"4"	"2015-01-08"	"Females 45+ Add to Cart"	0	3	"| Other |"	10.5673341523341
"5"	"2015-01-08"	"Jake's General Broad KWs"	0	7	"| Other |"	10.5673341523341
"7"	"2015-01-08"	"Managed Placements"	0	2	"Managed Placements"	0
"8"	"2015-01-08"	"Managed Placements + \"watch\""	0	2	"Managed Placements + \"watch\""	1.27118644067797
"9"	"2015-01-08"	"(not set)"	2.14654685622747	29964	"(not set)"	2.13378105062815
"11"	"2015-01-08"	"Dynamic Search Ads - All Pages"	0	52	"Dynamic Search Ads - All Pages"	0.0214883510518034
"13"	"2015-01-08"	"Jake's General Broad KWs"	0	7	"| Other |"	10.5673341523341
"15"	"2015-01-08"	"Managed Placements"	0	2	"Managed Placements"	0
"16"	"2015-01-08"	"Managed Placements + \"watch\""	0	2	"Managed Placements + \"watch\""	1.27118644067797
"17"	"2015-01-08"	"(not set)"	2.14654685622747	29964	"(not set)"	2.13378105062815
"19"	"2015-01-08"	"Dynamic Search Ads - All Pages"	0	52	"Dynamic Search Ads - All Pages"	0.0214883510518034
"20"	"2015-01-08"	"Females 45+ Add to Cart"	0	3	"| Other |"	10.5673341523341
"21"	"2015-01-08"	"Jake's General Broad KWs"	0	7	"| Other |"	10.5673341523341
"23"	"2015-01-08"	"Managed Placements"	0	2	"Managed Placements"	0
"24"	"2015-01-08"	"Managed Placements + \"watch\""	0	2	"Managed Placements + \"watch\""	1.27118644067797
"25"	"2015-01-08"	"(not set)"	2.14654685622747	29964	"(not set)"	2.13378105062815
"27"	"2015-01-08"	"Dynamic Search Ads - All Pages"	0	52	"Dynamic Search Ads - All Pages"	0.0214883510518034
"28"	"2015-01-08"	"Females 45+ Add to Cart"	0	3	"| Other |"	10.5673341523341
"29"	"2015-01-08"	"Jake's General Broad KWs"	0	7	"| Other |"	10.5673341523341
"31"	"2015-01-08"	"Managed Placements"	0	2	"Managed Placements"	0
"32"	"2015-01-08"	"Managed Placements + \"watch\""	0	2	"Managed Placements + \"watch\""	1.27118644067797
"33"	"2015-01-08"	"(not set)"	2.14654685622747	29964	"(not set)"	2.13378105062815
"35"	"2015-01-08"	"Dynamic Search Ads - All Pages"	0	52	"Dynamic Search Ads - All Pages"	0.0214883510518034
"36"	"2015-01-08"	"Females 45+ Add to Cart"	0	3	"| Other |"	10.5673341523341
"37"	"2015-01-08"	"Jake's General Broad KWs"	0	7	"| Other |"	10.5673341523341
"39"	"2015-01-08"	"Managed Placements"	0	2	"Managed Placements"	0
"40"	"2015-01-08"	"Managed Placements + \"watch\""	0	2	"Managed Placements + \"watch\""	1.27118644067797
"41"	"2015-01-08"	"(not set)"	2.14654685622747	29964	"(not set)"	2.13378105062815
"43"	"2015-01-08"	"Dynamic Search Ads - All Pages"	0	52	"Dynamic Search Ads - All Pages"	0.0214883510518034
"44"	"2015-01-08"	"Females 45+ Add to Cart"	0	3	"| Other |"	10.5673341523341
"45"	"2015-01-08"	"Jake's General Broad KWs"	0	7	"| Other |"	10.5673341523341
"47"	"2015-01-08"	"Managed Placements"	0	2	"Managed Placements"	0
"48"	"2015-01-08"	"Managed Placements + \"watch\""	0	2	"Managed Placements + \"watch\""	1.27118644067797
"49"	"2015-01-08"	"(not set)"	2.14654685622747	29964	"(not set)"	2.13378105062815
"51"	"2015-01-08"	"Dynamic Search Ads - All Pages"	0	52	"Dynamic Search Ads - All Pages"	0.0214883510518034
"52"	"2015-01-08"	"Females 45+ Add to Cart"	0	3	"| Other |"	10.5673341523341
"53"	"2015-01-08"	"Jake's General Broad KWs"	0	7	"| Other |"	10.5673341523341
"55"	"2015-01-08"	"Managed Placements"	0	2	"Managed Placements"	0
"56"	"2015-01-08"	"Managed Placements + \"watch\""	0	2	"Managed Placements + \"watch\""	1.27118644067797
"57"	"2015-01-08"	"(not set)"	2.14654685622747	29964	"(not set)"	2.13378105062815
"59"	"2015-01-08"	"Dynamic Search Ads - All Pages"	0	52	"Dynamic Search Ads - All Pages"	0.0214883510518034
"60"	"2015-01-08"	"Females 45+ Add to Cart"	0	3	"| Other |"	10.5673341523341
"61"	"2015-01-08"	"Jake's General Broad KWs"	0	7	"| Other |"	10.5673341523341
"63"	"2015-01-08"	"Managed Placements"	0	2	"Managed Placements"	0
"64"	"2015-01-08"	"Managed Placements + \"watch\""	0	2	"Managed Placements + \"watch\""	1.27118644067797
"65"	"2015-01-08"	"(not set)"	2.14654685622747	29964	"(not set)"	2.13378105062815
"67"	"2015-01-08"	"Dynamic Search Ads - All Pages"	0	52	"Dynamic Search Ads - All Pages"	0.0214883510518034
"68"	"2015-01-08"	"Females 45+ Add to Cart"	0	3	"| Other |"	10.5673341523341
"69"	"2015-01-08"	"Jake's General Broad KWs"	0	7	"| Other |"	10.5673341523341
"71"	"2015-01-08"	"Managed Placements"	0	2	"Managed Placements"	0
"72"	"2015-01-08"	"Managed Placements + \"watch\""	0	2	"Managed Placements + \"watch\""	1.27118644067797
"73"	"2015-01-08"	"(not set)"	2.14654685622747	29964	"(not set)"	2.13378105062815
"75"	"2015-01-08"	"Dynamic Search Ads - All Pages"	0	52	"Dynamic Search Ads - All Pages"	0.0214883510518034
"76"	"2015-01-08"	"Females 45+ Add to Cart"	0	3	"| Other |"	10.5673341523341
"77"	"2015-01-08"	"Jake's General Broad KWs"	0	7	"| Other |"	10.5673341523341
"79"	"2015-01-08"	"Managed Placements"	0	2	"Managed Placements"	0
"80"	"2015-01-08"	"Managed Placements + \"watch\""	0	2	"Managed Placements + \"watch\""	1.27118644067797
"81"	"2015-01-08"	"(not set)"	2.14654685622747	29964	"(not set)"	2.13378105062815
"83"	"2015-01-08"	"Dynamic Search Ads - All Pages"	0	52	"Dynamic Search Ads - All Pages"	0.0214883510518034
"84"	"2015-01-08"	"Females 45+ Add to Cart"	0	3	"| Other |"	10.5673341523341
"85"	"2015-01-08"	"Jake's General Broad KWs"	0	7	"| Other |"	10.5673341523341
"87"	"2015-01-08"	"Managed Placements"	0	2	"Managed Placements"	0
"88"	"2015-01-08"	"Managed Placements + \"watch\""	0	2	"Managed Placements + \"watch\""	1.27118644067797
"89"	"2015-01-08"	"(not set)"	2.14654685622747	29964	"(not set)"	2.13378105062815
"91"	"2015-01-08"	"Dynamic Search Ads - All Pages"	0	52	"Dynamic Search Ads - All Pages"	0.0214883510518034
"92"	"2015-01-08"	"Females 45+ Add to Cart"	0	3	"| Other |"	10.5673341523341
"93"	"2015-01-08"	"Jake's General Broad KWs"	0	7	"| Other |"	10.5673341523341
"95"	"2015-01-08"	"Managed Placements"	0	2	"Managed Placements"	0
"96"	"2015-01-08"	"Managed Placements + \"watch\""	0	2	"Managed Placements + \"watch\""	1.27118644067797
"97"	"2015-01-08"	"(not set)"	2.14654685622747	29964	"(not set)"	2.13378105062815
"99"	"2015-01-08"	"Dynamic Search Ads - All Pages"	0	52	"Dynamic Search Ads - All Pages"	0.0214883510518034
"100"	"2015-01-08"	"Females 45+ Add to Cart"	0	3	"| Other |"	10.5673341523341
"101"	"2015-01-08"	"Jake's General Broad KWs"	0	7	"| Other |"	10.5673341523341
"103"	"2015-01-08"	"Managed Placements"	0	2	"Managed Placements"	0
"104"	"2015-01-08"	"Managed Placements + \"watch\""	0	2	"Managed Placements + \"watch\""	1.27118644067797
"105"	"2015-01-08"	"(not set)"	2.14654685622747	29964	"(not set)"	2.13378105062815
"107"	"2015-01-08"	"Dynamic Search Ads - All Pages"	0	52	"Dynamic Search Ads - All Pages"	0.0214883510518034
"108"	"2015-01-08"	"Females 45+ Add to Cart"	0	3	"| Other |"	10.5673341523341
"109"	"2015-01-08"	"Jake's General Broad KWs"	0	7	"| Other |"	10.5673341523341
"111"	"2015-01-08"	"Managed Placements"	0	2	"Managed Placements"	0
"112"	"2015-01-08"	"Managed Placements + \"watch\""	0	2	"Managed Placements + \"watch\""	1.27118644067797
"113"	"2015-01-08"	"(not set)"	2.14654685622747	29964	"(not set)"	2.13378105062815
"115"	"2015-01-08"	"Dynamic Search Ads - All Pages"	0	52	"Dynamic Search Ads - All Pages"	0.0214883510518034
"116"	"2015-01-08"	"Females 45+ Add to Cart"	0	3	"| Other |"	10.5673341523341
"117"	"2015-01-08"	"Jake's General Broad KWs"	0	7	"| Other |"	10.5673341523341
"119"	"2015-01-08"	"Managed Placements"	0	2	"Managed Placements"	0
"120"	"2015-01-08"	"Managed Placements + \"watch\""	0	2	"Managed Placements + \"watch\""	1.27118644067797
"121"	"2015-01-08"	"(not set)"	2.14654685622747	29964	"(not set)"	2.13378105062815
"123"	"2015-01-08"	"Dynamic Search Ads - All Pages"	0	52	"Dynamic Search Ads - All Pages"	0.0214883510518034
"124"	"2015-01-08"	"Females 45+ Add to Cart"	0	3	"| Other |"	10.5673341523341
"125"	"2015-01-08"	"Jake's General Broad KWs"	0	7	"| Other |"	10.5673341523341
"127"	"2015-01-08"	"Managed Placements"	0	2	"Managed Placements"	0
"128"	"2015-01-08"	"Managed Placements + \"watch\""	0	2	"Managed Placements + \"watch\""	1.27118644067797
"129"	"2015-01-08"	"(not set)"	2.14654685622747	29964	"(not set)"	2.13378105062815
"131"	"2015-01-08"	"Dynamic Search Ads - All Pages"	0	52	"Dynamic Search Ads - All Pages"	0.0214883510518034
"132"	"2015-01-08"	"Females 45+ Add to Cart"	0	3	"| Other |"	10.5673341523341
"133"	"2015-01-08"	"Jake's General Broad KWs"	0	7	"| Other |"	10.5673341523341
"135"	"2015-01-08"	"Managed Placements"	0	2	"Managed Placements"	0
"136"	"2015-01-08"	"Managed Placements + \"watch\""	0	2	"Managed Placements + \"watch\""	1.27118644067797
"137"	"2015-01-08"	"(not set)"	2.14654685622747	29964	"(not set)"	2.13378105062815
"139"	"2015-01-08"	"Dynamic Search Ads - All Pages"	0	52	"Dynamic Search Ads - All Pages"	0.0214883510518034
"140"	"2015-01-08"	"Females 45+ Add to Cart"	0	3	"| Other |"	10.5673341523341
"141"	"2015-01-08"	"Jake's General Broad KWs"	0	7	"| Other |"	10.5673341523341
"143"	"2015-01-08"	"Managed Placements"	0	2	"Managed Placements"	0
"144"	"2015-01-08"	"Managed Placements + \"watch\""	0	2	"Managed Placements + \"watch\""	1.27118644067797
"145"	"2015-01-08"	"(not set)"	2.14654685622747	29964	"(not set)"	2.13378105062815
"147"	"2015-01-08"	"Dynamic Search Ads - All Pages"	0	52	"Dynamic Search Ads - All Pages"	0.0214883510518034
"148"	"2015-01-08"	"Females 45+ Add to Cart"	0	3	"| Other |"	10.5673341523341
"149"	"2015-01-08"	"Jake's General Broad KWs"	0	7	"| Other |"	10.5673341523341
"151"	"2015-01-08"	"Managed Placements"	0	2	"Managed Placements"	0
"152"	"2015-01-08"	"Managed Placements + \"watch\""	0	2	"Managed Placements + \"watch\""	1.27118644067797
"153"	"2015-01-08"	"(not set)"	2.14654685622747	29964	"(not set)"	2.13378105062815
"155"	"2015-01-08"	"Dynamic Search Ads - All Pages"	0	52	"Dynamic Search Ads - All Pages"	0.0214883510518034
"156"	"2015-01-08"	"Females 45+ Add to Cart"	0	3	"| Other |"	10.5673341523341
"157"	"2015-01-08"	"Jake's General Broad KWs"	0	7	"| Other |"	10.5673341523341
"159"	"2015-01-08"	"Managed Placements"	0	2	"Managed Placements"	0
"160"	"2015-01-08"	"Managed Placements + \"watch\""	0	2	"Managed Placements + \"watch\""	1.27118644067797
"161"	"2015-01-08"	"(not set)"	2.14654685622747	29964	"(not set)"	2.13378105062815
"163"	"2015-01-08"	"Dynamic Search Ads - All Pages"	0	52	"Dynamic Search Ads - All Pages"	0.0214883510518034
"164"	"2015-01-08"	"Females 45+ Add to Cart"	0	3	"| Other |"	10.5673341523341
"165"	"2015-01-08"	"Jake's General Broad KWs"	0	7	"| Other |"	10.5673341523341
"167"	"2015-01-08"	"Managed Placements"	0	2	"Managed Placements"	0
"168"	"2015-01-08"	"Managed Placements + \"watch\""	0	2	"Managed Placements + \"watch\""	1.27118644067797
"169"	"2015-01-08"	"(not set)"	2.14654685622747	29964	"(not set)"	2.13378105062815
"171"	"2015-01-08"	"Dynamic Search Ads - All Pages"	0	52	"Dynamic Search Ads - All Pages"	0.0214883510518034
"172"	"2015-01-08"	"Females 45+ Add to Cart"	0	3	"| Other |"	10.5673341523341
"173"	"2015-01-08"	"Jake's General Broad KWs"	0	7	"| Other |"	10.5673341523341
"175"	"2015-01-08"	"Managed Placements"	0	2	"Managed Placements"	0
"176"	"2015-01-08"	"Managed Placements + \"watch\""	0	2	"Managed Placements + \"watch\""	1.27118644067797
"177"	"2015-01-08"	"(not set)"	2.14654685622747	29964	"(not set)"	2.13378105062815
"179"	"2015-01-08"	"Dynamic Search Ads - All Pages"	0	52	"Dynamic Search Ads - All Pages"	0.0214883510518034
"180"	"2015-01-08"	"Females 45+ Add to Cart"	0	3	"| Other |"	10.5673341523341
"181"	"2015-01-08"	"Jake's General Broad KWs"	0	7	"| Other |"	10.5673341523341
"183"	"2015-01-08"	"Managed Placements"	0	2	"Managed Placements"	0
"184"	"2015-01-08"	"Managed Placements + \"watch\""	0	2	"Managed Placements + \"watch\""	1.27118644067797
"185"	"2015-01-08"	"(not set)"	2.14654685622747	29964	"(not set)"	2.13378105062815
"187"	"2015-01-08"	"Dynamic Search Ads - All Pages"	0	52	"Dynamic Search Ads - All Pages"	0.0214883510518034
"188"	"2015-01-08"	"Females 45+ Add to Cart"	0	3	"| Other |"	10.5673341523341
"189"	"2015-01-08"	"Jake's General Broad KWs"	0	7	"| Other |"	10.5673341523341
"191"	"2015-01-08"	"Managed Placements"	0	2	"Managed Placements"	0
"192"	"2015-01-08"	"Managed Placements + \"watch\""	0	2	"Managed Placements + \"watch\""	1.27118644067797
"193"	"2015-01-08"	"(not set)"	2.14654685622747	29964	"(not set)"	2.13378105062815
"195"	"2015-01-08"	"Dynamic Search Ads - All Pages"	0	52	"Dynamic Search Ads - All Pages"	0.0214883510518034
"196"	"2015-01-08"	"Females 45+ Add to Cart"	0	3	"| Other |"	10.5673341523341
"197"	"2015-01-08"	"Jake's General Broad KWs"	0	7	"| Other |"	10.5673341523341
"199"	"2015-01-08"	"Managed Placements"	0	2	"Managed Placements"	0
"200"	"2015-01-08"	"Managed Placements + \"watch\""	0	2	"Managed Placements + \"watch\""	1.27118644067797
"201"	"2015-01-08"	"(not set)"	2.14654685622747	29964	"(not set)"	2.13378105062815
"203"	"2015-01-08"	"Dynamic Search Ads - All Pages"	0	52	"Dynamic Search Ads - All Pages"	0.0214883510518034
"204"	"2015-01-08"	"Females 45+ Add to Cart"	0	3	"| Other |"	10.5673341523341
"205"	"2015-01-08"	"Jake's General Broad KWs"	0	7	"| Other |"	10.5673341523341
"207"	"2015-01-08"	"Managed Placements"	0	2	"Managed Placements"	0
"208"	"2015-01-08"	"Managed Placements + \"watch\""	0	2	"Managed Placements + \"watch\""	1.27118644067797
"209"	"2015-01-08"	"(not set)"	2.14654685622747	29964	"(not set)"	2.13378105062815
"211"	"2015-01-08"	"Dynamic Search Ads - All Pages"	0	52	"Dynamic Search Ads - All Pages"	0.0214883510518034
"212"	"2015-01-08"	"Females 45+ Add to Cart"	0	3	"| Other |"	10.5673341523341
"213"	"2015-01-08"	"Jake's General Broad KWs"	0	7	"| Other |"	10.5673341523341
"215"	"2015-01-08"	"Managed Placements"	0	2	"Managed Placements"	0
"216"	"2015-01-08"	"Managed Placements + \"watch\""	0	2	"Managed Placements + \"watch\""	1.27118644067797
"217"	"2015-01-08"	"(not set)"	2.14654685622747	29964	"(not set)"	2.13378105062815
"219"	"2015-01-08"	"Dynamic Search Ads - All Pages"	0	52	"Dynamic Search Ads - All Pages"	0.0214883510518034
"220"	"2015-01-08"	"Females 45+ Add to Cart"	0	3	"| Other |"	10.5673341523341
"221"	"2015-01-08"	"Jake's General Broad KWs"	0	7	"| Other |"	10.5673341523341
"223"	"2015-01-08"	"Managed Placements"	0	2	"Managed Placements"	0
"224"	"2015-01-08"	"Managed Placements + \"watch\""	0	2	"Managed Placements + \"watch\""	1.27118644067797
"225"	"2015-01-08"	"(not set)"	2.14654685622747	29964	"(not set)"	2.13378105062815
"228"	"2015-01-08"	"Females 45+ Add to Cart"	0	3	"| Other |"	10.5673341523341
"229"	"2015-01-08"	"Jake's General Broad KWs"	0	7	"| Other |"	10.5673341523341
"231"	"2015-01-08"	"Managed Placements"	0	2	"Managed Placements"	0
"232"	"2015-01-08"	"Managed Placements + \"watch\""	0	2	"Managed Placements + \"watch\""	1.27118644067797
"233"	"2015-01-08"	"(not set)"	2.14654685622747	29964	"(not set)"	2.13378105062815
"235"	"2015-01-08"	"Dynamic Search Ads - All Pages"	0	52	"Dynamic Search Ads - All Pages"	0.0214883510518034
"236"	"2015-01-08"	"Females 45+ Add to Cart"	0	3	"| Other |"	10.5673341523341
"237"	"2015-01-08"	"Jake's General Broad KWs"	0	7	"| Other |"	10.5673341523341
"239"	"2015-01-08"	"Managed Placements"	0	2	"Managed Placements"	0
"240"	"2015-01-08"	"Managed Placements + \"watch\""	0	2	"Managed Placements + \"watch\""	1.27118644067797
"241"	"2015-01-08"	"(not set)"	2.14654685622747	29964	"(not set)"	2.13378105062815
"243"	"2015-01-08"	"Dynamic Search Ads - All Pages"	0	52	"Dynamic Search Ads - All Pages"	0.0214883510518034
"244"	"2015-01-08"	"Females 45+ Add to Cart"	0	3	"| Other |"	10.5673341523341
"245"	"2015-01-08"	"Jake's General Broad KWs"	0	7	"| Other |"	10.5673341523341
"247"	"2015-01-08"	"Managed Placements"	0	2	"Managed Placements"	0
"248"	"2015-01-08"	"Managed Placements + \"watch\""	0	2	"Managed Placements + \"watch\""	1.27118644067797
"249"	"2015-01-08"	"(not set)"	2.14654685622747	29964	"(not set)"	2.13378105062815
"251"	"2015-01-08"	"Dynamic Search Ads - All Pages"	0	52	"Dynamic Search Ads - All Pages"	0.0214883510518034
"252"	"2015-01-08"	"Females 45+ Add to Cart"	0	3	"| Other |"	10.5673341523341
"253"	"2015-01-08"	"Jake's General Broad KWs"	0	7	"| Other |"	10.5673341523341
"255"	"2015-01-08"	"Managed Placements"	0	2	"Managed Placements"	0
"256"	"2015-01-08"	"Managed Placements + \"watch\""	0	2	"Managed Placements + \"watch\""	1.27118644067797
"257"	"2015-01-08"	"(not set)"	2.14654685622747	29964	"(not set)"	2.13378105062815
"259"	"2015-01-08"	"Dynamic Search Ads - All Pages"	0	52	"Dynamic Search Ads - All Pages"	0.0214883510518034
"260"	"2015-01-08"	"Females 45+ Add to Cart"	0	3	"| Other |"	10.5673341523341
"261"	"2015-01-08"	"Jake's General Broad KWs"	0	7	"| Other |"	10.5673341523341
"263"	"2015-01-08"	"Managed Placements"	0	2	"Managed Placements"	0
"264"	"2015-01-08"	"Managed Placements + \"watch\""	0	2	"Managed Placements + \"watch\""	1.27118644067797
"265"	"2015-01-08"	"(not set)"	2.14654685622747	29964	"(not set)"	2.13378105062815
"267"	"2015-01-08"	"Dynamic Search Ads - All Pages"	0	52	"Dynamic Search Ads - All Pages"	0.0214883510518034
"268"	"2015-01-08"	"Females 45+ Add to Cart"	0	3	"| Other |"	10.5673341523341
"269"	"2015-01-08"	"Jake's General Broad KWs"	0	7	"| Other |"	10.5673341523341
"271"	"2015-01-08"	"Managed Placements"	0	2	"Managed Placements"	0
"272"	"2015-01-08"	"Managed Placements + \"watch\""	0	2	"Managed Placements + \"watch\""	1.27118644067797
"273"	"2015-01-08"	"(not set)"	2.14654685622747	29964	"(not set)"	2.13378105062815
"275"	"2015-01-08"	"Dynamic Search Ads - All Pages"	0	52	"Dynamic Search Ads - All Pages"	0.0214883510518034
"276"	"2015-01-08"	"Females 45+ Add to Cart"	0	3	"| Other |"	10.5673341523341
"277"	"2015-01-08"	"Jake's General Broad KWs"	0	7	"| Other |"	10.5673341523341
"279"	"2015-01-08"	"Managed Placements"	0	2	"Managed Placements"	0
"280"	"2015-01-08"	"Managed Placements + \"watch\""	0	2	"Managed Placements + \"watch\""	1.27118644067797
"281"	"2015-01-08"	"(not set)"	2.14654685622747	29964	"(not set)"	2.13378105062815
"283"	"2015-01-08"	"Dynamic Search Ads - All Pages"	0	52	"Dynamic Search Ads - All Pages"	0.0214883510518034
"284"	"2015-01-08"	"Females 45+ Add to Cart"	0	3	"| Other |"	10.5673341523341
"285"	"2015-01-08"	"Jake's General Broad KWs"	0	7	"| Other |"	10.5673341523341
"287"	"2015-01-08"	"Managed Placements"	0	2	"Managed Placements"	0
"288"	"2015-01-08"	"Managed Placements + \"watch\""	0	2	"Managed Placements + \"watch\""	1.27118644067797
"289"	"2015-01-08"	"(not set)"	2.14654685622747	29964	"(not set)"	2.13378105062815
"291"	"2015-01-08"	"Dynamic Search Ads - All Pages"	0	52	"Dynamic Search Ads - All Pages"	0.0214883510518034
"292"	"2015-01-08"	"Females 45+ Add to Cart"	0	3	"| Other |"	10.5673341523341
"293"	"2015-01-08"	"Jake's General Broad KWs"	0	7	"| Other |"	10.5673341523341
"295"	"2015-01-08"	"Managed Placements"	0	2	"Managed Placements"	0
"296"	"2015-01-08"	"Managed Placements + \"watch\""	0	2	"Managed Placements + \"watch\""	1.27118644067797
"297"	"2015-01-08"	"(not set)"	2.14654685622747	29964	"(not set)"	2.13378105062815
"299"	"2015-01-08"	"Dynamic Search Ads - All Pages"	0	52	"Dynamic Search Ads - All Pages"	0.0214883510518034
"300"	"2015-01-08"	"Females 45+ Add to Cart"	0	3	"| Other |"	10.5673341523341
"301"	"2015-01-08"	"Jake's General Broad KWs"	0	7	"| Other |"	10.5673341523341
"303"	"2015-01-08"	"Managed Placements"	0	2	"Managed Placements"	0
"304"	"2015-01-08"	"Managed Placements + \"watch\""	0	2	"Managed Placements + \"watch\""	1.27118644067797
"305"	"2015-01-08"	"(not set)"	2.14654685622747	29964	"(not set)"	2.13378105062815
"307"	"2015-01-08"	"Dynamic Search Ads - All Pages"	0	52	"Dynamic Search Ads - All Pages"	0.0214883510518034
"308"	"2015-01-08"	"Females 45+ Add to Cart"	0	3	"| Other |"	10.5673341523341
"309"	"2015-01-08"	"Jake's General Broad KWs"	0	7	"| Other |"	10.5673341523341
"311"	"2015-01-08"	"Managed Placements"	0	2	"Managed Placements"	0
"312"	"2015-01-08"	"Managed Placements + \"watch\""	0	2	"Managed Placements + \"watch\""	1.27118644067797
"315"	"2015-01-08"	"Dynamic Search Ads - All Pages"	0	52	"Dynamic Search Ads - All Pages"	0.0214883510518034
"316"	"2015-01-08"	"Females 45+ Add to Cart"	0	3	"| Other |"	10.5673341523341
"317"	"2015-01-08"	"Jake's General Broad KWs"	0	7	"| Other |"	10.5673341523341
"319"	"2015-01-08"	"Managed Placements"	0	2	"Managed Placements"	0
"320"	"2015-01-08"	"Managed Placements + \"watch\""	0	2	"Managed Placements + \"watch\""	1.27118644067797
"321"	"2015-01-08"	"(not set)"	2.14654685622747	29964	"(not set)"	2.13378105062815
"323"	"2015-01-08"	"Dynamic Search Ads - All Pages"	0	52	"Dynamic Search Ads - All Pages"	0.0214883510518034
"324"	"2015-01-08"	"Females 45+ Add to Cart"	0	3	"| Other |"	10.5673341523341
"325"	"2015-01-08"	"Jake's General Broad KWs"	0	7	"| Other |"	10.5673341523341
"327"	"2015-01-08"	"Managed Placements"	0	2	"Managed Placements"	0
"328"	"2015-01-08"	"Managed Placements + \"watch\""	0	2	"Managed Placements + \"watch\""	1.27118644067797
"329"	"2015-01-08"	"(not set)"	2.14654685622747	29964	"(not set)"	2.13378105062815
"331"	"2015-01-08"	"Dynamic Search Ads - All Pages"	0	52	"Dynamic Search Ads - All Pages"	0.0214883510518034
"332"	"2015-01-08"	"Females 45+ Add to Cart"	0	3	"| Other |"	10.5673341523341
"335"	"2015-01-08"	"Managed Placements"	0	2	"Managed Placements"	0
"336"	"2015-01-08"	"Managed Placements + \"watch\""	0	2	"Managed Placements + \"watch\""	1.27118644067797
"337"	"2015-01-08"	"(not set)"	2.14654685622747	29964	"(not set)"	2.13378105062815
"339"	"2015-01-08"	"Dynamic Search Ads - All Pages"	0	52	"Dynamic Search Ads - All Pages"	0.0214883510518034
"340"	"2015-01-08"	"Females 45+ Add to Cart"	0	3	"| Other |"	10.5673341523341
"341"	"2015-01-08"	"Jake's General Broad KWs"	0	7	"| Other |"	10.5673341523341
"343"	"2015-01-08"	"Managed Placements"	0	2	"Managed Placements"	0
"344"	"2015-01-08"	"Managed Placements + \"watch\""	0	2	"Managed Placements + \"watch\""	1.27118644067797
"345"	"2015-01-08"	"(not set)"	2.14654685622747	29964	"(not set)"	2.13378105062815
"347"	"2015-01-08"	"Dynamic Search Ads - All Pages"	0	52	"Dynamic Search Ads - All Pages"	0.0214883510518034
"348"	"2015-01-08"	"Females 45+ Add to Cart"	0	3	"| Other |"	10.5673341523341
"349"	"2015-01-08"	"Jake's General Broad KWs"	0	7	"| Other |"	10.5673341523341
"351"	"2015-01-08"	"Managed Placements"	0	2	"Managed Placements"	0
"352"	"2015-01-08"	"Managed Placements + \"watch\""	0	2	"Managed Placements + \"watch\""	1.27118644067797
"353"	"2015-01-08"	"(not set)"	2.14654685622747	29964	"(not set)"	2.13378105062815
"355"	"2015-01-08"	"Dynamic Search Ads - All Pages"	0	52	"Dynamic Search Ads - All Pages"	0.0214883510518034
"356"	"2015-01-08"	"Females 45+ Add to Cart"	0	3	"| Other |"	10.5673341523341
"357"	"2015-01-08"	"Jake's General Broad KWs"	0	7	"| Other |"	10.5673341523341
"359"	"2015-01-08"	"Managed Placements"	0	2	"Managed Placements"	0
"360"	"2015-01-08"	"Managed Placements + \"watch\""	0	2	"Managed Placements + \"watch\""	1.27118644067797
"361"	"2015-01-08"	"(not set)"	2.14654685622747	29964	"(not set)"	2.13378105062815
"363"	"2015-01-08"	"Dynamic Search Ads - All Pages"	0	52	"Dynamic Search Ads - All Pages"	0.0214883510518034
"364"	"2015-01-08"	"Females 45+ Add to Cart"	0	3	"| Other |"	10.5673341523341
"365"	"2015-01-08"	"Jake's General Broad KWs"	0	7	"| Other |"	10.5673341523341
"367"	"2015-01-08"	"Managed Placements"	0	2	"Managed Placements"	0
"368"	"2015-01-08"	"Managed Placements + \"watch\""	0	2	"Managed Placements + \"watch\""	1.27118644067797
"369"	"2015-01-08"	"(not set)"	2.14654685622747	29964	"(not set)"	2.13378105062815
"371"	"2015-01-08"	"Dynamic Search Ads - All Pages"	0	52	"Dynamic Search Ads - All Pages"	0.0214883510518034
"372"	"2015-01-08"	"Females 45+ Add to Cart"	0	3	"| Other |"	10.5673341523341
"373"	"2015-01-08"	"Jake's General Broad KWs"	0	7	"| Other |"	10.5673341523341
"375"	"2015-01-08"	"Managed Placements"	0	2	"Managed Placements"	0
"376"	"2015-01-08"	"Managed Placements + \"watch\""	0	2	"Managed Placements + \"watch\""	1.27118644067797
"377"	"2015-01-08"	"(not set)"	2.14654685622747	29964	"(not set)"	2.13378105062815
"379"	"2015-01-08"	"Dynamic Search Ads - All Pages"	0	52	"Dynamic Search Ads - All Pages"	0.0214883510518034
"380"	"2015-01-08"	"Females 45+ Add to Cart"	0	3	"| Other |"	10.5673341523341
"381"	"2015-01-08"	"Jake's General Broad KWs"	0	7	"| Other |"	10.5673341523341
"383"	"2015-01-08"	"Managed Placements"	0	2	"Managed Placements"	0
"384"	"2015-01-08"	"Managed Placements + \"watch\""	0	2	"Managed Placements + \"watch\""	1.27118644067797
"385"	"2015-01-08"	"(not set)"	2.14654685622747	29964	"(not set)"	2.13378105062815
"387"	"2015-01-08"	"Dynamic Search Ads - All Pages"	0	52	"Dynamic Search Ads - All Pages"	0.0214883510518034
"388"	"2015-01-08"	"Females 45+ Add to Cart"	0	3	"| Other |"	10.5673341523341
"389"	"2015-01-08"	"Jake's General Broad KWs"	0	7	"| Other |"	10.5673341523341
"391"	"2015-01-08"	"Managed Placements"	0	2	"Managed Placements"	0
"392"	"2015-01-08"	"Managed Placements + \"watch\""	0	2	"Managed Placements + \"watch\""	1.27118644067797
"393"	"2015-01-08"	"(not set)"	2.14654685622747	29964	"(not set)"	2.13378105062815
"395"	"2015-01-08"	"Dynamic Search Ads - All Pages"	0	52	"Dynamic Search Ads - All Pages"	0.0214883510518034
"396"	"2015-01-08"	"Females 45+ Add to Cart"	0	3	"| Other |"	10.5673341523341
"397"	"2015-01-08"	"Jake's General Broad KWs"	0	7	"| Other |"	10.5673341523341
"399"	"2015-01-08"	"Managed Placements"	0	2	"Managed Placements"	0
"400"	"2015-01-08"	"Managed Placements + \"watch\""	0	2	"Managed Placements + \"watch\""	1.27118644067797
"401"	"2015-01-08"	"(not set)"	2.14654685622747	29964	"(not set)"	2.13378105062815
"403"	"2015-01-08"	"Dynamic Search Ads - All Pages"	0	52	"Dynamic Search Ads - All Pages"	0.0214883510518034
"404"	"2015-01-08"	"Females 45+ Add to Cart"	0	3	"| Other |"	10.5673341523341
"405"	"2015-01-08"	"Jake's General Broad KWs"	0	7	"| Other |"	10.5673341523341
"407"	"2015-01-08"	"Managed Placements"	0	2	"Managed Placements"	0
"408"	"2015-01-08"	"Managed Placements + \"watch\""	0	2	"Managed Placements + \"watch\""	1.27118644067797
"409"	"2015-01-08"	"(not set)"	2.14654685622747	29964	"(not set)"	2.13378105062815
"411"	"2015-01-08"	"Dynamic Search Ads - All Pages"	0	52	"Dynamic Search Ads - All Pages"	0.0214883510518034
"412"	"2015-01-08"	"Females 45+ Add to Cart"	0	3	"| Other |"	10.5673341523341
"413"	"2015-01-08"	"Jake's General Broad KWs"	0	7	"| Other |"	10.5673341523341
"415"	"2015-01-08"	"Managed Placements"	0	2	"Managed Placements"	0
"416"	"2015-01-08"	"Managed Placements + \"watch\""	0	2	"Managed Placements + \"watch\""	1.27118644067797
"417"	"2015-01-08"	"(not set)"	2.14654685622747	29964	"(not set)"	2.13378105062815
"419"	"2015-01-08"	"Dynamic Search Ads - All Pages"	0	52	"Dynamic Search Ads - All Pages"	0.0214883510518034
"420"	"2015-01-08"	"Females 45+ Add to Cart"	0	3	"| Other |"	10.5673341523341
"421"	"2015-01-08"	"Jake's General Broad KWs"	0	7	"| Other |"	10.5673341523341
"423"	"2015-01-08"	"Managed Placements"	0	2	"Managed Placements"	0
"424"	"2015-01-08"	"Managed Placements + \"watch\""	0	2	"Managed Placements + \"watch\""	1.27118644067797
"425"	"2015-01-08"	"(not set)"	2.14654685622747	29964	"(not set)"	2.13378105062815
"427"	"2015-01-08"	"Dynamic Search Ads - All Pages"	0	52	"Dynamic Search Ads - All Pages"	0.0214883510518034
"428"	"2015-01-08"	"Females 45+ Add to Cart"	0	3	"| Other |"	10.5673341523341
"429"	"2015-01-08"	"Jake's General Broad KWs"	0	7	"| Other |"	10.5673341523341
"431"	"2015-01-08"	"Managed Placements"	0	2	"Managed Placements"	0
"432"	"2015-01-08"	"Managed Placements + \"watch\""	0	2	"Managed Placements + \"watch\""	1.27118644067797
"433"	"2015-01-08"	"(not set)"	2.14654685622747	29964	"(not set)"	2.13378105062815
"435"	"2015-01-08"	"Dynamic Search Ads - All Pages"	0	52	"Dynamic Search Ads - All Pages"	0.0214883510518034
"436"	"2015-01-08"	"Females 45+ Add to Cart"	0	3	"| Other |"	10.5673341523341
"437"	"2015-01-08"	"Jake's General Broad KWs"	0	7	"| Other |"	10.5673341523341
"439"	"2015-01-08"	"Managed Placements"	0	2	"Managed Placements"	0
"440"	"2015-01-08"	"Managed Placements + \"watch\""	0	2	"Managed Placements + \"watch\""	1.27118644067797
"441"	"2015-01-08"	"(not set)"	2.14654685622747	29964	"(not set)"	2.13378105062815
"443"	"2015-01-08"	"Dynamic Search Ads - All Pages"	0	52	"Dynamic Search Ads - All Pages"	0.0214883510518034
"444"	"2015-01-08"	"Females 45+ Add to Cart"	0	3	"| Other |"	10.5673341523341
"445"	"2015-01-08"	"Jake's General Broad KWs"	0	7	"| Other |"	10.5673341523341
"447"	"2015-01-08"	"Managed Placements"	0	2	"Managed Placements"	0
"448"	"2015-01-08"	"Managed Placements + \"watch\""	0	2	"Managed Placements + \"watch\""	1.27118644067797
"449"	"2015-01-08"	"(not set)"	2.14654685622747	29964	"(not set)"	2.13378105062815
"451"	"2015-01-08"	"Dynamic Search Ads - All Pages"	0	52	"Dynamic Search Ads - All Pages"	0.0214883510518034
"452"	"2015-01-08"	"Females 45+ Add to Cart"	0	3	"| Other |"	10.5673341523341
"453"	"2015-01-08"	"Jake's General Broad KWs"	0	7	"| Other |"	10.5673341523341
"455"	"2015-01-08"	"Managed Placements"	0	2	"Managed Placements"	0
"456"	"2015-01-08"	"Managed Placements + \"watch\""	0	2	"Managed Placements + \"watch\""	1.27118644067797
"457"	"2015-01-08"	"(not set)"	2.14654685622747	29964	"(not set)"	2.13378105062815
"459"	"2015-01-08"	"Dynamic Search Ads - All Pages"	0	52	"Dynamic Search Ads - All Pages"	0.0214883510518034
"460"	"2015-01-08"	"Females 45+ Add to Cart"	0	3	"| Other |"	10.5673341523341
"461"	"2015-01-08"	"Jake's General Broad KWs"	0	7	"| Other |"	10.5673341523341
"463"	"2015-01-08"	"Managed Placements"	0	2	"Managed Placements"	0
"464"	"2015-01-08"	"Managed Placements + \"watch\""	0	2	"Managed Placements + \"watch\""	1.27118644067797
"465"	"2015-01-08"	"(not set)"	2.14654685622747	29964	"(not set)"	2.13378105062815
"467"	"2015-01-08"	"Dynamic Search Ads - All Pages"	0	52	"Dynamic Search Ads - All Pages"	0.0214883510518034
"468"	"2015-01-08"	"Females 45+ Add to Cart"	0	3	"| Other |"	10.5673341523341
"469"	"2015-01-08"	"Jake's General Broad KWs"	0	7	"| Other |"	10.5673341523341
"471"	"2015-01-08"	"Managed Placements"	0	2	"Managed Placements"	0
"472"	"2015-01-08"	"Managed Placements + \"watch\""	0	2	"Managed Placements + \"watch\""	1.27118644067797
"473"	"2015-01-08"	"(not set)"	2.14654685622747	29964	"(not set)"	2.13378105062815
"475"	"2015-01-08"	"Dynamic Search Ads - All Pages"	0	52	"Dynamic Search Ads - All Pages"	0.0214883510518034
"476"	"2015-01-08"	"Females 45+ Add to Cart"	0	3	"| Other |"	10.5673341523341
"477"	"2015-01-08"	"Jake's General Broad KWs"	0	7	"| Other |"	10.5673341523341
"479"	"2015-01-08"	"Managed Placements"	0	2	"Managed Placements"	0
"480"	"2015-01-08"	"Managed Placements + \"watch\""	0	2	"Managed Placements + \"watch\""	1.27118644067797
"481"	"2015-01-08"	"(not set)"	2.14654685622747	29964	"(not set)"	2.13378105062815
"483"	"2015-01-08"	"Dynamic Search Ads - All Pages"	0	52	"Dynamic Search Ads - All Pages"	0.0214883510518034
"484"	"2015-01-08"	"Females 45+ Add to Cart"	0	3	"| Other |"	10.5673341523341
"485"	"2015-01-08"	"Jake's General Broad KWs"	0	7	"| Other |"	10.5673341523341
"487"	"2015-01-08"	"Managed Placements"	0	2	"Managed Placements"	0
"488"	"2015-01-08"	"Managed Placements + \"watch\""	0	2	"Managed Placements + \"watch\""	1.27118644067797
"489"	"2015-01-08"	"(not set)"	2.14654685622747	29964	"(not set)"	2.13378105062815
"491"	"2015-01-08"	"Dynamic Search Ads - All Pages"	0	52	"Dynamic Search Ads - All Pages"	0.0214883510518034
"492"	"2015-01-08"	"Females 45+ Add to Cart"	0	3	"| Other |"	10.5673341523341
"495"	"2015-01-08"	"Managed Placements"	0	2	"Managed Placements"	0
"496"	"2015-01-08"	"Managed Placements + \"watch\""	0	2	"Managed Placements + \"watch\""	1.27118644067797
"499"	"2015-01-08"	"Dynamic Search Ads - All Pages"	0	52	"Dynamic Search Ads - All Pages"	0.0214883510518034
"500"	"2015-01-08"	"Females 45+ Add to Cart"	0	3	"| Other |"	10.5673341523341
"501"	"2015-01-08"	"Jake's General Broad KWs"	0	7	"| Other |"	10.5673341523341
"503"	"2015-01-08"	"Managed Placements"	0	2	"Managed Placements"	0
"504"	"2015-01-08"	"Managed Placements + \"watch\""	0	2	"Managed Placements + \"watch\""	1.27118644067797
"507"	"2015-01-08"	"Dynamic Search Ads - All Pages"	0	52	"Dynamic Search Ads - All Pages"	0.0214883510518034
"508"	"2015-01-08"	"Females 45+ Add to Cart"	0	3	"| Other |"	10.5673341523341
"509"	"2015-01-08"	"Jake's General Broad KWs"	0	7	"| Other |"	10.5673341523341
"511"	"2015-01-08"	"Managed Placements"	0	2	"Managed Placements"	0
"512"	"2015-01-08"	"Managed Placements + \"watch\""	0	2	"Managed Placements + \"watch\""	1.27118644067797
"513"	"2015-01-08"	"(not set)"	2.14654685622747	29964	"(not set)"	2.13378105062815
"515"	"2015-01-08"	"Dynamic Search Ads - All Pages"	0	52	"Dynamic Search Ads - All Pages"	0.0214883510518034
"516"	"2015-01-08"	"Females 45+ Add to Cart"	0	3	"| Other |"	10.5673341523341
"517"	"2015-01-08"	"Jake's General Broad KWs"	0	7	"| Other |"	10.5673341523341
"519"	"2015-01-08"	"Managed Placements"	0	2	"Managed Placements"	0
"520"	"2015-01-08"	"Managed Placements + \"watch\""	0	2	"Managed Placements + \"watch\""	1.27118644067797
"521"	"2015-01-08"	"(not set)"	2.14654685622747	29964	"(not set)"	2.13378105062815
"523"	"2015-01-08"	"Dynamic Search Ads - All Pages"	0	52	"Dynamic Search Ads - All Pages"	0.0214883510518034
"524"	"2015-01-08"	"Females 45+ Add to Cart"	0	3	"| Other |"	10.5673341523341
"525"	"2015-01-08"	"Jake's General Broad KWs"	0	7	"| Other |"	10.5673341523341
"527"	"2015-01-08"	"Managed Placements"	0	2	"Managed Placements"	0
"528"	"2015-01-08"	"Managed Placements + \"watch\""	0	2	"Managed Placements + \"watch\""	1.27118644067797
"529"	"2015-01-08"	"(not set)"	2.14654685622747	29964	"(not set)"	2.13378105062815
"531"	"2015-01-08"	"Dynamic Search Ads - All Pages"	0	52	"Dynamic Search Ads - All Pages"	0.0214883510518034
"532"	"2015-01-08"	"Females 45+ Add to Cart"	0	3	"| Other |"	10.5673341523341
"533"	"2015-01-08"	"Jake's General Broad KWs"	0	7	"| Other |"	10.5673341523341
"535"	"2015-01-08"	"Managed Placements"	0	2	"Managed Placements"	0
"536"	"2015-01-08"	"Managed Placements + \"watch\""	0	2	"Managed Placements + \"watch\""	1.27118644067797
"537"	"2015-01-08"	"(not set)"	2.14654685622747	29964	"(not set)"	2.13378105062815
"539"	"2015-01-08"	"Dynamic Search Ads - All Pages"	0	52	"Dynamic Search Ads - All Pages"	0.0214883510518034
"540"	"2015-01-08"	"Females 45+ Add to Cart"	0	3	"| Other |"	10.5673341523341
"541"	"2015-01-08"	"Jake's General Broad KWs"	0	7	"| Other |"	10.5673341523341
"543"	"2015-01-08"	"Managed Placements"	0	2	"Managed Placements"	0
"544"	"2015-01-08"	"Managed Placements + \"watch\""	0	2	"Managed Placements + \"watch\""	1.27118644067797
"545"	"2015-01-08"	"(not set)"	2.14654685622747	29964	"(not set)"	2.13378105062815
"547"	"2015-01-08"	"Dynamic Search Ads - All Pages"	0	52	"Dynamic Search Ads - All Pages"	0.0214883510518034
"548"	"2015-01-08"	"Females 45+ Add to Cart"	0	3	"| Other |"	10.5673341523341
"549"	"2015-01-08"	"Jake's General Broad KWs"	0	7	"| Other |"	10.5673341523341
"551"	"2015-01-08"	"Managed Placements"	0	2	"Managed Placements"	0
"552"	"2015-01-08"	"Managed Placements + \"watch\""	0	2	"Managed Placements + \"watch\""	1.27118644067797
"553"	"2015-01-08"	"(not set)"	2.14654685622747	29964	"(not set)"	2.13378105062815
"555"	"2015-01-08"	"Dynamic Search Ads - All Pages"	0	52	"Dynamic Search Ads - All Pages"	0.0214883510518034
"556"	"2015-01-08"	"Females 45+ Add to Cart"	0	3	"| Other |"	10.5673341523341
"557"	"2015-01-08"	"Jake's General Broad KWs"	0	7	"| Other |"	10.5673341523341
"559"	"2015-01-08"	"Managed Placements"	0	2	"Managed Placements"	0
"560"	"2015-01-08"	"Managed Placements + \"watch\""	0	2	"Managed Placements + \"watch\""	1.27118644067797
"561"	"2015-01-08"	"(not set)"	2.14654685622747	29964	"(not set)"	2.13378105062815
"563"	"2015-01-08"	"Dynamic Search Ads - All Pages"	0	52	"Dynamic Search Ads - All Pages"	0.0214883510518034
"564"	"2015-01-08"	"Females 45+ Add to Cart"	0	3	"| Other |"	10.5673341523341
"565"	"2015-01-08"	"Jake's General Broad KWs"	0	7	"| Other |"	10.5673341523341
"567"	"2015-01-08"	"Managed Placements"	0	2	"Managed Placements"	0
"568"	"2015-01-08"	"Managed Placements + \"watch\""	0	2	"Managed Placements + \"watch\""	1.27118644067797
"569"	"2015-01-08"	"(not set)"	2.14654685622747	29964	"(not set)"	2.13378105062815
"571"	"2015-01-08"	"Dynamic Search Ads - All Pages"	0	52	"Dynamic Search Ads - All Pages"	0.0214883510518034
"573"	"2015-01-08"	"Jake's General Broad KWs"	0	7	"| Other |"	10.5673341523341
"575"	"2015-01-08"	"Managed Placements"	0	2	"Managed Placements"	0
"576"	"2015-01-08"	"Managed Placements + \"watch\""	0	2	"Managed Placements + \"watch\""	1.27118644067797
"577"	"2015-01-08"	"(not set)"	2.14654685622747	29964	"(not set)"	2.13378105062815
"579"	"2015-01-08"	"Dynamic Search Ads - All Pages"	0	52	"Dynamic Search Ads - All Pages"	0.0214883510518034
"580"	"2015-01-08"	"Females 45+ Add to Cart"	0	3	"| Other |"	10.5673341523341
"581"	"2015-01-08"	"Jake's General Broad KWs"	0	7	"| Other |"	10.5673341523341
"583"	"2015-01-08"	"Managed Placements"	0	2	"Managed Placements"	0
"584"	"2015-01-08"	"Managed Placements + \"watch\""	0	2	"Managed Placements + \"watch\""	1.27118644067797
"585"	"2015-01-08"	"(not set)"	2.14654685622747	29964	"(not set)"	2.13378105062815
"587"	"2015-01-08"	"Dynamic Search Ads - All Pages"	0	52	"Dynamic Search Ads - All Pages"	0.0214883510518034
"588"	"2015-01-08"	"Females 45+ Add to Cart"	0	3	"| Other |"	10.5673341523341
"589"	"2015-01-08"	"Jake's General Broad KWs"	0	7	"| Other |"	10.5673341523341
"591"	"2015-01-08"	"Managed Placements"	0	2	"Managed Placements"	0
"592"	"2015-01-08"	"Managed Placements + \"watch\""	0	2	"Managed Placements + \"watch\""	1.27118644067797
"593"	"2015-01-08"	"(not set)"	2.14654685622747	29964	"(not set)"	2.13378105062815
"595"	"2015-01-08"	"Dynamic Search Ads - All Pages"	0	52	"Dynamic Search Ads - All Pages"	0.0214883510518034
"596"	"2015-01-08"	"Females 45+ Add to Cart"	0	3	"| Other |"	10.5673341523341
"597"	"2015-01-08"	"Jake's General Broad KWs"	0	7	"| Other |"	10.5673341523341
"599"	"2015-01-08"	"Managed Placements"	0	2	"Managed Placements"	0
"600"	"2015-01-08"	"Managed Placements + \"watch\""	0	2	"Managed Placements + \"watch\""	1.27118644067797
"601"	"2015-01-08"	"(not set)"	2.14654685622747	29964	"(not set)"	2.13378105062815
"603"	"2015-01-08"	"Dynamic Search Ads - All Pages"	0	52	"Dynamic Search Ads - All Pages"	0.0214883510518034
"605"	"2015-01-08"	"Jake's General Broad KWs"	0	7	"| Other |"	10.5673341523341
"607"	"2015-01-08"	"Managed Placements"	0	2	"Managed Placements"	0
"608"	"2015-01-08"	"Managed Placements + \"watch\""	0	2	"Managed Placements + \"watch\""	1.27118644067797
"609"	"2015-01-08"	"(not set)"	2.14654685622747	29964	"(not set)"	2.13378105062815
"611"	"2015-01-08"	"Dynamic Search Ads - All Pages"	0	52	"Dynamic Search Ads - All Pages"	0.0214883510518034
"612"	"2015-01-08"	"Females 45+ Add to Cart"	0	3	"| Other |"	10.5673341523341
"613"	"2015-01-08"	"Jake's General Broad KWs"	0	7	"| Other |"	10.5673341523341
"615"	"2015-01-08"	"Managed Placements"	0	2	"Managed Placements"	0
"616"	"2015-01-08"	"Managed Placements + \"watch\""	0	2	"Managed Placements + \"watch\""	1.27118644067797
"617"	"2015-01-08"	"(not set)"	2.14654685622747	29964	"(not set)"	2.13378105062815
"619"	"2015-01-08"	"Dynamic Search Ads - All Pages"	0	52	"Dynamic Search Ads - All Pages"	0.0214883510518034
"620"	"2015-01-08"	"Females 45+ Add to Cart"	0	3	"| Other |"	10.5673341523341
"623"	"2015-01-08"	"Managed Placements"	0	2	"Managed Placements"	0
"624"	"2015-01-08"	"Managed Placements + \"watch\""	0	2	"Managed Placements + \"watch\""	1.27118644067797
"625"	"2015-01-08"	"(not set)"	2.14654685622747	29964	"(not set)"	2.13378105062815
"627"	"2015-01-08"	"Dynamic Search Ads - All Pages"	0	52	"Dynamic Search Ads - All Pages"	0.0214883510518034
"628"	"2015-01-08"	"Females 45+ Add to Cart"	0	3	"| Other |"	10.5673341523341
"629"	"2015-01-08"	"Jake's General Broad KWs"	0	7	"| Other |"	10.5673341523341
"631"	"2015-01-08"	"Managed Placements"	0	2	"Managed Placements"	0
"632"	"2015-01-08"	"Managed Placements + \"watch\""	0	2	"Managed Placements + \"watch\""	1.27118644067797
"633"	"2015-01-08"	"(not set)"	2.14654685622747	29964	"(not set)"	2.13378105062815
"635"	"2015-01-08"	"Dynamic Search Ads - All Pages"	0	52	"Dynamic Search Ads - All Pages"	0.0214883510518034
"636"	"2015-01-08"	"Females 45+ Add to Cart"	0	3	"| Other |"	10.5673341523341
"637"	"2015-01-08"	"Jake's General Broad KWs"	0	7	"| Other |"	10.5673341523341
"639"	"2015-01-08"	"Managed Placements"	0	2	"Managed Placements"	0
"640"	"2015-01-08"	"Managed Placements + \"watch\""	0	2	"Managed Placements + \"watch\""	1.27118644067797
"641"	"2015-01-08"	"(not set)"	2.14654685622747	29964	"(not set)"	2.13378105062815
"643"	"2015-01-08"	"Dynamic Search Ads - All Pages"	0	52	"Dynamic Search Ads - All Pages"	0.0214883510518034
"644"	"2015-01-08"	"Females 45+ Add to Cart"	0	3	"| Other |"	10.5673341523341
"645"	"2015-01-08"	"Jake's General Broad KWs"	0	7	"| Other |"	10.5673341523341
"647"	"2015-01-08"	"Managed Placements"	0	2	"Managed Placements"	0
"648"	"2015-01-08"	"Managed Placements + \"watch\""	0	2	"Managed Placements + \"watch\""	1.27118644067797
"649"	"2015-01-08"	"(not set)"	2.14654685622747	29964	"(not set)"	2.13378105062815
"651"	"2015-01-08"	"Dynamic Search Ads - All Pages"	0	52	"Dynamic Search Ads - All Pages"	0.0214883510518034
"652"	"2015-01-08"	"Females 45+ Add to Cart"	0	3	"| Other |"	10.5673341523341
"653"	"2015-01-08"	"Jake's General Broad KWs"	0	7	"| Other |"	10.5673341523341
"655"	"2015-01-08"	"Managed Placements"	0	2	"Managed Placements"	0
"656"	"2015-01-08"	"Managed Placements + \"watch\""	0	2	"Managed Placements + \"watch\""	1.27118644067797
"657"	"2015-01-08"	"(not set)"	2.14654685622747	29964	"(not set)"	2.13378105062815
"659"	"2015-01-08"	"Dynamic Search Ads - All Pages"	0	52	"Dynamic Search Ads - All Pages"	0.0214883510518034
"660"	"2015-01-08"	"Females 45+ Add to Cart"	0	3	"| Other |"	10.5673341523341
"661"	"2015-01-08"	"Jake's General Broad KWs"	0	7	"| Other |"	10.5673341523341
"663"	"2015-01-08"	"Managed Placements"	0	2	"Managed Placements"	0
"664"	"2015-01-08"	"Managed Placements + \"watch\""	0	2	"Managed Placements + \"watch\""	1.27118644067797
"667"	"2015-01-07"	"Dynamic Search Ads - All Pages"	0	36	"Dynamic Search Ads - All Pages"	0.0214883510518034
"668"	"2015-01-07"	"Females 45+ Add to Cart"	0	3	"| Other |"	10.5673341523341
"669"	"2015-01-07"	"Jake's General Broad KWs"	0	22	"| Other |"	10.5673341523341
"671"	"2015-01-07"	"Managed Placements"	0	18	"Managed Placements"	0
"672"	"2015-01-07"	"Managed Placements + \"watch\""	0	3	"Managed Placements + \"watch\""	1.27118644067797
"675"	"2015-01-06"	"Dynamic Search Ads - All Pages"	0	79	"Dynamic Search Ads - All Pages"	0.0214883510518034
"676"	"2015-01-06"	"Females 45+ Add to Cart"	0	17	"| Other |"	10.5673341523341
"677"	"2015-01-06"	"Jake's General Broad KWs"	0	2	"| Other |"	10.5673341523341
"678"	"2015-01-06"	"MVMT Watches"	0.635451505016722	299	"MVMT Watches"	4.38453558337368
"679"	"2015-01-06"	"Managed Placements"	0	1	"Managed Placements"	0
"680"	"2015-01-06"	"Managed Placements + \"watch\""	0	5	"Managed Placements + \"watch\""	1.27118644067797
"681"	"2015-01-05"	"(not set)"	2.07737510584251	37792	"(not set)"	2.13378105062815
"682"	"2015-01-05"	"All Products"	0	6	"| Other |"	10.5673341523341
"683"	"2015-01-05"	"Dynamic Search Ads - All Pages"	0	7	"Dynamic Search Ads - All Pages"	0.0214883510518034
"684"	"2015-01-05"	"Females 45+ Add to Cart"	0	2	"| Other |"	10.5673341523341
"685"	"2015-01-05"	"Jake's General Broad KWs"	0	23	"| Other |"	10.5673341523341
"687"	"2015-01-05"	"Managed Placements"	0	14	"Managed Placements"	0
"688"	"2015-01-05"	"Managed Placements + \"watch\""	0	8	"Managed Placements + \"watch\""	1.27118644067797
"689"	"2015-01-04"	"(not set)"	1.81611827734474	43491	"(not set)"	2.13378105062815
"690"	"2015-01-04"	"All Products"	0	3	"| Other |"	10.5673341523341
"694"	"2015-01-04"	"Managed Placements"	0	7	"Managed Placements"	0
"695"	"2015-01-04"	"Managed Placements + \"watch\""	0	4	"Managed Placements + \"watch\""	1.27118644067797
"696"	"2015-01-03"	"(not set)"	1.87686967789708	37814	"(not set)"	2.13378105062815
"697"	"2015-01-03"	"All Products"	0	2	"| Other |"	10.5673341523341
"698"	"2015-01-03"	"Dynamic Search Ads - All Pages"	0	7	"Dynamic Search Ads - All Pages"	0.0214883510518034
"699"	"2015-01-03"	"Females 45+ Add to Cart"	0	2	"| Other |"	10.5673341523341
"700"	"2015-01-03"	"Jake's General Broad KWs"	0	2	"| Other |"	10.5673341523341
"702"	"2015-01-03"	"Managed Placements"	0	32	"Managed Placements"	0
"704"	"2015-01-02"	"(not set)"	2.00646764845044	33816	"(not set)"	2.13378105062815
"706"	"2015-01-02"	"Dynamic Search Ads - All Pages"	0	8	"Dynamic Search Ads - All Pages"	0.0214883510518034
"707"	"2015-01-02"	"Females 45+ Add to Cart"	0	3	"| Other |"	10.5673341523341
"708"	"2015-01-02"	"Jake's General Broad KWs"	0	2	"| Other |"	10.5673341523341
"709"	"2015-01-02"	"MVMT Watches"	1.65354330708661	254	"MVMT Watches"	4.38453558337368
"710"	"2015-01-02"	"Managed Placements"	0	40	"Managed Placements"	0
"712"	"2015-01-01"	"(not set)"	1.82147953234803	31733	"(not set)"	2.13378105062815
"713"	"2015-01-01"	"All Products"	0	7	"| Other |"	10.5673341523341
"714"	"2015-01-01"	"Dynamic Search Ads - All Pages"	0	8	"Dynamic Search Ads - All Pages"	0.0214883510518034
"715"	"2015-01-01"	"Females 45+ Add to Cart"	0	11	"| Other |"	10.5673341523341
"716"	"2015-01-01"	"Jake's General Broad KWs"	0	1	"| Other |"	10.5673341523341
"717"	"2015-01-01"	"MVMT Watches"	1.80851063829787	188	"MVMT Watches"	4.38453558337368
"718"	"2015-01-01"	"Managed Placements"	0	8	"Managed Placements"	0
"719"	"2015-01-01"	"Managed Placements + \"watch\""	0	2	"Managed Placements + \"watch\""	1.27118644067797
"720"	"2014-12-31"	"(not set)"	1.90326097570136	26627	"(not set)"	2.13378105062815
"722"	"2014-12-31"	"Dynamic Search Ads - All Pages"	0	5	"Dynamic Search Ads - All Pages"	0.0214883510518034
"724"	"2014-12-31"	"Jake's General Broad KWs"	0	22	"| Other |"	10.5673341523341
"725"	"2014-12-31"	"MVMT Watches"	1.49152542372881	295	"MVMT Watches"	4.38453558337368
"726"	"2014-12-31"	"Managed Placements"	0	7	"Managed Placements"	0
"727"	"2014-12-31"	"Managed Placements + \"watch\""	0	2	"Managed Placements + \"watch\""	1.27118644067797
"2"	"2015-01-08"	"All Products"	25.625	8	"| Other |"	10.5673341523341
"6"	"2015-01-08"	"MVMT Watches"	4.73509933774834	151	"MVMT Watches"	4.38453558337368
"10"	"2015-01-08"	"All Products"	25.625	8	"| Other |"	10.5673341523341
"14"	"2015-01-08"	"MVMT Watches"	4.73509933774834	151	"MVMT Watches"	4.38453558337368
"18"	"2015-01-08"	"All Products"	25.625	8	"| Other |"	10.5673341523341
"22"	"2015-01-08"	"MVMT Watches"	4.73509933774834	151	"MVMT Watches"	4.38453558337368
"26"	"2015-01-08"	"All Products"	25.625	8	"| Other |"	10.5673341523341
"30"	"2015-01-08"	"MVMT Watches"	4.73509933774834	151	"MVMT Watches"	4.38453558337368
"34"	"2015-01-08"	"All Products"	25.625	8	"| Other |"	10.5673341523341
"38"	"2015-01-08"	"MVMT Watches"	4.73509933774834	151	"MVMT Watches"	4.38453558337368
"42"	"2015-01-08"	"All Products"	25.625	8	"| Other |"	10.5673341523341
"46"	"2015-01-08"	"MVMT Watches"	4.73509933774834	151	"MVMT Watches"	4.38453558337368
"50"	"2015-01-08"	"All Products"	25.625	8	"| Other |"	10.5673341523341
"54"	"2015-01-08"	"MVMT Watches"	4.73509933774834	151	"MVMT Watches"	4.38453558337368
"58"	"2015-01-08"	"All Products"	25.625	8	"| Other |"	10.5673341523341
"62"	"2015-01-08"	"MVMT Watches"	4.73509933774834	151	"MVMT Watches"	4.38453558337368
"66"	"2015-01-08"	"All Products"	25.625	8	"| Other |"	10.5673341523341
"70"	"2015-01-08"	"MVMT Watches"	4.73509933774834	151	"MVMT Watches"	4.38453558337368
"74"	"2015-01-08"	"All Products"	25.625	8	"| Other |"	10.5673341523341
"78"	"2015-01-08"	"MVMT Watches"	4.73509933774834	151	"MVMT Watches"	4.38453558337368
"82"	"2015-01-08"	"All Products"	25.625	8	"| Other |"	10.5673341523341
"86"	"2015-01-08"	"MVMT Watches"	4.73509933774834	151	"MVMT Watches"	4.38453558337368
"90"	"2015-01-08"	"All Products"	25.625	8	"| Other |"	10.5673341523341
"94"	"2015-01-08"	"MVMT Watches"	4.73509933774834	151	"MVMT Watches"	4.38453558337368
"98"	"2015-01-08"	"All Products"	25.625	8	"| Other |"	10.5673341523341
"102"	"2015-01-08"	"MVMT Watches"	4.73509933774834	151	"MVMT Watches"	4.38453558337368
"106"	"2015-01-08"	"All Products"	25.625	8	"| Other |"	10.5673341523341
"110"	"2015-01-08"	"MVMT Watches"	4.73509933774834	151	"MVMT Watches"	4.38453558337368
"114"	"2015-01-08"	"All Products"	25.625	8	"| Other |"	10.5673341523341
"118"	"2015-01-08"	"MVMT Watches"	4.73509933774834	151	"MVMT Watches"	4.38453558337368
"122"	"2015-01-08"	"All Products"	25.625	8	"| Other |"	10.5673341523341
"126"	"2015-01-08"	"MVMT Watches"	4.73509933774834	151	"MVMT Watches"	4.38453558337368
"130"	"2015-01-08"	"All Products"	25.625	8	"| Other |"	10.5673341523341
"134"	"2015-01-08"	"MVMT Watches"	4.73509933774834	151	"MVMT Watches"	4.38453558337368
"138"	"2015-01-08"	"All Products"	25.625	8	"| Other |"	10.5673341523341
"142"	"2015-01-08"	"MVMT Watches"	4.73509933774834	151	"MVMT Watches"	4.38453558337368
"146"	"2015-01-08"	"All Products"	25.625	8	"| Other |"	10.5673341523341
"150"	"2015-01-08"	"MVMT Watches"	4.73509933774834	151	"MVMT Watches"	4.38453558337368
"154"	"2015-01-08"	"All Products"	25.625	8	"| Other |"	10.5673341523341
"158"	"2015-01-08"	"MVMT Watches"	4.73509933774834	151	"MVMT Watches"	4.38453558337368
"162"	"2015-01-08"	"All Products"	25.625	8	"| Other |"	10.5673341523341
"166"	"2015-01-08"	"MVMT Watches"	4.73509933774834	151	"MVMT Watches"	4.38453558337368
"170"	"2015-01-08"	"All Products"	25.625	8	"| Other |"	10.5673341523341
"174"	"2015-01-08"	"MVMT Watches"	4.73509933774834	151	"MVMT Watches"	4.38453558337368
"178"	"2015-01-08"	"All Products"	25.625	8	"| Other |"	10.5673341523341
"182"	"2015-01-08"	"MVMT Watches"	4.73509933774834	151	"MVMT Watches"	4.38453558337368
"190"	"2015-01-08"	"MVMT Watches"	4.73509933774834	151	"MVMT Watches"	4.38453558337368
"194"	"2015-01-08"	"All Products"	25.625	8	"| Other |"	10.5673341523341
"198"	"2015-01-08"	"MVMT Watches"	4.73509933774834	151	"MVMT Watches"	4.38453558337368
"202"	"2015-01-08"	"All Products"	25.625	8	"| Other |"	10.5673341523341
"206"	"2015-01-08"	"MVMT Watches"	4.73509933774834	151	"MVMT Watches"	4.38453558337368
"210"	"2015-01-08"	"All Products"	25.625	8	"| Other |"	10.5673341523341
"214"	"2015-01-08"	"MVMT Watches"	4.73509933774834	151	"MVMT Watches"	4.38453558337368
"218"	"2015-01-08"	"All Products"	25.625	8	"| Other |"	10.5673341523341
"222"	"2015-01-08"	"MVMT Watches"	4.73509933774834	151	"MVMT Watches"	4.38453558337368
"226"	"2015-01-08"	"All Products"	25.625	8	"| Other |"	10.5673341523341
"230"	"2015-01-08"	"MVMT Watches"	4.73509933774834	151	"MVMT Watches"	4.38453558337368
"234"	"2015-01-08"	"All Products"	25.625	8	"| Other |"	10.5673341523341
"238"	"2015-01-08"	"MVMT Watches"	4.73509933774834	151	"MVMT Watches"	4.38453558337368
"242"	"2015-01-08"	"All Products"	25.625	8	"| Other |"	10.5673341523341
"246"	"2015-01-08"	"MVMT Watches"	4.73509933774834	151	"MVMT Watches"	4.38453558337368
"250"	"2015-01-08"	"All Products"	25.625	8	"| Other |"	10.5673341523341
"254"	"2015-01-08"	"MVMT Watches"	4.73509933774834	151	"MVMT Watches"	4.38453558337368
"258"	"2015-01-08"	"All Products"	25.625	8	"| Other |"	10.5673341523341
"262"	"2015-01-08"	"MVMT Watches"	4.73509933774834	151	"MVMT Watches"	4.38453558337368
"266"	"2015-01-08"	"All Products"	25.625	8	"| Other |"	10.5673341523341
"270"	"2015-01-08"	"MVMT Watches"	4.73509933774834	151	"MVMT Watches"	4.38453558337368
"274"	"2015-01-08"	"All Products"	25.625	8	"| Other |"	10.5673341523341
"278"	"2015-01-08"	"MVMT Watches"	4.73509933774834	151	"MVMT Watches"	4.38453558337368
"282"	"2015-01-08"	"All Products"	25.625	8	"| Other |"	10.5673341523341
"286"	"2015-01-08"	"MVMT Watches"	4.73509933774834	151	"MVMT Watches"	4.38453558337368
"290"	"2015-01-08"	"All Products"	25.625	8	"| Other |"	10.5673341523341
"294"	"2015-01-08"	"MVMT Watches"	4.73509933774834	151	"MVMT Watches"	4.38453558337368
"298"	"2015-01-08"	"All Products"	25.625	8	"| Other |"	10.5673341523341
"302"	"2015-01-08"	"MVMT Watches"	4.73509933774834	151	"MVMT Watches"	4.38453558337368
"306"	"2015-01-08"	"All Products"	25.625	8	"| Other |"	10.5673341523341
"310"	"2015-01-08"	"MVMT Watches"	4.73509933774834	151	"MVMT Watches"	4.38453558337368
"314"	"2015-01-08"	"All Products"	25.625	8	"| Other |"	10.5673341523341
"318"	"2015-01-08"	"MVMT Watches"	4.73509933774834	151	"MVMT Watches"	4.38453558337368
"322"	"2015-01-08"	"All Products"	25.625	8	"| Other |"	10.5673341523341
"326"	"2015-01-08"	"MVMT Watches"	4.73509933774834	151	"MVMT Watches"	4.38453558337368
"330"	"2015-01-08"	"All Products"	25.625	8	"| Other |"	10.5673341523341
"334"	"2015-01-08"	"MVMT Watches"	4.73509933774834	151	"MVMT Watches"	4.38453558337368
"338"	"2015-01-08"	"All Products"	25.625	8	"| Other |"	10.5673341523341
"342"	"2015-01-08"	"MVMT Watches"	4.73509933774834	151	"MVMT Watches"	4.38453558337368
"346"	"2015-01-08"	"All Products"	25.625	8	"| Other |"	10.5673341523341
"350"	"2015-01-08"	"MVMT Watches"	4.73509933774834	151	"MVMT Watches"	4.38453558337368
"354"	"2015-01-08"	"All Products"	25.625	8	"| Other |"	10.5673341523341
"358"	"2015-01-08"	"MVMT Watches"	4.73509933774834	151	"MVMT Watches"	4.38453558337368
"362"	"2015-01-08"	"All Products"	25.625	8	"| Other |"	10.5673341523341
"366"	"2015-01-08"	"MVMT Watches"	4.73509933774834	151	"MVMT Watches"	4.38453558337368
"370"	"2015-01-08"	"All Products"	25.625	8	"| Other |"	10.5673341523341
"374"	"2015-01-08"	"MVMT Watches"	4.73509933774834	151	"MVMT Watches"	4.38453558337368
"378"	"2015-01-08"	"All Products"	25.625	8	"| Other |"	10.5673341523341
"382"	"2015-01-08"	"MVMT Watches"	4.73509933774834	151	"MVMT Watches"	4.38453558337368
"386"	"2015-01-08"	"All Products"	25.625	8	"| Other |"	10.5673341523341
"390"	"2015-01-08"	"MVMT Watches"	4.73509933774834	151	"MVMT Watches"	4.38453558337368
"394"	"2015-01-08"	"All Products"	25.625	8	"| Other |"	10.5673341523341
"398"	"2015-01-08"	"MVMT Watches"	4.73509933774834	151	"MVMT Watches"	4.38453558337368
"402"	"2015-01-08"	"All Products"	25.625	8	"| Other |"	10.5673341523341
"406"	"2015-01-08"	"MVMT Watches"	4.73509933774834	151	"MVMT Watches"	4.38453558337368
"410"	"2015-01-08"	"All Products"	25.625	8	"| Other |"	10.5673341523341
"414"	"2015-01-08"	"MVMT Watches"	4.73509933774834	151	"MVMT Watches"	4.38453558337368
"418"	"2015-01-08"	"All Products"	25.625	8	"| Other |"	10.5673341523341
"422"	"2015-01-08"	"MVMT Watches"	4.73509933774834	151	"MVMT Watches"	4.38453558337368
"426"	"2015-01-08"	"All Products"	25.625	8	"| Other |"	10.5673341523341
"430"	"2015-01-08"	"MVMT Watches"	4.73509933774834	151	"MVMT Watches"	4.38453558337368
"434"	"2015-01-08"	"All Products"	25.625	8	"| Other |"	10.5673341523341
"438"	"2015-01-08"	"MVMT Watches"	4.73509933774834	151	"MVMT Watches"	4.38453558337368
"442"	"2015-01-08"	"All Products"	25.625	8	"| Other |"	10.5673341523341
"446"	"2015-01-08"	"MVMT Watches"	4.73509933774834	151	"MVMT Watches"	4.38453558337368
"450"	"2015-01-08"	"All Products"	25.625	8	"| Other |"	10.5673341523341
"454"	"2015-01-08"	"MVMT Watches"	4.73509933774834	151	"MVMT Watches"	4.38453558337368
"458"	"2015-01-08"	"All Products"	25.625	8	"| Other |"	10.5673341523341
"462"	"2015-01-08"	"MVMT Watches"	4.73509933774834	151	"MVMT Watches"	4.38453558337368
"466"	"2015-01-08"	"All Products"	25.625	8	"| Other |"	10.5673341523341
"470"	"2015-01-08"	"MVMT Watches"	4.73509933774834	151	"MVMT Watches"	4.38453558337368
"474"	"2015-01-08"	"All Products"	25.625	8	"| Other |"	10.5673341523341
"478"	"2015-01-08"	"MVMT Watches"	4.73509933774834	151	"MVMT Watches"	4.38453558337368
"482"	"2015-01-08"	"All Products"	25.625	8	"| Other |"	10.5673341523341
"486"	"2015-01-08"	"MVMT Watches"	4.73509933774834	151	"MVMT Watches"	4.38453558337368
"490"	"2015-01-08"	"All Products"	25.625	8	"| Other |"	10.5673341523341
"494"	"2015-01-08"	"MVMT Watches"	4.73509933774834	151	"MVMT Watches"	4.38453558337368
"498"	"2015-01-08"	"All Products"	25.625	8	"| Other |"	10.5673341523341
"502"	"2015-01-08"	"MVMT Watches"	4.73509933774834	151	"MVMT Watches"	4.38453558337368
"506"	"2015-01-08"	"All Products"	25.625	8	"| Other |"	10.5673341523341
"510"	"2015-01-08"	"MVMT Watches"	4.73509933774834	151	"MVMT Watches"	4.38453558337368
"514"	"2015-01-08"	"All Products"	25.625	8	"| Other |"	10.5673341523341
"518"	"2015-01-08"	"MVMT Watches"	4.73509933774834	151	"MVMT Watches"	4.38453558337368
"522"	"2015-01-08"	"All Products"	25.625	8	"| Other |"	10.5673341523341
"526"	"2015-01-08"	"MVMT Watches"	4.73509933774834	151	"MVMT Watches"	4.38453558337368
"530"	"2015-01-08"	"All Products"	25.625	8	"| Other |"	10.5673341523341
"534"	"2015-01-08"	"MVMT Watches"	4.73509933774834	151	"MVMT Watches"	4.38453558337368
"538"	"2015-01-08"	"All Products"	25.625	8	"| Other |"	10.5673341523341
"542"	"2015-01-08"	"MVMT Watches"	4.73509933774834	151	"MVMT Watches"	4.38453558337368
"546"	"2015-01-08"	"All Products"	25.625	8	"| Other |"	10.5673341523341
"550"	"2015-01-08"	"MVMT Watches"	4.73509933774834	151	"MVMT Watches"	4.38453558337368
"554"	"2015-01-08"	"All Products"	25.625	8	"| Other |"	10.5673341523341
"558"	"2015-01-08"	"MVMT Watches"	4.73509933774834	151	"MVMT Watches"	4.38453558337368
"562"	"2015-01-08"	"All Products"	25.625	8	"| Other |"	10.5673341523341
"566"	"2015-01-08"	"MVMT Watches"	4.73509933774834	151	"MVMT Watches"	4.38453558337368
"570"	"2015-01-08"	"All Products"	25.625	8	"| Other |"	10.5673341523341
"574"	"2015-01-08"	"MVMT Watches"	4.73509933774834	151	"MVMT Watches"	4.38453558337368
"578"	"2015-01-08"	"All Products"	25.625	8	"| Other |"	10.5673341523341
"582"	"2015-01-08"	"MVMT Watches"	4.73509933774834	151	"MVMT Watches"	4.38453558337368
"586"	"2015-01-08"	"All Products"	25.625	8	"| Other |"	10.5673341523341
"590"	"2015-01-08"	"MVMT Watches"	4.73509933774834	151	"MVMT Watches"	4.38453558337368
"594"	"2015-01-08"	"All Products"	25.625	8	"| Other |"	10.5673341523341
"598"	"2015-01-08"	"MVMT Watches"	4.73509933774834	151	"MVMT Watches"	4.38453558337368
"602"	"2015-01-08"	"All Products"	25.625	8	"| Other |"	10.5673341523341
"606"	"2015-01-08"	"MVMT Watches"	4.73509933774834	151	"MVMT Watches"	4.38453558337368
"610"	"2015-01-08"	"All Products"	25.625	8	"| Other |"	10.5673341523341
"614"	"2015-01-08"	"MVMT Watches"	4.73509933774834	151	"MVMT Watches"	4.38453558337368
"618"	"2015-01-08"	"All Products"	25.625	8	"| Other |"	10.5673341523341
"622"	"2015-01-08"	"MVMT Watches"	4.73509933774834	151	"MVMT Watches"	4.38453558337368
"626"	"2015-01-08"	"All Products"	25.625	8	"| Other |"	10.5673341523341
"630"	"2015-01-08"	"MVMT Watches"	4.73509933774834	151	"MVMT Watches"	4.38453558337368
"634"	"2015-01-08"	"All Products"	25.625	8	"| Other |"	10.5673341523341
"638"	"2015-01-08"	"MVMT Watches"	4.73509933774834	151	"MVMT Watches"	4.38453558337368
"642"	"2015-01-08"	"All Products"	25.625	8	"| Other |"	10.5673341523341
"646"	"2015-01-08"	"MVMT Watches"	4.73509933774834	151	"MVMT Watches"	4.38453558337368
"650"	"2015-01-08"	"All Products"	25.625	8	"| Other |"	10.5673341523341
"654"	"2015-01-08"	"MVMT Watches"	4.73509933774834	151	"MVMT Watches"	4.38453558337368
"662"	"2015-01-08"	"MVMT Watches"	4.73509933774834	151	"MVMT Watches"	4.38453558337368
"665"	"2015-01-07"	"(not set)"	2.41546377704961	30823	"(not set)"	2.13378105062815
"666"	"2015-01-07"	"All Products"	11.875	8	"| Other |"	10.5673341523341
"670"	"2015-01-07"	"MVMT Watches"	3.51489361702128	235	"MVMT Watches"	4.38453558337368
"673"	"2015-01-06"	"(not set)"	2.3442509222785	31986	"(not set)"	2.13378105062815
"674"	"2015-01-06"	"All Products"	7.91666666666667	12	"| Other |"	10.5673341523341
"686"	"2015-01-05"	"MVMT Watches"	2.61904761904762	231	"MVMT Watches"	4.38453558337368
"691"	"2015-01-04"	"Dynamic Search Ads - All Pages"	13.5714285714286	7	"Dynamic Search Ads - All Pages"	0.0214883510518034
"692"	"2015-01-04"	"Jake's General Broad KWs"	6.33333333333333	15	"| Other |"	10.5673341523341
"693"	"2015-01-04"	"MVMT Watches"	3.24	250	"MVMT Watches"	4.38453558337368
"701"	"2015-01-03"	"MVMT Watches"	2.41379310344828	174	"MVMT Watches"	4.38453558337368
"703"	"2015-01-03"	"Managed Placements + \"watch\""	6.02941176470588	34	"Managed Placements + \"watch\""	1.27118644067797
"705"	"2015-01-02"	"All Products"	13.5714285714286	7	"| Other |"	10.5673341523341
"711"	"2015-01-02"	"Managed Placements + \"watch\""	7.91666666666667	12	"Managed Placements + \"watch\""	1.27118644067797
"721"	"2014-12-31"	"All Products"	15.8333333333333	6	"| Other |"	10.5673341523341
"723"	"2014-12-31"	"Females 45+ Add to Cart"	61.81	2	"| Other |"	10.5673341523341
