"adTargetingType"	"users"	"revenuePerUser"	"cat"	"revPerU"	"catNum"
"1"	"(not set)"	3065517	3.10288155248756	"(not set)"	2	1
"2"	"Keyword"	266917	5.46037114099139	"Keyword"	3	2
"3"	"Site"	173	0	"Site"	1	3
"4"	"User List"	26957	3.55604811017546	"User List"	2	4
"5"	"Vertical"	592	0	"Vertical"	1	5
"6"	"unknown"	1848	0	"unknown"	1	6
