"searchUsed"	"users"	"revenuePerUser"	"cat"	"revPerU"	"catNum"
"1"	"Visits With Site Search"	258239	6.79118483564063	"Visits With Site Search"	3	1
"2"	"Visits Without Site Search"	3136455	2.96880192450139	"Visits Without Site Search"	1	2
