"date"	"operatingSystem"	"revenuePerUser"	"users"	"cat"	"pred_RPU"
"1"	2015-04-27	"(not set)"	0	33	"| Other |"	0.478265955871462
"2"	2015-04-27	"Android"	0.537904761904762	2625	"Android"	1.37096593659916
"3"	2015-04-27	"BlackBerry"	0	8	"| Other |"	0.478265955871462
"4"	2015-04-27	"Chrome OS"	0	72	"| Other |"	0.478265955871462
"5"	2015-04-27	"Linux"	0	36	"Linux"	1.22231672484925
"6"	2015-04-27	"Macintosh"	0.906127783155857	4132	"Macintosh"	2.01827822719694
"7"	2015-04-27	"Samsung"	0	2	"| Other |"	0.478265955871462
"8"	2015-04-27	"Series40"	0	5	"| Other |"	0.478265955871462
"9"	2015-04-27	"SymbianOS"	0	1	"| Other |"	0.478265955871462
"10"	2015-04-27	"Windows"	0.710380220646178	5076	"Windows"	1.68867584031649
"11"	2015-04-27	"Windows Phone"	0	32	"| Other |"	0.478265955871462
"12"	2015-04-27	"Xbox"	0	1	"| Other |"	0.478265955871462
"13"	2015-04-27	"iOS"	0.669221998658618	7455	"iOS"	1.3130883807619
"14"	2015-04-26	"(not set)"	0	46	"| Other |"	0.478265955871462
"15"	2015-04-26	"Android"	0.356598342782381	2293	"Android"	1.37096593659916
"16"	2015-04-26	"BlackBerry"	0	3	"| Other |"	0.478265955871462
"17"	2015-04-26	"Chrome OS"	0	71	"| Other |"	0.478265955871462
"18"	2015-04-26	"Linux"	0	42	"Linux"	1.22231672484925
"19"	2015-04-26	"Macintosh"	0.468887218045113	3325	"Macintosh"	2.01827822719694
"20"	2015-04-26	"Samsung"	0	3	"| Other |"	0.478265955871462
"21"	2015-04-26	"Series40"	0	4	"| Other |"	0.478265955871462
"22"	2015-04-26	"Windows"	0.657826797385621	3672	"Windows"	1.68867584031649
"23"	2015-04-26	"Windows Phone"	1.28205128205128	39	"| Other |"	0.478265955871462
"24"	2015-04-26	"Xbox"	0	1	"| Other |"	0.478265955871462
"25"	2015-04-26	"iOS"	0.46493029358701	6097	"iOS"	1.3130883807619
"26"	2015-04-25	"(not set)"	0	23	"| Other |"	0.478265955871462
"27"	2015-04-25	"Android"	0.197840038314176	2088	"Android"	1.37096593659916
"28"	2015-04-25	"BlackBerry"	0	4	"| Other |"	0.478265955871462
"29"	2015-04-25	"Chrome OS"	0	55	"| Other |"	0.478265955871462
"30"	2015-04-25	"Linux"	0	43	"Linux"	1.22231672484925
"31"	2015-04-25	"Macintosh"	0.549412162162162	2960	"Macintosh"	2.01827822719694
"32"	2015-04-25	"Samsung"	0	1	"| Other |"	0.478265955871462
"33"	2015-04-25	"Series40"	0	5	"| Other |"	0.478265955871462
"34"	2015-04-25	"SymbianOS"	0	1	"| Other |"	0.478265955871462
"35"	2015-04-25	"Windows"	0.180610810810811	3700	"Windows"	1.68867584031649
"36"	2015-04-25	"Windows Phone"	0	38	"| Other |"	0.478265955871462
"37"	2015-04-25	"iOS"	0.253933977749407	5483	"iOS"	1.3130883807619
"38"	2015-04-24	"(not set)"	0	33	"| Other |"	0.478265955871462
"39"	2015-04-24	"Android"	0.328044797013532	2143	"Android"	1.37096593659916
"40"	2015-04-24	"BlackBerry"	0	6	"| Other |"	0.478265955871462
"41"	2015-04-24	"Chrome OS"	0	64	"| Other |"	0.478265955871462
"42"	2015-04-24	"Linux"	0	46	"Linux"	1.22231672484925
"43"	2015-04-24	"Macintosh"	0.317693069306931	3030	"Macintosh"	2.01827822719694
"44"	2015-04-24	"Nokia"	0	3	"| Other |"	0.478265955871462
"45"	2015-04-24	"Samsung"	0	1	"| Other |"	0.478265955871462
"46"	2015-04-24	"Series40"	0	8	"| Other |"	0.478265955871462
"47"	2015-04-24	"SymbianOS"	0	1	"| Other |"	0.478265955871462
"48"	2015-04-24	"Windows"	0.520918367346939	4606	"Windows"	1.68867584031649
"49"	2015-04-24	"Windows Phone"	0	34	"| Other |"	0.478265955871462
"50"	2015-04-24	"iOS"	0.392193179851134	5777	"iOS"	1.3130883807619
"51"	2015-04-23	"(not set)"	0	30	"| Other |"	0.478265955871462
"52"	2015-04-23	"Android"	0.274427407762338	2087	"Android"	1.37096593659916
"53"	2015-04-23	"BlackBerry"	0	8	"| Other |"	0.478265955871462
"54"	2015-04-23	"Chrome OS"	0	85	"| Other |"	0.478265955871462
"55"	2015-04-23	"Linux"	0	35	"Linux"	1.22231672484925
"56"	2015-04-23	"Macintosh"	0.721313479623825	3190	"Macintosh"	2.01827822719694
"57"	2015-04-23	"Series40"	0	5	"| Other |"	0.478265955871462
"58"	2015-04-23	"Windows"	0.602968312136236	4639	"Windows"	1.68867584031649
"59"	2015-04-23	"Windows Phone"	0	36	"| Other |"	0.478265955871462
"60"	2015-04-23	"iOS"	0.863535026112011	5553	"iOS"	1.3130883807619
"61"	2015-04-22	"(not set)"	0	35	"| Other |"	0.478265955871462
"62"	2015-04-22	"Android"	0.933190290420459	2307	"Android"	1.37096593659916
"63"	2015-04-22	"BlackBerry"	0	10	"| Other |"	0.478265955871462
"64"	2015-04-22	"Chrome OS"	0	60	"| Other |"	0.478265955871462
"65"	2015-04-22	"Linux"	0	44	"Linux"	1.22231672484925
"66"	2015-04-22	"Macintosh"	0.884958888573859	3527	"Macintosh"	2.01827822719694
"67"	2015-04-22	"Samsung"	0	1	"| Other |"	0.478265955871462
"68"	2015-04-22	"Series40"	0	7	"| Other |"	0.478265955871462
"69"	2015-04-22	"Windows"	0.448957374424655	4997	"Windows"	1.68867584031649
"70"	2015-04-22	"Windows Phone"	0	51	"| Other |"	0.478265955871462
"71"	2015-04-22	"iOS"	0.683025260928755	6611	"iOS"	1.3130883807619
"72"	2015-04-21	"(not set)"	0	43	"| Other |"	0.478265955871462
"73"	2015-04-21	"Android"	0.370478943022296	2422	"Android"	1.37096593659916
"74"	2015-04-21	"BlackBerry"	0	1	"| Other |"	0.478265955871462
"75"	2015-04-21	"Chrome OS"	0	71	"| Other |"	0.478265955871462
"76"	2015-04-21	"Linux"	0	33	"Linux"	1.22231672484925
"77"	2015-04-21	"Macintosh"	1.10624115405553	3674	"Macintosh"	2.01827822719694
"78"	2015-04-21	"OpenBSD"	0	1	"| Other |"	0.478265955871462
"79"	2015-04-21	"Samsung"	0	1	"| Other |"	0.478265955871462
"80"	2015-04-21	"Series40"	0	7	"| Other |"	0.478265955871462
"81"	2015-04-21	"Windows"	0.474352012324283	5193	"Windows"	1.68867584031649
"82"	2015-04-21	"Windows Phone"	0	35	"| Other |"	0.478265955871462
"83"	2015-04-21	"iOS"	0.592229868228404	6830	"iOS"	1.3130883807619
"84"	2015-04-20	"(not set)"	0	32	"| Other |"	0.478265955871462
"85"	2015-04-20	"Android"	0.617231163130944	2734	"Android"	1.37096593659916
"86"	2015-04-20	"BlackBerry"	0	2	"| Other |"	0.478265955871462
"87"	2015-04-20	"Chrome OS"	0	66	"| Other |"	0.478265955871462
"88"	2015-04-20	"Linux"	0.206896551724138	29	"Linux"	1.22231672484925
"89"	2015-04-20	"Macintosh"	0.686314239828694	3736	"Macintosh"	2.01827822719694
"90"	2015-04-20	"OpenBSD"	0	1	"| Other |"	0.478265955871462
"91"	2015-04-20	"Samsung"	0	2	"| Other |"	0.478265955871462
"92"	2015-04-20	"Series40"	0	3	"| Other |"	0.478265955871462
"93"	2015-04-20	"SymbianOS"	0	2	"| Other |"	0.478265955871462
"94"	2015-04-20	"Windows"	0.855421467556095	4947	"Windows"	1.68867584031649
"95"	2015-04-20	"Windows Phone"	0	41	"| Other |"	0.478265955871462
"96"	2015-04-20	"iOS"	0.715979932238728	7674	"iOS"	1.3130883807619
"97"	2015-04-19	"(not set)"	0	28	"| Other |"	0.478265955871462
"98"	2015-04-19	"Android"	0.529034397016162	2413	"Android"	1.37096593659916
"99"	2015-04-19	"BlackBerry"	0	8	"| Other |"	0.478265955871462
"100"	2015-04-19	"Chrome OS"	0	63	"| Other |"	0.478265955871462
"101"	2015-04-19	"Linux"	0	23	"Linux"	1.22231672484925
"102"	2015-04-19	"Macintosh"	0.642478991596639	2856	"Macintosh"	2.01827822719694
"103"	2015-04-19	"Nintendo Wii"	0	1	"| Other |"	0.478265955871462
"104"	2015-04-19	"Nokia"	0	1	"| Other |"	0.478265955871462
"105"	2015-04-19	"Samsung"	0	4	"| Other |"	0.478265955871462
"106"	2015-04-19	"Series40"	0	7	"| Other |"	0.478265955871462
"107"	2015-04-19	"SymbianOS"	0	2	"| Other |"	0.478265955871462
"108"	2015-04-19	"Windows"	0.704130036630037	3276	"Windows"	1.68867584031649
"109"	2015-04-19	"Windows Phone"	0	40	"| Other |"	0.478265955871462
"110"	2015-04-19	"iOS"	0.590333443380654	6058	"iOS"	1.3130883807619
"111"	2015-04-18	"(not set)"	0	32	"| Other |"	0.478265955871462
"112"	2015-04-18	"Android"	0.365011820330969	2115	"Android"	1.37096593659916
"113"	2015-04-18	"BlackBerry"	0	5	"| Other |"	0.478265955871462
"114"	2015-04-18	"Chrome OS"	0	49	"| Other |"	0.478265955871462
"115"	2015-04-18	"Linux"	0	23	"Linux"	1.22231672484925
"116"	2015-04-18	"Macintosh"	0.816264198569626	2377	"Macintosh"	2.01827822719694
"117"	2015-04-18	"Samsung"	0	2	"| Other |"	0.478265955871462
"118"	2015-04-18	"Series40"	0	3	"| Other |"	0.478265955871462
"119"	2015-04-18	"SymbianOS"	0	1	"| Other |"	0.478265955871462
"120"	2015-04-18	"Windows"	0.59400878293601	3188	"Windows"	1.68867584031649
"121"	2015-04-18	"Windows Phone"	0	40	"| Other |"	0.478265955871462
"122"	2015-04-18	"iOS"	0.58332356961531	5121	"iOS"	1.3130883807619
"123"	2015-04-17	"(not set)"	0	29	"| Other |"	0.478265955871462
"124"	2015-04-17	"Android"	1.0209121785541	2061	"Android"	1.37096593659916
"125"	2015-04-17	"BlackBerry"	0	8	"| Other |"	0.478265955871462
"126"	2015-04-17	"Chrome OS"	0	92	"| Other |"	0.478265955871462
"127"	2015-04-17	"Linux"	0	40	"Linux"	1.22231672484925
"128"	2015-04-17	"Macintosh"	0.7184	2875	"Macintosh"	2.01827822719694
"129"	2015-04-17	"Nokia"	0	1	"| Other |"	0.478265955871462
"130"	2015-04-17	"Series40"	0	4	"| Other |"	0.478265955871462
"131"	2015-04-17	"SymbianOS"	0	2	"| Other |"	0.478265955871462
"132"	2015-04-17	"Windows"	0.710287648054145	4137	"Windows"	1.68867584031649
"133"	2015-04-17	"Windows Phone"	0	32	"| Other |"	0.478265955871462
"134"	2015-04-17	"iOS"	0.462158374211633	5708	"iOS"	1.3130883807619
"135"	2015-04-16	"(not set)"	0	32	"| Other |"	0.478265955871462
"136"	2015-04-16	"Android"	0.866	2000	"Android"	1.37096593659916
"137"	2015-04-16	"BlackBerry"	0	7	"| Other |"	0.478265955871462
"138"	2015-04-16	"Chrome OS"	0	58	"| Other |"	0.478265955871462
"139"	2015-04-16	"Linux"	0	37	"Linux"	1.22231672484925
"141"	2015-04-16	"Samsung"	0	1	"| Other |"	0.478265955871462
"142"	2015-04-16	"Series40"	0	8	"| Other |"	0.478265955871462
"143"	2015-04-16	"SymbianOS"	0	2	"| Other |"	0.478265955871462
"144"	2015-04-16	"Windows"	0.704126444595513	4413	"Windows"	1.68867584031649
"145"	2015-04-16	"Windows Phone"	0	38	"| Other |"	0.478265955871462
"146"	2015-04-16	"iOS"	0.679547862945955	5662	"iOS"	1.3130883807619
"147"	2015-04-15	"(not set)"	0	31	"| Other |"	0.478265955871462
"148"	2015-04-15	"Android"	0.935385814497272	2566	"Android"	1.37096593659916
"149"	2015-04-15	"BlackBerry"	0	7	"| Other |"	0.478265955871462
"150"	2015-04-15	"Chrome OS"	0	56	"| Other |"	0.478265955871462
"151"	2015-04-15	"Linux"	0	28	"Linux"	1.22231672484925
"152"	2015-04-15	"Macintosh"	1.1456107421311	3463	"Macintosh"	2.01827822719694
"153"	2015-04-15	"Nokia"	0	1	"| Other |"	0.478265955871462
"154"	2015-04-15	"Series40"	0	11	"| Other |"	0.478265955871462
"155"	2015-04-15	"SymbianOS"	0	2	"| Other |"	0.478265955871462
"156"	2015-04-15	"Windows"	1.07048821548822	4752	"Windows"	1.68867584031649
"157"	2015-04-15	"Windows Phone"	0	51	"| Other |"	0.478265955871462
"158"	2015-04-15	"Xbox"	0	1	"| Other |"	0.478265955871462
"159"	2015-04-15	"iOS"	0.754263053536021	7565	"iOS"	1.3130883807619
"160"	2015-04-14	"(not set)"	0	28	"| Other |"	0.478265955871462
"162"	2015-04-14	"BlackBerry"	0	3	"| Other |"	0.478265955871462
"163"	2015-04-14	"Chrome OS"	0	66	"| Other |"	0.478265955871462
"164"	2015-04-14	"Linux"	0	38	"Linux"	1.22231672484925
"165"	2015-04-14	"Macintosh"	1.28533972821743	3753	"Macintosh"	2.01827822719694
"166"	2015-04-14	"Nokia"	0	1	"| Other |"	0.478265955871462
"167"	2015-04-14	"Playstation 3"	0	1	"| Other |"	0.478265955871462
"168"	2015-04-14	"Series40"	0	8	"| Other |"	0.478265955871462
"169"	2015-04-14	"Windows"	0.878964080174638	5039	"Windows"	1.68867584031649
"170"	2015-04-14	"Windows Phone"	1.18181818181818	44	"| Other |"	0.478265955871462
"171"	2015-04-14	"Xbox"	0	1	"| Other |"	0.478265955871462
"173"	2015-04-13	"(not set)"	0	41	"| Other |"	0.478265955871462
"174"	2015-04-13	"Android"	0.467865068797159	2253	"Android"	1.37096593659916
"175"	2015-04-13	"BlackBerry"	0	7	"| Other |"	0.478265955871462
"176"	2015-04-13	"Chrome OS"	0	49	"| Other |"	0.478265955871462
"177"	2015-04-13	"Linux"	0	26	"Linux"	1.22231672484925
"178"	2015-04-13	"Macintosh"	0.824567392583873	3398	"Macintosh"	2.01827822719694
"179"	2015-04-13	"Nokia"	0	2	"| Other |"	0.478265955871462
"180"	2015-04-13	"Samsung"	0	3	"| Other |"	0.478265955871462
"181"	2015-04-13	"Series40"	0	5	"| Other |"	0.478265955871462
"182"	2015-04-13	"SymbianOS"	0	2	"| Other |"	0.478265955871462
"183"	2015-04-13	"Windows"	0.622025611175786	4295	"Windows"	1.68867584031649
"184"	2015-04-13	"Windows Phone"	0	44	"| Other |"	0.478265955871462
"185"	2015-04-13	"Xbox"	0	1	"| Other |"	0.478265955871462
"186"	2015-04-13	"iOS"	0.469967532467532	6776	"iOS"	1.3130883807619
"187"	2015-04-12	"(not set)"	0	25	"| Other |"	0.478265955871462
"188"	2015-04-12	"Android"	0.310344827586207	2088	"Android"	1.37096593659916
"189"	2015-04-12	"BlackBerry"	0	6	"| Other |"	0.478265955871462
"190"	2015-04-12	"Chrome OS"	0	40	"| Other |"	0.478265955871462
"192"	2015-04-12	"Macintosh"	0.851826741996233	2655	"Macintosh"	2.01827822719694
"193"	2015-04-12	"Nokia"	0	4	"| Other |"	0.478265955871462
"194"	2015-04-12	"Series40"	0	6	"| Other |"	0.478265955871462
"195"	2015-04-12	"Windows"	0.546880327309922	2933	"Windows"	1.68867584031649
"196"	2015-04-12	"Windows Phone"	0	35	"| Other |"	0.478265955871462
"197"	2015-04-12	"Xbox"	0	1	"| Other |"	0.478265955871462
"198"	2015-04-12	"iOS"	0.724078510873572	5426	"iOS"	1.3130883807619
"199"	2015-04-11	"(not set)"	0	36	"| Other |"	0.478265955871462
"200"	2015-04-11	"Android"	0.283469805527124	1954	"Android"	1.37096593659916
"201"	2015-04-11	"BlackBerry"	0	7	"| Other |"	0.478265955871462
"202"	2015-04-11	"Chrome OS"	0	45	"| Other |"	0.478265955871462
"203"	2015-04-11	"Linux"	0	36	"Linux"	1.22231672484925
"204"	2015-04-11	"Macintosh"	0.802885848653271	2339	"Macintosh"	2.01827822719694
"205"	2015-04-11	"Nokia"	0	1	"| Other |"	0.478265955871462
"206"	2015-04-11	"Samsung"	0	1	"| Other |"	0.478265955871462
"207"	2015-04-11	"Series40"	0	7	"| Other |"	0.478265955871462
"208"	2015-04-11	"Windows"	0.538242799854174	2743	"Windows"	1.68867584031649
"209"	2015-04-11	"Windows Phone"	0	44	"| Other |"	0.478265955871462
"210"	2015-04-11	"iOS"	0.363191315034822	4882	"iOS"	1.3130883807619
"211"	2015-04-10	"(not set)"	0	27	"| Other |"	0.478265955871462
"212"	2015-04-10	"Android"	0.75511892450879	1934	"Android"	1.37096593659916
"213"	2015-04-10	"BlackBerry"	0	7	"| Other |"	0.478265955871462
"214"	2015-04-10	"Chrome OS"	0	41	"| Other |"	0.478265955871462
"215"	2015-04-10	"Linux"	0	30	"Linux"	1.22231672484925
"216"	2015-04-10	"Macintosh"	0.518877551020408	2548	"Macintosh"	2.01827822719694
"217"	2015-04-10	"Samsung"	0	3	"| Other |"	0.478265955871462
"218"	2015-04-10	"Series40"	0	7	"| Other |"	0.478265955871462
"219"	2015-04-10	"SymbianOS"	0	1	"| Other |"	0.478265955871462
"220"	2015-04-10	"Windows"	0.580975092739799	3774	"Windows"	1.68867584031649
"221"	2015-04-10	"Windows Phone"	0	54	"| Other |"	0.478265955871462
"222"	2015-04-10	"Xbox"	0	1	"| Other |"	0.478265955871462
"223"	2015-04-10	"iOS"	0.562420613318817	5511	"iOS"	1.3130883807619
"224"	2015-04-09	"(not set)"	0	22	"| Other |"	0.478265955871462
"225"	2015-04-09	"Android"	1.10779930452062	2013	"Android"	1.37096593659916
"226"	2015-04-09	"BlackBerry"	0	6	"| Other |"	0.478265955871462
"227"	2015-04-09	"Chrome OS"	0	47	"| Other |"	0.478265955871462
"230"	2015-04-09	"Nokia"	0	1	"| Other |"	0.478265955871462
"231"	2015-04-09	"Samsung"	0	1	"| Other |"	0.478265955871462
"232"	2015-04-09	"Series40"	0	5	"| Other |"	0.478265955871462
"233"	2015-04-09	"SymbianOS"	0	1	"| Other |"	0.478265955871462
"235"	2015-04-09	"Windows Phone"	0	35	"| Other |"	0.478265955871462
"236"	2015-04-09	"iOS"	1.28231187669991	5515	"iOS"	1.3130883807619
"237"	2015-04-08	"(not set)"	0	34	"| Other |"	0.478265955871462
"239"	2015-04-08	"BlackBerry"	0	5	"| Other |"	0.478265955871462
"240"	2015-04-08	"Chrome OS"	0	62	"| Other |"	0.478265955871462
"241"	2015-04-08	"Linux"	0	42	"Linux"	1.22231672484925
"243"	2015-04-08	"Nokia"	0	1	"| Other |"	0.478265955871462
"244"	2015-04-08	"Series40"	0	5	"| Other |"	0.478265955871462
"246"	2015-04-08	"Windows Phone"	0	51	"| Other |"	0.478265955871462
"248"	2015-04-07	"(not set)"	0	26	"| Other |"	0.478265955871462
"250"	2015-04-07	"BlackBerry"	0	5	"| Other |"	0.478265955871462
"251"	2015-04-07	"Chrome OS"	0	42	"| Other |"	0.478265955871462
"252"	2015-04-07	"Linux"	0	32	"Linux"	1.22231672484925
"254"	2015-04-07	"Samsung"	0	1	"| Other |"	0.478265955871462
"255"	2015-04-07	"Series40"	0	1	"| Other |"	0.478265955871462
"257"	2015-04-07	"Windows Phone"	0	62	"| Other |"	0.478265955871462
"259"	2015-04-06	"(not set)"	0	32	"| Other |"	0.478265955871462
"261"	2015-04-06	"Bada"	0	1	"| Other |"	0.478265955871462
"262"	2015-04-06	"BlackBerry"	0	6	"| Other |"	0.478265955871462
"263"	2015-04-06	"Chrome OS"	0.478260869565217	46	"| Other |"	0.478265955871462
"264"	2015-04-06	"Linux"	0	26	"Linux"	1.22231672484925
"266"	2015-04-06	"Series40"	0	4	"| Other |"	0.478265955871462
"267"	2015-04-06	"SymbianOS"	0	2	"| Other |"	0.478265955871462
"269"	2015-04-06	"Windows Phone"	0	46	"| Other |"	0.478265955871462
"271"	2015-04-05	"(not set)"	0	33	"| Other |"	0.478265955871462
"272"	2015-04-05	"Android"	1.30374939525883	2067	"Android"	1.37096593659916
"273"	2015-04-05	"Bada"	0	1	"| Other |"	0.478265955871462
"274"	2015-04-05	"BlackBerry"	0	8	"| Other |"	0.478265955871462
"275"	2015-04-05	"Chrome OS"	0	49	"| Other |"	0.478265955871462
"276"	2015-04-05	"Linux"	0	27	"Linux"	1.22231672484925
"278"	2015-04-05	"Nokia"	0	1	"| Other |"	0.478265955871462
"279"	2015-04-05	"Samsung"	0	3	"| Other |"	0.478265955871462
"280"	2015-04-05	"Series40"	0	8	"| Other |"	0.478265955871462
"282"	2015-04-05	"Windows Phone"	0	39	"| Other |"	0.478265955871462
"284"	2015-04-04	"(not set)"	0	27	"| Other |"	0.478265955871462
"286"	2015-04-04	"BlackBerry"	0	5	"| Other |"	0.478265955871462
"287"	2015-04-04	"Chrome OS"	0	45	"| Other |"	0.478265955871462
"288"	2015-04-04	"Linux"	0	17	"Linux"	1.22231672484925
"290"	2015-04-04	"Nokia"	0	2	"| Other |"	0.478265955871462
"291"	2015-04-04	"Samsung"	0	1	"| Other |"	0.478265955871462
"292"	2015-04-04	"Series40"	0	7	"| Other |"	0.478265955871462
"293"	2015-04-04	"SymbianOS"	0	1	"| Other |"	0.478265955871462
"295"	2015-04-04	"Windows Phone"	0	42	"| Other |"	0.478265955871462
"297"	2015-04-03	"(not set)"	0	22	"| Other |"	0.478265955871462
"299"	2015-04-03	"BlackBerry"	0	6	"| Other |"	0.478265955871462
"300"	2015-04-03	"Chrome OS"	0	53	"| Other |"	0.478265955871462
"301"	2015-04-03	"Linux"	0	25	"Linux"	1.22231672484925
"303"	2015-04-03	"Nokia"	0	1	"| Other |"	0.478265955871462
"304"	2015-04-03	"Samsung"	0	2	"| Other |"	0.478265955871462
"305"	2015-04-03	"Series40"	0	3	"| Other |"	0.478265955871462
"307"	2015-04-03	"Windows Phone"	0	45	"| Other |"	0.478265955871462
"309"	2015-04-02	"(not set)"	0	25	"| Other |"	0.478265955871462
"311"	2015-04-02	"BlackBerry"	0	13	"| Other |"	0.478265955871462
"312"	2015-04-02	"Chrome OS"	0	54	"| Other |"	0.478265955871462
"313"	2015-04-02	"Linux"	0	41	"Linux"	1.22231672484925
"315"	2015-04-02	"Samsung"	0	3	"| Other |"	0.478265955871462
"316"	2015-04-02	"Series40"	0	5	"| Other |"	0.478265955871462
"317"	2015-04-02	"SymbianOS"	0	2	"| Other |"	0.478265955871462
"319"	2015-04-02	"Windows Phone"	0	39	"| Other |"	0.478265955871462
"320"	2015-04-02	"Xbox"	0	1	"| Other |"	0.478265955871462
"322"	2015-04-01	"(not set)"	0	28	"| Other |"	0.478265955871462
"324"	2015-04-01	"BlackBerry"	0	13	"| Other |"	0.478265955871462
"326"	2015-04-01	"Linux"	0	40	"Linux"	1.22231672484925
"328"	2015-04-01	"Nokia"	0	4	"| Other |"	0.478265955871462
"329"	2015-04-01	"Samsung"	0	5	"| Other |"	0.478265955871462
"330"	2015-04-01	"Series40"	0	2	"| Other |"	0.478265955871462
"331"	2015-04-01	"SymbianOS"	0	2	"| Other |"	0.478265955871462
"333"	2015-04-01	"Windows Phone"	0	37	"| Other |"	0.478265955871462
"335"	2015-03-31	"(not set)"	0	41	"| Other |"	0.478265955871462
"337"	2015-03-31	"BlackBerry"	0	17	"| Other |"	0.478265955871462
"338"	2015-03-31	"Chrome OS"	0	115	"| Other |"	0.478265955871462
"341"	2015-03-31	"Series40"	0	8	"| Other |"	0.478265955871462
"342"	2015-03-31	"SymbianOS"	0	1	"| Other |"	0.478265955871462
"344"	2015-03-31	"Windows Phone"	0	52	"| Other |"	0.478265955871462
"345"	2015-03-31	"Xbox"	0	1	"| Other |"	0.478265955871462
"347"	2015-03-30	"(not set)"	0	36	"| Other |"	0.478265955871462
"349"	2015-03-30	"BlackBerry"	0	12	"| Other |"	0.478265955871462
"350"	2015-03-30	"Chrome OS"	0	103	"| Other |"	0.478265955871462
"351"	2015-03-30	"Linux"	0	38	"Linux"	1.22231672484925
"353"	2015-03-30	"Nokia"	0	1	"| Other |"	0.478265955871462
"354"	2015-03-30	"Playstation Vita"	0	1	"| Other |"	0.478265955871462
"355"	2015-03-30	"Series40"	0	6	"| Other |"	0.478265955871462
"356"	2015-03-30	"SymbianOS"	0	1	"| Other |"	0.478265955871462
"358"	2015-03-30	"Windows Phone"	0	52	"| Other |"	0.478265955871462
"359"	2015-03-30	"Xbox"	0	2	"| Other |"	0.478265955871462
"361"	2015-03-29	"(not set)"	0	27	"| Other |"	0.478265955871462
"363"	2015-03-29	"BlackBerry"	0	10	"| Other |"	0.478265955871462
"364"	2015-03-29	"Chrome OS"	0	62	"| Other |"	0.478265955871462
"365"	2015-03-29	"Linux"	0	42	"Linux"	1.22231672484925
"367"	2015-03-29	"Nokia"	0	1	"| Other |"	0.478265955871462
"368"	2015-03-29	"Series40"	0	8	"| Other |"	0.478265955871462
"369"	2015-03-29	"SymbianOS"	0	2	"| Other |"	0.478265955871462
"371"	2015-03-29	"Windows Phone"	0	65	"| Other |"	0.478265955871462
"372"	2015-03-29	"iOS"	1.19325916895256	9843	"iOS"	1.3130883807619
"373"	2015-03-28	"(not set)"	0	29	"| Other |"	0.478265955871462
"375"	2015-03-28	"BlackBerry"	0	14	"| Other |"	0.478265955871462
"377"	2015-03-28	"Linux"	0	50	"Linux"	1.22231672484925
"379"	2015-03-28	"Nokia"	0	3	"| Other |"	0.478265955871462
"380"	2015-03-28	"Playstation Vita"	0	1	"| Other |"	0.478265955871462
"381"	2015-03-28	"Series40"	0	9	"| Other |"	0.478265955871462
"382"	2015-03-28	"SymbianOS"	0	1	"| Other |"	0.478265955871462
"385"	2015-03-28	"iOS"	1.16138619445071	8866	"iOS"	1.3130883807619
"386"	2015-03-27	"(not set)"	0	27	"| Other |"	0.478265955871462
"388"	2015-03-27	"BlackBerry"	0	15	"| Other |"	0.478265955871462
"390"	2015-03-27	"Linux"	0	48	"Linux"	1.22231672484925
"392"	2015-03-27	"Nintendo Wii"	0	1	"| Other |"	0.478265955871462
"393"	2015-03-27	"Nokia"	0	2	"| Other |"	0.478265955871462
"394"	2015-03-27	"Series40"	0	4	"| Other |"	0.478265955871462
"395"	2015-03-27	"SymbianOS"	0	2	"| Other |"	0.478265955871462
"398"	2015-03-27	"Xbox"	0	1	"| Other |"	0.478265955871462
"399"	2015-03-27	"iOS"	1.24335073068894	9580	"iOS"	1.3130883807619
"400"	2015-03-26	"(not set)"	0	41	"| Other |"	0.478265955871462
"402"	2015-03-26	"BlackBerry"	0	21	"| Other |"	0.478265955871462
"403"	2015-03-26	"Chrome OS"	0	100	"| Other |"	0.478265955871462
"404"	2015-03-26	"Linux"	0	47	"Linux"	1.22231672484925
"406"	2015-03-26	"Samsung"	0	2	"| Other |"	0.478265955871462
"407"	2015-03-26	"Series40"	0	2	"| Other |"	0.478265955871462
"408"	2015-03-26	"SymbianOS"	0	3	"| Other |"	0.478265955871462
"410"	2015-03-26	"Windows Phone"	0	54	"| Other |"	0.478265955871462
"412"	2015-03-25	"(not set)"	0	26	"| Other |"	0.478265955871462
"414"	2015-03-25	"BlackBerry"	0	11	"| Other |"	0.478265955871462
"415"	2015-03-25	"Chrome OS"	0	103	"| Other |"	0.478265955871462
"416"	2015-03-25	"Linux"	0	39	"Linux"	1.22231672484925
"418"	2015-03-25	"Nokia"	0	2	"| Other |"	0.478265955871462
"419"	2015-03-25	"Samsung"	0	2	"| Other |"	0.478265955871462
"420"	2015-03-25	"Series40"	0	5	"| Other |"	0.478265955871462
"421"	2015-03-25	"SymbianOS"	0	1	"| Other |"	0.478265955871462
"423"	2015-03-25	"Windows Phone"	0	54	"| Other |"	0.478265955871462
"425"	2015-03-24	"(not set)"	0	42	"| Other |"	0.478265955871462
"426"	2015-03-24	"Android"	1.27806176783813	2817	"Android"	1.37096593659916
"427"	2015-03-24	"BlackBerry"	0	18	"| Other |"	0.478265955871462
"429"	2015-03-24	"Linux"	0	40	"Linux"	1.22231672484925
"431"	2015-03-24	"Nokia"	0	1	"| Other |"	0.478265955871462
"432"	2015-03-24	"Samsung"	0	3	"| Other |"	0.478265955871462
"433"	2015-03-24	"Series40"	0	10	"| Other |"	0.478265955871462
"435"	2015-03-24	"Windows Phone"	0	57	"| Other |"	0.478265955871462
"437"	2015-03-23	"(not set)"	0	31	"| Other |"	0.478265955871462
"439"	2015-03-23	"BlackBerry"	0	16	"| Other |"	0.478265955871462
"441"	2015-03-23	"LG"	0	1	"| Other |"	0.478265955871462
"442"	2015-03-23	"Linux"	0	67	"Linux"	1.22231672484925
"444"	2015-03-23	"Nintendo Wii"	0	1	"| Other |"	0.478265955871462
"445"	2015-03-23	"Nokia"	0	2	"| Other |"	0.478265955871462
"446"	2015-03-23	"Playstation 3"	0	1	"| Other |"	0.478265955871462
"447"	2015-03-23	"Series40"	0	7	"| Other |"	0.478265955871462
"449"	2015-03-23	"Windows Phone"	0	61	"| Other |"	0.478265955871462
"450"	2015-03-23	"Xbox"	0	2	"| Other |"	0.478265955871462
"452"	2015-03-22	"(not set)"	0	37	"| Other |"	0.478265955871462
"454"	2015-03-22	"BlackBerry"	0	15	"| Other |"	0.478265955871462
"456"	2015-03-22	"Linux"	0	53	"Linux"	1.22231672484925
"458"	2015-03-22	"Nokia"	0	1	"| Other |"	0.478265955871462
"459"	2015-03-22	"Samsung"	0	4	"| Other |"	0.478265955871462
"460"	2015-03-22	"Series40"	0	10	"| Other |"	0.478265955871462
"461"	2015-03-22	"SymbianOS"	0	1	"| Other |"	0.478265955871462
"463"	2015-03-22	"Windows Phone"	0	70	"| Other |"	0.478265955871462
"464"	2015-03-22	"iOS"	1.22304333868379	9345	"iOS"	1.3130883807619
"465"	2015-03-21	"(not set)"	0	45	"| Other |"	0.478265955871462
"467"	2015-03-21	"BlackBerry"	0	34	"| Other |"	0.478265955871462
"469"	2015-03-21	"Google TV"	0	1	"| Other |"	0.478265955871462
"470"	2015-03-21	"Linux"	0	65	"Linux"	1.22231672484925
"472"	2015-03-21	"Samsung"	0	1	"| Other |"	0.478265955871462
"473"	2015-03-21	"Series40"	0	3	"| Other |"	0.478265955871462
"474"	2015-03-21	"SymbianOS"	0	1	"| Other |"	0.478265955871462
"476"	2015-03-21	"Windows Phone"	0	60	"| Other |"	0.478265955871462
"477"	2015-03-21	"Xbox"	0	1	"| Other |"	0.478265955871462
"478"	2015-03-21	"iOS"	0.938470812820255	9953	"iOS"	1.3130883807619
"479"	2015-03-20	"(not set)"	0	62	"| Other |"	0.478265955871462
"481"	2015-03-20	"BlackBerry"	0	14	"| Other |"	0.478265955871462
"482"	2015-03-20	"Chrome OS"	0	103	"| Other |"	0.478265955871462
"483"	2015-03-20	"Linux"	0	51	"Linux"	1.22231672484925
"485"	2015-03-20	"Nokia"	0	2	"| Other |"	0.478265955871462
"486"	2015-03-20	"Samsung"	0	1	"| Other |"	0.478265955871462
"487"	2015-03-20	"Series40"	0	2	"| Other |"	0.478265955871462
"488"	2015-03-20	"SymbianOS"	0	2	"| Other |"	0.478265955871462
"490"	2015-03-20	"Windows Phone"	0	56	"| Other |"	0.478265955871462
"493"	2015-03-19	"(not set)"	0	31	"| Other |"	0.478265955871462
"495"	2015-03-19	"BlackBerry"	0	13	"| Other |"	0.478265955871462
"497"	2015-03-19	"Linux"	0	41	"Linux"	1.22231672484925
"499"	2015-03-19	"Series40"	0	6	"| Other |"	0.478265955871462
"501"	2015-03-19	"Windows Phone"	0.545454545454545	55	"| Other |"	0.478265955871462
"503"	2015-03-18	"(not set)"	0	46	"| Other |"	0.478265955871462
"504"	2015-03-18	"Android"	1.12068351726593	2809	"Android"	1.37096593659916
"505"	2015-03-18	"BlackBerry"	0	17	"| Other |"	0.478265955871462
"507"	2015-03-18	"Linux"	0	39	"Linux"	1.22231672484925
"509"	2015-03-18	"Series40"	0	4	"| Other |"	0.478265955871462
"511"	2015-03-18	"Windows Phone"	0	39	"| Other |"	0.478265955871462
"513"	2015-03-17	"(not set)"	0	32	"| Other |"	0.478265955871462
"515"	2015-03-17	"BlackBerry"	0	14	"| Other |"	0.478265955871462
"516"	2015-03-17	"Chrome OS"	0	160	"| Other |"	0.478265955871462
"517"	2015-03-17	"Linux"	0	39	"Linux"	1.22231672484925
"519"	2015-03-17	"Nokia"	0	1	"| Other |"	0.478265955871462
"520"	2015-03-17	"Samsung"	0	2	"| Other |"	0.478265955871462
"521"	2015-03-17	"Series40"	0	4	"| Other |"	0.478265955871462
"522"	2015-03-17	"SymbianOS"	0	3	"| Other |"	0.478265955871462
"525"	2015-03-17	"iOS"	1.02798298298298	9990	"iOS"	1.3130883807619
"526"	2015-03-16	"(not set)"	0	27	"| Other |"	0.478265955871462
"527"	2015-03-16	"Android"	1.12922374429224	4380	"Android"	1.37096593659916
"528"	2015-03-16	"BlackBerry"	0	31	"| Other |"	0.478265955871462
"529"	2015-03-16	"Chrome OS"	0.478405315614618	301	"| Other |"	0.478265955871462
"530"	2015-03-16	"Google TV"	0	1	"| Other |"	0.478265955871462
"532"	2015-03-16	"Macintosh"	0.973051291651067	13355	"Macintosh"	2.01827822719694
"533"	2015-03-16	"Nokia"	0	4	"| Other |"	0.478265955871462
"534"	2015-03-16	"OpenBSD"	0	1	"| Other |"	0.478265955871462
"535"	2015-03-16	"Samsung"	0	3	"| Other |"	0.478265955871462
"536"	2015-03-16	"Series40"	0	10	"| Other |"	0.478265955871462
"537"	2015-03-16	"SymbianOS"	0	1	"| Other |"	0.478265955871462
"538"	2015-03-16	"Windows"	0.961273947928607	12214	"Windows"	1.68867584031649
"539"	2015-03-16	"Windows Phone"	0	79	"| Other |"	0.478265955871462
"540"	2015-03-16	"iOS"	0.831409982935154	14064	"iOS"	1.3130883807619
"541"	2015-03-15	"(not set)"	0	30	"| Other |"	0.478265955871462
"543"	2015-03-15	"BlackBerry"	0	11	"| Other |"	0.478265955871462
"544"	2015-03-15	"Chrome OS"	0	49	"| Other |"	0.478265955871462
"545"	2015-03-15	"Linux"	0	78	"Linux"	1.22231672484925
"547"	2015-03-15	"Nokia"	0	1	"| Other |"	0.478265955871462
"548"	2015-03-15	"Playstation 3"	0	1	"| Other |"	0.478265955871462
"549"	2015-03-15	"Samsung"	0	3	"| Other |"	0.478265955871462
"550"	2015-03-15	"Series40"	0	6	"| Other |"	0.478265955871462
"552"	2015-03-15	"Windows Phone"	0	42	"| Other |"	0.478265955871462
"553"	2015-03-15	"Xbox"	0	2	"| Other |"	0.478265955871462
"555"	2015-03-14	"(not set)"	0	25	"| Other |"	0.478265955871462
"556"	2015-03-14	"Android"	0.811354420113544	2466	"Android"	1.37096593659916
"557"	2015-03-14	"BlackBerry"	0	11	"| Other |"	0.478265955871462
"558"	2015-03-14	"Chrome OS"	0	75	"| Other |"	0.478265955871462
"561"	2015-03-14	"Nokia"	0	1	"| Other |"	0.478265955871462
"562"	2015-03-14	"Series40"	0	3	"| Other |"	0.478265955871462
"563"	2015-03-14	"SymbianOS"	0	2	"| Other |"	0.478265955871462
"566"	2015-03-14	"Xbox"	0	1	"| Other |"	0.478265955871462
"568"	2015-03-13	"(not set)"	0	25	"| Other |"	0.478265955871462
"570"	2015-03-13	"BlackBerry"	0	12	"| Other |"	0.478265955871462
"571"	2015-03-13	"Chrome OS"	0	63	"| Other |"	0.478265955871462
"574"	2015-03-13	"Samsung"	0	1	"| Other |"	0.478265955871462
"575"	2015-03-13	"Series40"	0	6	"| Other |"	0.478265955871462
"577"	2015-03-13	"Windows Phone"	0	41	"| Other |"	0.478265955871462
"578"	2015-03-13	"Xbox"	0	1	"| Other |"	0.478265955871462
"580"	2015-03-12	"(not set)"	0	29	"| Other |"	0.478265955871462
"582"	2015-03-12	"BlackBerry"	0	15	"| Other |"	0.478265955871462
"583"	2015-03-12	"Chrome OS"	0.314457831325301	83	"| Other |"	0.478265955871462
"586"	2015-03-12	"Series40"	0	6	"| Other |"	0.478265955871462
"587"	2015-03-12	"SymbianOS"	0	1	"| Other |"	0.478265955871462
"591"	2015-03-11	"(not set)"	0	19	"| Other |"	0.478265955871462
"593"	2015-03-11	"BlackBerry"	0	14	"| Other |"	0.478265955871462
"594"	2015-03-11	"Chrome OS"	0	104	"| Other |"	0.478265955871462
"595"	2015-03-11	"Linux"	0	40	"Linux"	1.22231672484925
"597"	2015-03-11	"Nokia"	0	1	"| Other |"	0.478265955871462
"598"	2015-03-11	"Samsung"	0	1	"| Other |"	0.478265955871462
"599"	2015-03-11	"Series40"	0	6	"| Other |"	0.478265955871462
"600"	2015-03-11	"SymbianOS"	0	1	"| Other |"	0.478265955871462
"602"	2015-03-11	"Windows Phone"	0	48	"| Other |"	0.478265955871462
"604"	2015-03-10	"(not set)"	0	25	"| Other |"	0.478265955871462
"606"	2015-03-10	"BlackBerry"	0	7	"| Other |"	0.478265955871462
"608"	2015-03-10	"Linux"	0	33	"Linux"	1.22231672484925
"610"	2015-03-10	"Nokia"	0	3	"| Other |"	0.478265955871462
"611"	2015-03-10	"Samsung"	0	3	"| Other |"	0.478265955871462
"612"	2015-03-10	"Series40"	0	11	"| Other |"	0.478265955871462
"613"	2015-03-10	"SymbianOS"	0	3	"| Other |"	0.478265955871462
"617"	2015-03-09	"(not set)"	0	19	"| Other |"	0.478265955871462
"618"	2015-03-09	"Android"	1.25965727563172	3443	"Android"	1.37096593659916
"619"	2015-03-09	"BlackBerry"	0	6	"| Other |"	0.478265955871462
"621"	2015-03-09	"Linux"	0	25	"Linux"	1.22231672484925
"623"	2015-03-09	"Series40"	0	6	"| Other |"	0.478265955871462
"625"	2015-03-09	"Windows Phone"	0.257627118644068	59	"| Other |"	0.478265955871462
"627"	2015-03-08	"(not set)"	0	25	"| Other |"	0.478265955871462
"628"	2015-03-08	"Android"	1.04355635383925	2227	"Android"	1.37096593659916
"629"	2015-03-08	"BlackBerry"	0	2	"| Other |"	0.478265955871462
"630"	2015-03-08	"Chrome OS"	0	41	"| Other |"	0.478265955871462
"631"	2015-03-08	"Linux"	0	30	"Linux"	1.22231672484925
"633"	2015-03-08	"Samsung"	0	3	"| Other |"	0.478265955871462
"634"	2015-03-08	"Series40"	0	2	"| Other |"	0.478265955871462
"635"	2015-03-08	"SymbianOS"	0	1	"| Other |"	0.478265955871462
"637"	2015-03-08	"Windows Phone"	0	39	"| Other |"	0.478265955871462
"638"	2015-03-08	"iOS"	1.23820808310339	6161	"iOS"	1.3130883807619
"639"	2015-03-07	"(not set)"	0	16	"| Other |"	0.478265955871462
"640"	2015-03-07	"Android"	1.14600563909774	2128	"Android"	1.37096593659916
"641"	2015-03-07	"BlackBerry"	0	6	"| Other |"	0.478265955871462
"642"	2015-03-07	"Chrome OS"	0	60	"| Other |"	0.478265955871462
"643"	2015-03-07	"Linux"	0	33	"Linux"	1.22231672484925
"645"	2015-03-07	"Nokia"	0	2	"| Other |"	0.478265955871462
"646"	2015-03-07	"Samsung"	0	2	"| Other |"	0.478265955871462
"647"	2015-03-07	"Series40"	0	4	"| Other |"	0.478265955871462
"650"	2015-03-07	"Xbox"	0	1	"| Other |"	0.478265955871462
"651"	2015-03-07	"iOS"	1.03922171018945	5859	"iOS"	1.3130883807619
"652"	2015-03-06	"(not set)"	0	24	"| Other |"	0.478265955871462
"654"	2015-03-06	"BlackBerry"	0	8	"| Other |"	0.478265955871462
"655"	2015-03-06	"Chrome OS"	0	51	"| Other |"	0.478265955871462
"658"	2015-03-06	"Nintendo Wii"	0	1	"| Other |"	0.478265955871462
"659"	2015-03-06	"Series40"	0	3	"| Other |"	0.478265955871462
"660"	2015-03-06	"SymbianOS"	0	1	"| Other |"	0.478265955871462
"662"	2015-03-06	"Windows Phone"	0	35	"| Other |"	0.478265955871462
"664"	2015-03-05	"(not set)"	0	20	"| Other |"	0.478265955871462
"666"	2015-03-05	"BlackBerry"	0	3	"| Other |"	0.478265955871462
"667"	2015-03-05	"Chrome OS"	0	56	"| Other |"	0.478265955871462
"668"	2015-03-05	"Linux"	0	31	"Linux"	1.22231672484925
"670"	2015-03-05	"Series40"	0	8	"| Other |"	0.478265955871462
"671"	2015-03-05	"SymbianOS"	0	1	"| Other |"	0.478265955871462
"675"	2015-03-04	"(not set)"	0	29	"| Other |"	0.478265955871462
"677"	2015-03-04	"BlackBerry"	0	7	"| Other |"	0.478265955871462
"678"	2015-03-04	"Chrome OS"	0	56	"| Other |"	0.478265955871462
"679"	2015-03-04	"Linux"	0	31	"Linux"	1.22231672484925
"681"	2015-03-04	"Series40"	0	1	"| Other |"	0.478265955871462
"685"	2015-03-03	"(not set)"	0	17	"| Other |"	0.478265955871462
"687"	2015-03-03	"BlackBerry"	0	6	"| Other |"	0.478265955871462
"688"	2015-03-03	"Chrome OS"	0	61	"| Other |"	0.478265955871462
"689"	2015-03-03	"Linux"	0	39	"Linux"	1.22231672484925
"691"	2015-03-03	"OpenBSD"	0	1	"| Other |"	0.478265955871462
"692"	2015-03-03	"Series40"	0	6	"| Other |"	0.478265955871462
"696"	2015-03-02	"(not set)"	0	23	"| Other |"	0.478265955871462
"698"	2015-03-02	"BlackBerry"	0	7	"| Other |"	0.478265955871462
"699"	2015-03-02	"Chrome OS"	0	49	"| Other |"	0.478265955871462
"700"	2015-03-02	"Linux"	0	43	"Linux"	1.22231672484925
"702"	2015-03-02	"Nokia"	0	1	"| Other |"	0.478265955871462
"703"	2015-03-02	"OpenBSD"	0	1	"| Other |"	0.478265955871462
"704"	2015-03-02	"Series40"	0	6	"| Other |"	0.478265955871462
"706"	2015-03-02	"Windows Phone"	0	53	"| Other |"	0.478265955871462
"707"	2015-03-02	"Xbox"	0	1	"| Other |"	0.478265955871462
"709"	2015-03-01	"(not set)"	0	23	"| Other |"	0.478265955871462
"710"	2015-03-01	"Android"	1.17288075976082	2843	"Android"	1.37096593659916
"711"	2015-03-01	"BlackBerry"	0	11	"| Other |"	0.478265955871462
"712"	2015-03-01	"Chrome OS"	0	50	"| Other |"	0.478265955871462
"713"	2015-03-01	"Linux"	0	28	"Linux"	1.22231672484925
"715"	2015-03-01	"Nintendo Wii"	0	1	"| Other |"	0.478265955871462
"716"	2015-03-01	"Nokia"	0	1	"| Other |"	0.478265955871462
"717"	2015-03-01	"Samsung"	0	1	"| Other |"	0.478265955871462
"718"	2015-03-01	"Series40"	0	3	"| Other |"	0.478265955871462
"719"	2015-03-01	"SymbianOS"	0	1	"| Other |"	0.478265955871462
"721"	2015-03-01	"Windows Phone"	0	50	"| Other |"	0.478265955871462
"722"	2015-03-01	"Xbox"	0	1	"| Other |"	0.478265955871462
"724"	2015-02-28	"(not set)"	0	19	"| Other |"	0.478265955871462
"726"	2015-02-28	"BlackBerry"	0	4	"| Other |"	0.478265955871462
"728"	2015-02-28	"Linux"	0	27	"Linux"	1.22231672484925
"730"	2015-02-28	"Nokia"	0	1	"| Other |"	0.478265955871462
"731"	2015-02-28	"Samsung"	0	3	"| Other |"	0.478265955871462
"732"	2015-02-28	"Series40"	0	4	"| Other |"	0.478265955871462
"735"	2015-02-28	"Xbox"	0	1	"| Other |"	0.478265955871462
"736"	2015-02-28	"iOS"	1.13948772678762	6559	"iOS"	1.3130883807619
"737"	2015-02-27	"(not set)"	0	20	"| Other |"	0.478265955871462
"739"	2015-02-27	"BlackBerry"	0	3	"| Other |"	0.478265955871462
"740"	2015-02-27	"Chrome OS"	0.876923076923077	65	"| Other |"	0.478265955871462
"741"	2015-02-27	"Linux"	0	57	"Linux"	1.22231672484925
"743"	2015-02-27	"Series40"	0	4	"| Other |"	0.478265955871462
"744"	2015-02-27	"SymbianOS"	0	2	"| Other |"	0.478265955871462
"748"	2015-02-26	"(not set)"	0	18	"| Other |"	0.478265955871462
"749"	2015-02-26	"Android"	0.972377622377622	2860	"Android"	1.37096593659916
"750"	2015-02-26	"BlackBerry"	0	11	"| Other |"	0.478265955871462
"751"	2015-02-26	"Chrome OS"	0.692307692307692	65	"| Other |"	0.478265955871462
"754"	2015-02-26	"Nintendo Wii"	0	1	"| Other |"	0.478265955871462
"755"	2015-02-26	"Nokia"	0	1	"| Other |"	0.478265955871462
"756"	2015-02-26	"Samsung"	0	2	"| Other |"	0.478265955871462
"757"	2015-02-26	"Series40"	0	6	"| Other |"	0.478265955871462
"759"	2015-02-26	"Windows Phone"	0	49	"| Other |"	0.478265955871462
"761"	2015-02-25	"(not set)"	0	17	"| Other |"	0.478265955871462
"762"	2015-02-25	"Android"	1.21647521160822	3308	"Android"	1.37096593659916
"763"	2015-02-25	"Bada"	0	1	"| Other |"	0.478265955871462
"764"	2015-02-25	"BlackBerry"	0	8	"| Other |"	0.478265955871462
"765"	2015-02-25	"Chrome OS"	1.13793103448276	87	"| Other |"	0.478265955871462
"768"	2015-02-25	"Samsung"	0	1	"| Other |"	0.478265955871462
"769"	2015-02-25	"Series40"	0	2	"| Other |"	0.478265955871462
"772"	2015-02-25	"iOS"	1.18239306984299	9235	"iOS"	1.3130883807619
"773"	2015-02-24	"(not set)"	0	23	"| Other |"	0.478265955871462
"775"	2015-02-24	"BlackBerry"	0	7	"| Other |"	0.478265955871462
"777"	2015-02-24	"Linux"	0	33	"Linux"	1.22231672484925
"779"	2015-02-24	"Nokia"	0	2	"| Other |"	0.478265955871462
"780"	2015-02-24	"Series40"	0	6	"| Other |"	0.478265955871462
"781"	2015-02-24	"SymbianOS"	0	1	"| Other |"	0.478265955871462
"784"	2015-02-24	"iOS"	1.18144579811039	8044	"iOS"	1.3130883807619
"785"	2015-02-23	"(not set)"	0	22	"| Other |"	0.478265955871462
"787"	2015-02-23	"BlackBerry"	0	7	"| Other |"	0.478265955871462
"789"	2015-02-23	"Linux"	0	40	"Linux"	1.22231672484925
"791"	2015-02-23	"Nintendo Wii"	0	1	"| Other |"	0.478265955871462
"792"	2015-02-23	"Nokia"	0	1	"| Other |"	0.478265955871462
"793"	2015-02-23	"OpenBSD"	0	1	"| Other |"	0.478265955871462
"794"	2015-02-23	"Samsung"	0	3	"| Other |"	0.478265955871462
"795"	2015-02-23	"Series40"	0	5	"| Other |"	0.478265955871462
"799"	2015-02-22	"(not set)"	0	13	"| Other |"	0.478265955871462
"801"	2015-02-22	"BlackBerry"	0	12	"| Other |"	0.478265955871462
"802"	2015-02-22	"Chrome OS"	0	40	"| Other |"	0.478265955871462
"803"	2015-02-22	"Linux"	0	20	"Linux"	1.22231672484925
"805"	2015-02-22	"Nintendo Wii"	0	1	"| Other |"	0.478265955871462
"806"	2015-02-22	"Nokia"	0	1	"| Other |"	0.478265955871462
"807"	2015-02-22	"Series40"	0	2	"| Other |"	0.478265955871462
"809"	2015-02-22	"Windows Phone"	0	47	"| Other |"	0.478265955871462
"810"	2015-02-22	"Xbox"	0	1	"| Other |"	0.478265955871462
"811"	2015-02-22	"iOS"	1.04575615150677	7234	"iOS"	1.3130883807619
"812"	2015-02-21	"(not set)"	0	28	"| Other |"	0.478265955871462
"813"	2015-02-21	"Android"	1.18666077738516	2264	"Android"	1.37096593659916
"814"	2015-02-21	"BlackBerry"	0	8	"| Other |"	0.478265955871462
"818"	2015-02-21	"Nokia"	0	2	"| Other |"	0.478265955871462
"819"	2015-02-21	"Samsung"	0	1	"| Other |"	0.478265955871462
"820"	2015-02-21	"Series40"	0	8	"| Other |"	0.478265955871462
"821"	2015-02-21	"SymbianOS"	0	2	"| Other |"	0.478265955871462
"822"	2015-02-21	"Windows"	0.918230088495575	3390	"Windows"	1.68867584031649
"823"	2015-02-21	"Windows Phone"	0	39	"| Other |"	0.478265955871462
"824"	2015-02-21	"iOS"	1.10899859396969	6401	"iOS"	1.3130883807619
"825"	2015-02-20	"(not set)"	0	23	"| Other |"	0.478265955871462
"826"	2015-02-20	"Android"	1.15747814081914	2173	"Android"	1.37096593659916
"827"	2015-02-20	"BlackBerry"	0	3	"| Other |"	0.478265955871462
"828"	2015-02-20	"Chrome OS"	0.0967741935483871	31	"| Other |"	0.478265955871462
"831"	2015-02-20	"Nokia"	0	1	"| Other |"	0.478265955871462
"832"	2015-02-20	"Samsung"	0	1	"| Other |"	0.478265955871462
"833"	2015-02-20	"Series40"	0	3	"| Other |"	0.478265955871462
"834"	2015-02-20	"Windows"	1.2256893250359	4178	"Windows"	1.68867584031649
"836"	2015-02-20	"Xbox"	0	1	"| Other |"	0.478265955871462
"838"	2015-02-19	"(not set)"	0	29	"| Other |"	0.478265955871462
"840"	2015-02-19	"Bada"	0	1	"| Other |"	0.478265955871462
"841"	2015-02-19	"BlackBerry"	0	10	"| Other |"	0.478265955871462
"843"	2015-02-19	"Linux"	0.348837209302326	43	"Linux"	1.22231672484925
"845"	2015-02-19	"OpenBSD"	0	1	"| Other |"	0.478265955871462
"846"	2015-02-19	"Samsung"	0	3	"| Other |"	0.478265955871462
"847"	2015-02-19	"Series40"	0	2	"| Other |"	0.478265955871462
"848"	2015-02-19	"SymbianOS"	0	2	"| Other |"	0.478265955871462
"850"	2015-02-19	"Windows Phone"	0	51	"| Other |"	0.478265955871462
"851"	2015-02-19	"iOS"	1.24610180623974	6090	"iOS"	1.3130883807619
"852"	2015-02-18	"(not set)"	0	15	"| Other |"	0.478265955871462
"854"	2015-02-18	"BlackBerry"	0	3	"| Other |"	0.478265955871462
"855"	2015-02-18	"Chrome OS"	0	27	"| Other |"	0.478265955871462
"856"	2015-02-18	"Linux"	0	36	"Linux"	1.22231672484925
"858"	2015-02-18	"Nintendo Wii"	0	1	"| Other |"	0.478265955871462
"859"	2015-02-18	"Samsung"	0	1	"| Other |"	0.478265955871462
"860"	2015-02-18	"Series40"	0	5	"| Other |"	0.478265955871462
"862"	2015-02-18	"Windows Phone"	1.11363636363636	44	"| Other |"	0.478265955871462
"863"	2015-02-18	"iOS"	1.11718821553961	6551	"iOS"	1.3130883807619
"864"	2015-02-17	"(not set)"	0	24	"| Other |"	0.478265955871462
"865"	2015-02-17	"Android"	1.21912408759124	2740	"Android"	1.37096593659916
"866"	2015-02-17	"Bada"	0	1	"| Other |"	0.478265955871462
"867"	2015-02-17	"BlackBerry"	0	10	"| Other |"	0.478265955871462
"868"	2015-02-17	"Chrome OS"	0.419354838709677	31	"| Other |"	0.478265955871462
"871"	2015-02-17	"Nintendo Wii"	0	1	"| Other |"	0.478265955871462
"872"	2015-02-17	"Samsung"	0	1	"| Other |"	0.478265955871462
"873"	2015-02-17	"Series40"	0	13	"| Other |"	0.478265955871462
"874"	2015-02-17	"SymbianOS"	0	1	"| Other |"	0.478265955871462
"877"	2015-02-17	"iOS"	0.882737368806444	8194	"iOS"	1.3130883807619
"878"	2015-02-16	"(not set)"	0	23	"| Other |"	0.478265955871462
"879"	2015-02-16	"Android"	1.02008403361345	3451	"Android"	1.37096593659916
"880"	2015-02-16	"BlackBerry"	0	7	"| Other |"	0.478265955871462
"884"	2015-02-16	"Nintendo Wii"	0	1	"| Other |"	0.478265955871462
"885"	2015-02-16	"Nokia"	0	2	"| Other |"	0.478265955871462
"886"	2015-02-16	"Samsung"	0	1	"| Other |"	0.478265955871462
"887"	2015-02-16	"Series40"	0	4	"| Other |"	0.478265955871462
"888"	2015-02-16	"SymbianOS"	0	1	"| Other |"	0.478265955871462
"890"	2015-02-16	"Windows Phone"	0	45	"| Other |"	0.478265955871462
"891"	2015-02-16	"iOS"	1.06276112624886	9909	"iOS"	1.3130883807619
"892"	2015-02-15	"(not set)"	0	21	"| Other |"	0.478265955871462
"893"	2015-02-15	"Android"	1.04953972042278	2933	"Android"	1.37096593659916
"894"	2015-02-15	"BlackBerry"	0	8	"| Other |"	0.478265955871462
"895"	2015-02-15	"Chrome OS"	0	37	"| Other |"	0.478265955871462
"896"	2015-02-15	"Linux"	0	27	"Linux"	1.22231672484925
"898"	2015-02-15	"Series40"	0	2	"| Other |"	0.478265955871462
"899"	2015-02-15	"SymbianOS"	0	2	"| Other |"	0.478265955871462
"901"	2015-02-15	"Windows Phone"	0	38	"| Other |"	0.478265955871462
"902"	2015-02-15	"Xbox"	0	1	"| Other |"	0.478265955871462
"903"	2015-02-15	"iOS"	0.974958936253422	7671	"iOS"	1.3130883807619
"904"	2015-02-14	"(not set)"	0	20	"| Other |"	0.478265955871462
"905"	2015-02-14	"Android"	1.21118303571429	2688	"Android"	1.37096593659916
"906"	2015-02-14	"Bada"	0	1	"| Other |"	0.478265955871462
"907"	2015-02-14	"BlackBerry"	0	5	"| Other |"	0.478265955871462
"908"	2015-02-14	"Chrome OS"	0	41	"| Other |"	0.478265955871462
"911"	2015-02-14	"Samsung"	0	1	"| Other |"	0.478265955871462
"912"	2015-02-14	"Series40"	0	6	"| Other |"	0.478265955871462
"915"	2015-02-14	"iOS"	1.06720294575839	7061	"iOS"	1.3130883807619
"916"	2015-02-13	"(not set)"	0	26	"| Other |"	0.478265955871462
"917"	2015-02-13	"Android"	1.07502935420744	2555	"Android"	1.37096593659916
"918"	2015-02-13	"BlackBerry"	0	6	"| Other |"	0.478265955871462
"919"	2015-02-13	"Chrome OS"	0	28	"| Other |"	0.478265955871462
"922"	2015-02-13	"Nokia"	0	1	"| Other |"	0.478265955871462
"923"	2015-02-13	"Samsung"	0	2	"| Other |"	0.478265955871462
"924"	2015-02-13	"Series40"	0	3	"| Other |"	0.478265955871462
"925"	2015-02-13	"SymbianOS"	0	1	"| Other |"	0.478265955871462
"927"	2015-02-13	"Windows Phone"	0	39	"| Other |"	0.478265955871462
"928"	2015-02-13	"iOS"	1.26876227897839	6617	"iOS"	1.3130883807619
"929"	2015-02-12	"(not set)"	0	25	"| Other |"	0.478265955871462
"930"	2015-02-12	"Android"	1.23521031207598	2948	"Android"	1.37096593659916
"931"	2015-02-12	"Bada"	0	1	"| Other |"	0.478265955871462
"932"	2015-02-12	"BlackBerry"	0	4	"| Other |"	0.478265955871462
"934"	2015-02-12	"Linux"	0	31	"Linux"	1.22231672484925
"936"	2015-02-12	"Nintendo Wii"	0	1	"| Other |"	0.478265955871462
"937"	2015-02-12	"Series40"	0	6	"| Other |"	0.478265955871462
"939"	2015-02-12	"Windows Phone"	0.967741935483871	31	"| Other |"	0.478265955871462
"940"	2015-02-12	"iOS"	1.19935245143386	7567	"iOS"	1.3130883807619
"941"	2015-02-11	"(not set)"	0	22	"| Other |"	0.478265955871462
"943"	2015-02-11	"BlackBerry"	0	7	"| Other |"	0.478265955871462
"945"	2015-02-11	"Linux"	0	36	"Linux"	1.22231672484925
"947"	2015-02-11	"Samsung"	0	1	"| Other |"	0.478265955871462
"948"	2015-02-11	"Series40"	0	1	"| Other |"	0.478265955871462
"950"	2015-02-11	"Windows Phone"	0	30	"| Other |"	0.478265955871462
"951"	2015-02-11	"iOS"	1.16885122410546	7965	"iOS"	1.3130883807619
"952"	2015-02-10	"(not set)"	0	20	"| Other |"	0.478265955871462
"953"	2015-02-10	"Android"	0.738595339678372	3047	"Android"	1.37096593659916
"954"	2015-02-10	"Bada"	0	1	"| Other |"	0.478265955871462
"955"	2015-02-10	"BlackBerry"	0	7	"| Other |"	0.478265955871462
"956"	2015-02-10	"Chrome OS"	0	45	"| Other |"	0.478265955871462
"957"	2015-02-10	"Linux"	0	31	"Linux"	1.22231672484925
"960"	2015-02-10	"Nokia"	0	1	"| Other |"	0.478265955871462
"961"	2015-02-10	"Series40"	0	6	"| Other |"	0.478265955871462
"962"	2015-02-10	"SymbianOS"	0	1	"| Other |"	0.478265955871462
"964"	2015-02-10	"Windows Phone"	0	29	"| Other |"	0.478265955871462
"966"	2015-02-09	"(not set)"	0	21	"| Other |"	0.478265955871462
"967"	2015-02-09	"Android"	1.26153846153846	2938	"Android"	1.37096593659916
"968"	2015-02-09	"Bada"	0	1	"| Other |"	0.478265955871462
"969"	2015-02-09	"BlackBerry"	0	5	"| Other |"	0.478265955871462
"970"	2015-02-09	"Chrome OS"	0	41	"| Other |"	0.478265955871462
"971"	2015-02-09	"Linux"	0	17	"Linux"	1.22231672484925
"973"	2015-02-09	"Samsung"	0	1	"| Other |"	0.478265955871462
"974"	2015-02-09	"Series40"	0	10	"| Other |"	0.478265955871462
"976"	2015-02-09	"Windows Phone"	0	45	"| Other |"	0.478265955871462
"977"	2015-02-09	"Xbox"	0	1	"| Other |"	0.478265955871462
"979"	2015-02-08	"(not set)"	0	23	"| Other |"	0.478265955871462
"981"	2015-02-08	"BlackBerry"	0	3	"| Other |"	0.478265955871462
"982"	2015-02-08	"Chrome OS"	0	45	"| Other |"	0.478265955871462
"983"	2015-02-08	"Linux"	0	21	"Linux"	1.22231672484925
"985"	2015-02-08	"Samsung"	0	1	"| Other |"	0.478265955871462
"986"	2015-02-08	"Series40"	0	6	"| Other |"	0.478265955871462
"987"	2015-02-08	"SymbianOS"	0	2	"| Other |"	0.478265955871462
"989"	2015-02-08	"Windows Phone"	0	32	"| Other |"	0.478265955871462
"990"	2015-02-08	"iOS"	1.11201178719337	6278	"iOS"	1.3130883807619
"991"	2015-02-07	"(not set)"	0	27	"| Other |"	0.478265955871462
"992"	2015-02-07	"Android"	1.10363372093023	2064	"Android"	1.37096593659916
"993"	2015-02-07	"BlackBerry"	0	4	"| Other |"	0.478265955871462
"994"	2015-02-07	"Chrome OS"	0	37	"| Other |"	0.478265955871462
"995"	2015-02-07	"Linux"	0	29	"Linux"	1.22231672484925
"997"	2015-02-07	"Samsung"	0	3	"| Other |"	0.478265955871462
"998"	2015-02-07	"Series40"	0	3	"| Other |"	0.478265955871462
"1000"	2015-02-07	"Windows Phone"	0	33	"| Other |"	0.478265955871462
"1002"	2015-02-06	"(not set)"	0	21	"| Other |"	0.478265955871462
"1003"	2015-02-06	"Android"	1.21416058394161	2055	"Android"	1.37096593659916
"1004"	2015-02-06	"Bada"	0	1	"| Other |"	0.478265955871462
"1005"	2015-02-06	"BlackBerry"	0	8	"| Other |"	0.478265955871462
"1006"	2015-02-06	"Chrome OS"	0	26	"| Other |"	0.478265955871462
"1009"	2015-02-06	"Nokia"	0	1	"| Other |"	0.478265955871462
"1010"	2015-02-06	"Series40"	0	1	"| Other |"	0.478265955871462
"1012"	2015-02-06	"Windows Phone"	0	26	"| Other |"	0.478265955871462
"1013"	2015-02-06	"iOS"	1.02940036900369	5420	"iOS"	1.3130883807619
"1014"	2015-02-05	"(not set)"	0	21	"| Other |"	0.478265955871462
"1016"	2015-02-05	"Bada"	0	1	"| Other |"	0.478265955871462
"1017"	2015-02-05	"BlackBerry"	0	2	"| Other |"	0.478265955871462
"1018"	2015-02-05	"Chrome OS"	0	34	"| Other |"	0.478265955871462
"1019"	2015-02-05	"Linux"	0	17	"Linux"	1.22231672484925
"1021"	2015-02-05	"Nokia"	0	2	"| Other |"	0.478265955871462
"1022"	2015-02-05	"Series40"	0	7	"| Other |"	0.478265955871462
"1024"	2015-02-05	"Windows Phone"	0	37	"| Other |"	0.478265955871462
"1026"	2015-02-04	"(not set)"	0	17	"| Other |"	0.478265955871462
"1028"	2015-02-04	"BlackBerry"	0	1	"| Other |"	0.478265955871462
"1029"	2015-02-04	"Chrome OS"	1.2258064516129	31	"| Other |"	0.478265955871462
"1032"	2015-02-04	"Nokia"	0	1	"| Other |"	0.478265955871462
"1033"	2015-02-04	"Samsung"	0	1	"| Other |"	0.478265955871462
"1034"	2015-02-04	"Series40"	0	1	"| Other |"	0.478265955871462
"1035"	2015-02-04	"SymbianOS"	0	1	"| Other |"	0.478265955871462
"1037"	2015-02-04	"Windows Phone"	0	28	"| Other |"	0.478265955871462
"1039"	2015-02-03	"(not set)"	0	21	"| Other |"	0.478265955871462
"1041"	2015-02-03	"BlackBerry"	0	7	"| Other |"	0.478265955871462
"1042"	2015-02-03	"Chrome OS"	0.0606060606060606	33	"| Other |"	0.478265955871462
"1043"	2015-02-03	"Linux"	0	64	"Linux"	1.22231672484925
"1045"	2015-02-03	"Nokia"	0	2	"| Other |"	0.478265955871462
"1046"	2015-02-03	"OpenBSD"	0	1	"| Other |"	0.478265955871462
"1047"	2015-02-03	"Samsung"	0	1	"| Other |"	0.478265955871462
"1048"	2015-02-03	"Series40"	0	13	"| Other |"	0.478265955871462
"1049"	2015-02-03	"SymbianOS"	0	4	"| Other |"	0.478265955871462
"1051"	2015-02-03	"Windows Phone"	0	27	"| Other |"	0.478265955871462
"1052"	2015-02-03	"Xbox"	0	1	"| Other |"	0.478265955871462
"1054"	2015-02-02	"(not set)"	0	9	"| Other |"	0.478265955871462
"1056"	2015-02-02	"Bada"	0	1	"| Other |"	0.478265955871462
"1057"	2015-02-02	"BlackBerry"	0	3	"| Other |"	0.478265955871462
"1058"	2015-02-02	"Chrome OS"	0	24	"| Other |"	0.478265955871462
"1059"	2015-02-02	"Linux"	0	16	"Linux"	1.22231672484925
"1061"	2015-02-02	"OpenBSD"	0	1	"| Other |"	0.478265955871462
"1062"	2015-02-02	"Samsung"	0	1	"| Other |"	0.478265955871462
"1063"	2015-02-02	"Series40"	0	1	"| Other |"	0.478265955871462
"1064"	2015-02-02	"SymbianOS"	0	3	"| Other |"	0.478265955871462
"1066"	2015-02-02	"Windows Phone"	0	26	"| Other |"	0.478265955871462
"1067"	2015-02-02	"iOS"	1.20769374068554	5368	"iOS"	1.3130883807619
"1068"	2015-02-01	"(not set)"	0	17	"| Other |"	0.478265955871462
"1070"	2015-02-01	"Bada"	0	1	"| Other |"	0.478265955871462
"1071"	2015-02-01	"BlackBerry"	0	3	"| Other |"	0.478265955871462
"1073"	2015-02-01	"Linux"	0	15	"Linux"	1.22231672484925
"1075"	2015-02-01	"Nintendo Wii"	0	1	"| Other |"	0.478265955871462
"1076"	2015-02-01	"Nokia"	0	2	"| Other |"	0.478265955871462
"1077"	2015-02-01	"Samsung"	0	1	"| Other |"	0.478265955871462
"1078"	2015-02-01	"Series40"	0	5	"| Other |"	0.478265955871462
"1080"	2015-02-01	"Windows Phone"	0	29	"| Other |"	0.478265955871462
"1081"	2015-02-01	"Xbox"	0	1	"| Other |"	0.478265955871462
"1082"	2015-02-01	"iOS"	1.26858532630726	4934	"iOS"	1.3130883807619
"1083"	2015-01-31	"(not set)"	0	14	"| Other |"	0.478265955871462
"1084"	2015-01-31	"Android"	0.966774193548387	1550	"Android"	1.37096593659916
"1085"	2015-01-31	"Bada"	0	1	"| Other |"	0.478265955871462
"1086"	2015-01-31	"BlackBerry"	0	4	"| Other |"	0.478265955871462
"1087"	2015-01-31	"Chrome OS"	0	24	"| Other |"	0.478265955871462
"1088"	2015-01-31	"Linux"	0	12	"Linux"	1.22231672484925
"1090"	2015-01-31	"Nokia"	0	3	"| Other |"	0.478265955871462
"1091"	2015-01-31	"Series40"	0	4	"| Other |"	0.478265955871462
"1092"	2015-01-31	"SymbianOS"	0	1	"| Other |"	0.478265955871462
"1094"	2015-01-31	"Windows Phone"	0	30	"| Other |"	0.478265955871462
"1095"	2015-01-31	"iOS"	1.06616150681966	4619	"iOS"	1.3130883807619
"1096"	2015-01-30	"(not set)"	0	20	"| Other |"	0.478265955871462
"1098"	2015-01-30	"BlackBerry"	0	3	"| Other |"	0.478265955871462
"1099"	2015-01-30	"Chrome OS"	0	29	"| Other |"	0.478265955871462
"1100"	2015-01-30	"Linux"	0	18	"Linux"	1.22231672484925
"1102"	2015-01-30	"Nokia"	0	2	"| Other |"	0.478265955871462
"1103"	2015-01-30	"Playstation 3"	0	1	"| Other |"	0.478265955871462
"1104"	2015-01-30	"Playstation Vita"	0	1	"| Other |"	0.478265955871462
"1105"	2015-01-30	"Samsung"	0	1	"| Other |"	0.478265955871462
"1106"	2015-01-30	"Series40"	0	4	"| Other |"	0.478265955871462
"1107"	2015-01-30	"SymbianOS"	0	2	"| Other |"	0.478265955871462
"1109"	2015-01-30	"Windows Phone"	1.27777777777778	36	"| Other |"	0.478265955871462
"1110"	2015-01-30	"iOS"	0.976815333579064	5426	"iOS"	1.3130883807619
"1111"	2015-01-29	"(not set)"	0	19	"| Other |"	0.478265955871462
"1113"	2015-01-29	"BlackBerry"	0	6	"| Other |"	0.478265955871462
"1114"	2015-01-29	"Chrome OS"	0	25	"| Other |"	0.478265955871462
"1115"	2015-01-29	"Linux"	0	14	"Linux"	1.22231672484925
"1117"	2015-01-29	"Nokia"	0	3	"| Other |"	0.478265955871462
"1118"	2015-01-29	"Samsung"	0	2	"| Other |"	0.478265955871462
"1119"	2015-01-29	"Series40"	0	4	"| Other |"	0.478265955871462
"1121"	2015-01-29	"Windows Phone"	0	22	"| Other |"	0.478265955871462
"1123"	2015-01-28	"(not set)"	0	13	"| Other |"	0.478265955871462
"1125"	2015-01-28	"Bada"	0	1	"| Other |"	0.478265955871462
"1126"	2015-01-28	"BlackBerry"	0	4	"| Other |"	0.478265955871462
"1128"	2015-01-28	"Linux"	0	68	"Linux"	1.22231672484925
"1130"	2015-01-28	"Playstation 3"	0	1	"| Other |"	0.478265955871462
"1131"	2015-01-28	"Samsung"	0	2	"| Other |"	0.478265955871462
"1132"	2015-01-28	"Series40"	0	6	"| Other |"	0.478265955871462
"1134"	2015-01-28	"Windows Phone"	0	33	"| Other |"	0.478265955871462
"1135"	2015-01-28	"Xbox"	0	1	"| Other |"	0.478265955871462
"1137"	2015-01-27	"(not set)"	0	20	"| Other |"	0.478265955871462
"1139"	2015-01-27	"BlackBerry"	0	5	"| Other |"	0.478265955871462
"1140"	2015-01-27	"Chrome OS"	0	29	"| Other |"	0.478265955871462
"1141"	2015-01-27	"Linux"	0	21	"Linux"	1.22231672484925
"1143"	2015-01-27	"OpenBSD"	0	1	"| Other |"	0.478265955871462
"1144"	2015-01-27	"Series40"	0	5	"| Other |"	0.478265955871462
"1146"	2015-01-27	"Windows Phone"	0	29	"| Other |"	0.478265955871462
"1147"	2015-01-27	"Xbox"	0	1	"| Other |"	0.478265955871462
"140"	2015-04-16	"Macintosh"	1.60897133220911	2965	"Macintosh"	2.01827822719694
"161"	2015-04-14	"Android"	1.47846153846154	2275	"Android"	1.37096593659916
"191"	2015-04-12	"Linux"	2	31	"Linux"	1.22231672484925
"228"	2015-04-09	"Linux"	5.22857142857143	21	"Linux"	1.22231672484925
"229"	2015-04-09	"Macintosh"	2.07487787857641	2866	"Macintosh"	2.01827822719694
"234"	2015-04-09	"Windows"	2.20568878166466	4145	"Windows"	1.68867584031649
"238"	2015-04-08	"Android"	2.40213946117274	2524	"Android"	1.37096593659916
"242"	2015-04-08	"Macintosh"	3.29873417721519	3397	"Macintosh"	2.01827822719694
"245"	2015-04-08	"Windows"	2.70067695473251	4860	"Windows"	1.68867584031649
"247"	2015-04-08	"iOS"	2.648125	6880	"iOS"	1.3130883807619
"249"	2015-04-07	"Android"	2.55177210365854	2624	"Android"	1.37096593659916
"253"	2015-04-07	"Macintosh"	2.51715634837356	3812	"Macintosh"	2.01827822719694
"256"	2015-04-07	"Windows"	2.69264503441495	5085	"Windows"	1.68867584031649
"258"	2015-04-07	"iOS"	2.68215880547028	7166	"iOS"	1.3130883807619
"260"	2015-04-06	"Android"	2.53911832946636	2155	"Android"	1.37096593659916
"265"	2015-04-06	"Macintosh"	3.78814608480347	3231	"Macintosh"	2.01827822719694
"268"	2015-04-06	"Windows"	2.7767296471242	3599	"Windows"	1.68867584031649
"270"	2015-04-06	"iOS"	1.88083449235049	5752	"iOS"	1.3130883807619
"277"	2015-04-05	"Macintosh"	2.32974947807933	2874	"Macintosh"	2.01827822719694
"281"	2015-04-05	"Windows"	2.04584594685503	2973	"Windows"	1.68867584031649
"283"	2015-04-05	"iOS"	1.64397813780988	5123	"iOS"	1.3130883807619
"285"	2015-04-04	"Android"	1.46607521186441	1888	"Android"	1.37096593659916
"289"	2015-04-04	"Macintosh"	3.64334763948498	2563	"Macintosh"	2.01827822719694
"294"	2015-04-04	"Windows"	1.77315994338287	2826	"Windows"	1.68867584031649
"296"	2015-04-04	"iOS"	1.55828420410653	4919	"iOS"	1.3130883807619
"298"	2015-04-03	"Android"	1.88736572890026	1955	"Android"	1.37096593659916
"302"	2015-04-03	"Macintosh"	2.83631937682571	3081	"Macintosh"	2.01827822719694
"306"	2015-04-03	"Windows"	2.21725264467953	3214	"Windows"	1.68867584031649
"308"	2015-04-03	"iOS"	1.92158485015628	5439	"iOS"	1.3130883807619
"310"	2015-04-02	"Android"	2.87062732589048	1881	"Android"	1.37096593659916
"314"	2015-04-02	"Macintosh"	1.79665413533835	2660	"Macintosh"	2.01827822719694
"318"	2015-04-02	"Windows"	2.01285641547862	3928	"Windows"	1.68867584031649
"321"	2015-04-02	"iOS"	2.20067833267794	5086	"iOS"	1.3130883807619
"323"	2015-04-01	"Android"	1.99393484783541	2333	"Android"	1.37096593659916
"325"	2015-04-01	"Chrome OS"	2.77073170731707	82	"| Other |"	0.478265955871462
"327"	2015-04-01	"Macintosh"	3.41081647755303	4054	"Macintosh"	2.01827822719694
"332"	2015-04-01	"Windows"	3.00593086133642	5178	"Windows"	1.68867584031649
"334"	2015-04-01	"iOS"	1.76293558606125	7576	"iOS"	1.3130883807619
"336"	2015-03-31	"Android"	2.44388556469708	2674	"Android"	1.37096593659916
"339"	2015-03-31	"Linux"	8.72173913043478	23	"Linux"	1.22231672484925
"340"	2015-03-31	"Macintosh"	2.32943331178625	4641	"Macintosh"	2.01827822719694
"343"	2015-03-31	"Windows"	2.10199239417989	6048	"Windows"	1.68867584031649
"346"	2015-03-31	"iOS"	2.47405270284345	9601	"iOS"	1.3130883807619
"348"	2015-03-30	"Android"	1.89108703250612	2861	"Android"	1.37096593659916
"352"	2015-03-30	"Macintosh"	3.37887931034483	4408	"Macintosh"	2.01827822719694
"357"	2015-03-30	"Windows"	1.93873503662676	5597	"Windows"	1.68867584031649
"360"	2015-03-30	"iOS"	1.74607474787423	10114	"iOS"	1.3130883807619
"362"	2015-03-29	"Android"	1.72009014810045	3106	"Android"	1.37096593659916
"366"	2015-03-29	"Macintosh"	1.93490978676873	3658	"Macintosh"	2.01827822719694
"370"	2015-03-29	"Windows"	2.31641580432738	4252	"Windows"	1.68867584031649
"374"	2015-03-28	"Android"	1.65141222738649	2797	"Android"	1.37096593659916
"376"	2015-03-28	"Chrome OS"	1.375	80	"| Other |"	0.478265955871462
"378"	2015-03-28	"Macintosh"	2.70978163326354	3343	"Macintosh"	2.01827822719694
"383"	2015-03-28	"Windows"	1.88717605004468	4476	"Windows"	1.68867584031649
"384"	2015-03-28	"Windows Phone"	2.42857142857143	70	"| Other |"	0.478265955871462
"387"	2015-03-27	"Android"	1.69964183381089	2792	"Android"	1.37096593659916
"389"	2015-03-27	"Chrome OS"	2.65789473684211	114	"| Other |"	0.478265955871462
"391"	2015-03-27	"Macintosh"	2.30972571716155	3974	"Macintosh"	2.01827822719694
"396"	2015-03-27	"Windows"	1.73195234708393	5624	"Windows"	1.68867584031649
"397"	2015-03-27	"Windows Phone"	1.39649122807018	57	"| Other |"	0.478265955871462
"401"	2015-03-26	"Android"	1.71738489871087	2715	"Android"	1.37096593659916
"405"	2015-03-26	"Macintosh"	3.48670807453416	4025	"Macintosh"	2.01827822719694
"409"	2015-03-26	"Windows"	2.23644148430067	5255	"Windows"	1.68867584031649
"411"	2015-03-26	"iOS"	1.40789473684211	8398	"iOS"	1.3130883807619
"413"	2015-03-25	"Android"	2.3790780141844	2820	"Android"	1.37096593659916
"417"	2015-03-25	"Macintosh"	1.99346046511628	4300	"Macintosh"	2.01827822719694
"422"	2015-03-25	"Windows"	1.36013658536585	5125	"Windows"	1.68867584031649
"424"	2015-03-25	"iOS"	1.73993902439024	9184	"iOS"	1.3130883807619
"428"	2015-03-24	"Chrome OS"	4.25	80	"| Other |"	0.478265955871462
"430"	2015-03-24	"Macintosh"	2.14253832281335	4436	"Macintosh"	2.01827822719694
"434"	2015-03-24	"Windows"	1.92497007042254	5680	"Windows"	1.68867584031649
"436"	2015-03-24	"iOS"	1.39346390598769	8935	"iOS"	1.3130883807619
"438"	2015-03-23	"Android"	1.4342330898698	3149	"Android"	1.37096593659916
"440"	2015-03-23	"Chrome OS"	2.76829268292683	82	"| Other |"	0.478265955871462
"443"	2015-03-23	"Macintosh"	2.63989351014667	4977	"Macintosh"	2.01827822719694
"448"	2015-03-23	"Windows"	1.49457028852056	6516	"Windows"	1.68867584031649
"451"	2015-03-23	"iOS"	1.3649930097863	10014	"iOS"	1.3130883807619
"453"	2015-03-22	"Android"	1.43782783091638	3241	"Android"	1.37096593659916
"455"	2015-03-22	"Chrome OS"	2.33333333333333	84	"| Other |"	0.478265955871462
"457"	2015-03-22	"Macintosh"	2.9223821685628	4307	"Macintosh"	2.01827822719694
"462"	2015-03-22	"Windows"	1.72765799256506	5380	"Windows"	1.68867584031649
"466"	2015-03-21	"Android"	1.40275516593613	3194	"Android"	1.37096593659916
"468"	2015-03-21	"Chrome OS"	4.93553719008264	121	"| Other |"	0.478265955871462
"471"	2015-03-21	"Macintosh"	2.65019239274657	4522	"Macintosh"	2.01827822719694
"475"	2015-03-21	"Windows"	1.62425765189584	6567	"Windows"	1.68867584031649
"480"	2015-03-20	"Android"	1.46126245847176	3010	"Android"	1.37096593659916
"484"	2015-03-20	"Macintosh"	1.82376509544215	5134	"Macintosh"	2.01827822719694
"489"	2015-03-20	"Windows"	1.44980833120368	7826	"Windows"	1.68867584031649
"492"	2015-03-20	"iOS"	1.57547949247566	10167	"iOS"	1.3130883807619
"494"	2015-03-19	"Android"	1.59628318584071	2486	"Android"	1.37096593659916
"496"	2015-03-19	"Chrome OS"	1.50847457627119	118	"| Other |"	0.478265955871462
"498"	2015-03-19	"Macintosh"	2.40569254866861	4469	"Macintosh"	2.01827822719694
"500"	2015-03-19	"Windows"	2.36002475247525	5656	"Windows"	1.68867584031649
"502"	2015-03-19	"iOS"	1.46004278882457	7946	"iOS"	1.3130883807619
"506"	2015-03-18	"Chrome OS"	2.10434782608696	115	"| Other |"	0.478265955871462
"508"	2015-03-18	"Macintosh"	2.01088936252664	5161	"Macintosh"	2.01827822719694
"510"	2015-03-18	"Windows"	1.79698630136986	6205	"Windows"	1.68867584031649
"512"	2015-03-18	"iOS"	1.94518943494263	9238	"iOS"	1.3130883807619
"514"	2015-03-17	"Android"	1.36068009243975	3029	"Android"	1.37096593659916
"518"	2015-03-17	"Macintosh"	2.09932220319635	7008	"Macintosh"	2.01827822719694
"523"	2015-03-17	"Windows"	1.36167774688747	8273	"Windows"	1.68867584031649
"524"	2015-03-17	"Windows Phone"	2.19607843137255	51	"| Other |"	0.478265955871462
"531"	2015-03-16	"Linux"	1.58536585365854	82	"Linux"	1.22231672484925
"542"	2015-03-15	"Android"	1.49935238095238	2625	"Android"	1.37096593659916
"546"	2015-03-15	"Macintosh"	2.49212423738214	3606	"Macintosh"	2.01827822719694
"551"	2015-03-15	"Windows"	1.96702441642071	3727	"Windows"	1.68867584031649
"554"	2015-03-15	"iOS"	1.44847440944882	8128	"iOS"	1.3130883807619
"560"	2015-03-14	"Macintosh"	1.759222333001	3009	"Macintosh"	2.01827822719694
"564"	2015-03-14	"Windows"	1.4023275862069	3480	"Windows"	1.68867584031649
"565"	2015-03-14	"Windows Phone"	3.64285714285714	56	"| Other |"	0.478265955871462
"567"	2015-03-14	"iOS"	1.36753298680528	7503	"iOS"	1.3130883807619
"569"	2015-03-13	"Android"	1.46457947387921	2699	"Android"	1.37096593659916
"572"	2015-03-13	"Linux"	3.12333333333333	36	"Linux"	1.22231672484925
"573"	2015-03-13	"Macintosh"	1.96503601440576	3332	"Macintosh"	2.01827822719694
"576"	2015-03-13	"Windows"	1.97925147734734	4569	"Windows"	1.68867584031649
"579"	2015-03-13	"iOS"	1.58724775103331	8226	"iOS"	1.3130883807619
"581"	2015-03-12	"Android"	1.64737210932025	2854	"Android"	1.37096593659916
"584"	2015-03-12	"Linux"	33.7386956521739	46	"Linux"	1.22231672484925
"585"	2015-03-12	"Macintosh"	2.75932421975754	3877	"Macintosh"	2.01827822719694
"588"	2015-03-12	"Windows"	2.5624925224327	5015	"Windows"	1.68867584031649
"589"	2015-03-12	"Windows Phone"	5.37209302325581	43	"| Other |"	0.478265955871462
"590"	2015-03-12	"iOS"	1.67210862978341	8911	"iOS"	1.3130883807619
"592"	2015-03-11	"Android"	1.6561967833491	3171	"Android"	1.37096593659916
"596"	2015-03-11	"Macintosh"	3.10907211759302	4354	"Macintosh"	2.01827822719694
"601"	2015-03-11	"Windows"	3.66765035487486	5354	"Windows"	1.68867584031649
"603"	2015-03-11	"iOS"	1.78493451964411	10003	"iOS"	1.3130883807619
"605"	2015-03-10	"Android"	1.77212681638045	3028	"Android"	1.37096593659916
"607"	2015-03-10	"Chrome OS"	1.85714285714286	56	"| Other |"	0.478265955871462
"609"	2015-03-10	"Macintosh"	2.79531584582441	3736	"Macintosh"	2.01827822719694
"614"	2015-03-10	"Windows"	2.19054726368159	5226	"Windows"	1.68867584031649
"615"	2015-03-10	"Windows Phone"	3.22222222222222	36	"| Other |"	0.478265955871462
"616"	2015-03-10	"iOS"	1.85916364910641	8561	"iOS"	1.3130883807619
"620"	2015-03-09	"Chrome OS"	2.19642857142857	56	"| Other |"	0.478265955871462
"622"	2015-03-09	"Macintosh"	3.32672022160665	3610	"Macintosh"	2.01827822719694
"624"	2015-03-09	"Windows"	3.12157266091573	4521	"Windows"	1.68867584031649
"626"	2015-03-09	"iOS"	1.67207602339181	9576	"iOS"	1.3130883807619
"632"	2015-03-08	"Macintosh"	2.97095205003475	2878	"Macintosh"	2.01827822719694
"636"	2015-03-08	"Windows"	1.77506691565515	3213	"Windows"	1.68867584031649
"644"	2015-03-07	"Macintosh"	1.87855758045754	2579	"Macintosh"	2.01827822719694
"648"	2015-03-07	"Windows"	2.24740238786705	3099	"Windows"	1.68867584031649
"649"	2015-03-07	"Windows Phone"	1.55555555555556	45	"| Other |"	0.478265955871462
"653"	2015-03-06	"Android"	2.19188926663429	2059	"Android"	1.37096593659916
"656"	2015-03-06	"Linux"	3.91304347826087	23	"Linux"	1.22231672484925
"657"	2015-03-06	"Macintosh"	1.87576979472141	2728	"Macintosh"	2.01827822719694
"661"	2015-03-06	"Windows"	2.11153465346535	4040	"Windows"	1.68867584031649
"663"	2015-03-06	"iOS"	1.57794499221588	5781	"iOS"	1.3130883807619
"665"	2015-03-05	"Android"	2.70858609426038	2143	"Android"	1.37096593659916
"669"	2015-03-05	"Macintosh"	2.53502699269609	3149	"Macintosh"	2.01827822719694
"672"	2015-03-05	"Windows"	2.10151006711409	4470	"Windows"	1.68867584031649
"673"	2015-03-05	"Windows Phone"	2.63934426229508	61	"| Other |"	0.478265955871462
"674"	2015-03-05	"iOS"	2.45085728282169	6124	"iOS"	1.3130883807619
"676"	2015-03-04	"Android"	2.64464518937745	2297	"Android"	1.37096593659916
"680"	2015-03-04	"Macintosh"	2.98217247097844	3618	"Macintosh"	2.01827822719694
"682"	2015-03-04	"Windows"	3.24040154912352	4906	"Windows"	1.68867584031649
"683"	2015-03-04	"Windows Phone"	2.48	50	"| Other |"	0.478265955871462
"684"	2015-03-04	"iOS"	2.16908129732819	6999	"iOS"	1.3130883807619
"686"	2015-03-03	"Android"	2.40206440957886	2422	"Android"	1.37096593659916
"690"	2015-03-03	"Macintosh"	3.99199224161818	3609	"Macintosh"	2.01827822719694
"693"	2015-03-03	"Windows"	2.1867676565008	4984	"Windows"	1.68867584031649
"694"	2015-03-03	"Windows Phone"	1.3968253968254	63	"| Other |"	0.478265955871462
"695"	2015-03-03	"iOS"	2.08153286637931	7424	"iOS"	1.3130883807619
"697"	2015-03-02	"Android"	1.61245753114383	2649	"Android"	1.37096593659916
"701"	2015-03-02	"Macintosh"	3.04156314699793	3864	"Macintosh"	2.01827822719694
"705"	2015-03-02	"Windows"	2.22738340899711	4846	"Windows"	1.68867584031649
"708"	2015-03-02	"iOS"	1.79303409369635	8154	"iOS"	1.3130883807619
"714"	2015-03-01	"Macintosh"	2.39487905301081	3886	"Macintosh"	2.01827822719694
"720"	2015-03-01	"Windows"	1.91618633540373	4025	"Windows"	1.68867584031649
"723"	2015-03-01	"iOS"	1.32201423675191	7586	"iOS"	1.3130883807619
"725"	2015-02-28	"Android"	1.35665686686266	2381	"Android"	1.37096593659916
"729"	2015-02-28	"Macintosh"	1.92394233782513	3191	"Macintosh"	2.01827822719694
"733"	2015-02-28	"Windows"	1.80591054313099	3756	"Windows"	1.68867584031649
"734"	2015-02-28	"Windows Phone"	2.61904761904762	42	"| Other |"	0.478265955871462
"738"	2015-02-27	"Android"	1.4952657807309	2408	"Android"	1.37096593659916
"742"	2015-02-27	"Macintosh"	1.66961948249619	3285	"Macintosh"	2.01827822719694
"745"	2015-02-27	"Windows"	1.94736613917191	4613	"Windows"	1.68867584031649
"747"	2015-02-27	"iOS"	1.75101435705368	6408	"iOS"	1.3130883807619
"753"	2015-02-26	"Macintosh"	2.71	3700	"Macintosh"	2.01827822719694
"758"	2015-02-26	"Windows"	1.73594328922495	5290	"Windows"	1.68867584031649
"760"	2015-02-26	"iOS"	1.4138035622096	7748	"iOS"	1.3130883807619
"766"	2015-02-25	"Linux"	2.28571428571429	35	"Linux"	1.22231672484925
"767"	2015-02-25	"Macintosh"	1.77995839112344	4326	"Macintosh"	2.01827822719694
"770"	2015-02-25	"Windows"	1.49005366106976	5777	"Windows"	1.68867584031649
"771"	2015-02-25	"Windows Phone"	4.19565217391304	46	"| Other |"	0.478265955871462
"774"	2015-02-24	"Android"	1.3761316872428	2916	"Android"	1.37096593659916
"776"	2015-02-24	"Chrome OS"	1.40298507462687	67	"| Other |"	0.478265955871462
"778"	2015-02-24	"Macintosh"	1.68084733015793	3989	"Macintosh"	2.01827822719694
"782"	2015-02-24	"Windows"	1.66810185185185	5400	"Windows"	1.68867584031649
"783"	2015-02-24	"Windows Phone"	1.5	38	"| Other |"	0.478265955871462
"786"	2015-02-23	"Android"	1.95027301092044	2564	"Android"	1.37096593659916
"788"	2015-02-23	"Chrome OS"	1.93103448275862	58	"| Other |"	0.478265955871462
"790"	2015-02-23	"Macintosh"	2.02559523809524	3528	"Macintosh"	2.01827822719694
"796"	2015-02-23	"Windows"	1.88382385240501	4553	"Windows"	1.68867584031649
"797"	2015-02-23	"Windows Phone"	7.125	40	"| Other |"	0.478265955871462
"798"	2015-02-23	"iOS"	1.31468165773304	7649	"iOS"	1.3130883807619
"800"	2015-02-22	"Android"	1.43746275010643	2349	"Android"	1.37096593659916
"804"	2015-02-22	"Macintosh"	1.75073015873016	3150	"Macintosh"	2.01827822719694
"808"	2015-02-22	"Windows"	1.67526427061311	3311	"Windows"	1.68867584031649
"815"	2015-02-21	"Chrome OS"	2.44	50	"| Other |"	0.478265955871462
"816"	2015-02-21	"Linux"	11.0913043478261	23	"Linux"	1.22231672484925
"817"	2015-02-21	"Macintosh"	1.74255159474672	2665	"Macintosh"	2.01827822719694
"829"	2015-02-20	"Linux"	17.9407407407407	27	"Linux"	1.22231672484925
"830"	2015-02-20	"Macintosh"	1.55249544626594	2745	"Macintosh"	2.01827822719694
"835"	2015-02-20	"Windows Phone"	2.92526315789474	38	"| Other |"	0.478265955871462
"837"	2015-02-20	"iOS"	1.36403525046382	6468	"iOS"	1.3130883807619
"839"	2015-02-19	"Android"	1.93242477876106	2260	"Android"	1.37096593659916
"842"	2015-02-19	"Chrome OS"	5.94444444444444	36	"| Other |"	0.478265955871462
"844"	2015-02-19	"Macintosh"	1.94980674631061	2846	"Macintosh"	2.01827822719694
"849"	2015-02-19	"Windows"	1.72596648044693	4475	"Windows"	1.68867584031649
"853"	2015-02-18	"Android"	1.64838495575221	2260	"Android"	1.37096593659916
"857"	2015-02-18	"Macintosh"	1.8100404732254	3212	"Macintosh"	2.01827822719694
"861"	2015-02-18	"Windows"	1.82781193078324	4392	"Windows"	1.68867584031649
"869"	2015-02-17	"Linux"	4.20285714285714	35	"Linux"	1.22231672484925
"870"	2015-02-17	"Macintosh"	1.69751747274252	3577	"Macintosh"	2.01827822719694
"875"	2015-02-17	"Windows"	1.79293051359517	4965	"Windows"	1.68867584031649
"876"	2015-02-17	"Windows Phone"	1.67741935483871	31	"| Other |"	0.478265955871462
"881"	2015-02-16	"Chrome OS"	2	37	"| Other |"	0.478265955871462
"882"	2015-02-16	"Linux"	6.6219512195122	41	"Linux"	1.22231672484925
"883"	2015-02-16	"Macintosh"	2.05779801768015	3733	"Macintosh"	2.01827822719694
"889"	2015-02-16	"Windows"	2.06340632100806	4841	"Windows"	1.68867584031649
"897"	2015-02-15	"Macintosh"	2.50421497963021	3191	"Macintosh"	2.01827822719694
"900"	2015-02-15	"Windows"	2.04387392900857	3268	"Windows"	1.68867584031649
"909"	2015-02-14	"Linux"	3.36388888888889	36	"Linux"	1.22231672484925
"920"	2015-02-13	"Linux"	2.703125	32	"Linux"	1.22231672484925
"921"	2015-02-13	"Macintosh"	1.72803738317757	2782	"Macintosh"	2.01827822719694
"926"	2015-02-13	"Windows"	1.63513395031661	4106	"Windows"	1.68867584031649
"933"	2015-02-12	"Chrome OS"	1.54761904761905	42	"| Other |"	0.478265955871462
"935"	2015-02-12	"Macintosh"	1.70077667057444	3412	"Macintosh"	2.01827822719694
"938"	2015-02-12	"Windows"	1.57228418009087	4842	"Windows"	1.68867584031649
"942"	2015-02-11	"Android"	1.33578285335981	3021	"Android"	1.37096593659916
"944"	2015-02-11	"Chrome OS"	2.84782608695652	46	"| Other |"	0.478265955871462
"946"	2015-02-11	"Macintosh"	1.99886302111532	3694	"Macintosh"	2.01827822719694
"949"	2015-02-11	"Windows"	2.05240849810686	4754	"Windows"	1.68867584031649
"958"	2015-02-10	"Macintosh"	2.68855880728879	3622	"Macintosh"	2.01827822719694
"963"	2015-02-10	"Windows"	2.01110091743119	4905	"Windows"	1.68867584031649
"965"	2015-02-10	"iOS"	1.33154291732491	7596	"iOS"	1.3130883807619
"972"	2015-02-09	"Macintosh"	1.93666032091379	3677	"Macintosh"	2.01827822719694
"975"	2015-02-09	"Windows"	1.99900627615063	4780	"Windows"	1.68867584031649
"978"	2015-02-09	"iOS"	1.46337440636632	7791	"iOS"	1.3130883807619
"980"	2015-02-08	"Android"	1.42952138924185	2361	"Android"	1.37096593659916
"984"	2015-02-08	"Macintosh"	1.89456038316798	2923	"Macintosh"	2.01827822719694
"988"	2015-02-08	"Windows"	1.51228177641654	3265	"Windows"	1.68867584031649
"996"	2015-02-07	"Macintosh"	1.47220888355342	2499	"Macintosh"	2.01827822719694
"999"	2015-02-07	"Windows"	1.31897331982438	2961	"Windows"	1.68867584031649
"1001"	2015-02-07	"iOS"	1.30903688166404	5721	"iOS"	1.3130883807619
"1007"	2015-02-06	"Linux"	1.53125	32	"Linux"	1.22231672484925
"1008"	2015-02-06	"Macintosh"	2.16826884722776	2507	"Macintosh"	2.01827822719694
"1011"	2015-02-06	"Windows"	1.67315789473684	3610	"Windows"	1.68867584031649
"1015"	2015-02-05	"Android"	1.36423963133641	2170	"Android"	1.37096593659916
"1020"	2015-02-05	"Macintosh"	2.41248693834901	2871	"Macintosh"	2.01827822719694
"1023"	2015-02-05	"Windows"	1.5479525	4000	"Windows"	1.68867584031649
"1025"	2015-02-05	"iOS"	1.51638790035587	5620	"iOS"	1.3130883807619
"1027"	2015-02-04	"Android"	1.88455125061305	2039	"Android"	1.37096593659916
"1030"	2015-02-04	"Linux"	3.03846153846154	26	"Linux"	1.22231672484925
"1031"	2015-02-04	"Macintosh"	2.19349217638691	2812	"Macintosh"	2.01827822719694
"1036"	2015-02-04	"Windows"	1.81858774662513	3852	"Windows"	1.68867584031649
"1038"	2015-02-04	"iOS"	1.35549270372192	6099	"iOS"	1.3130883807619
"1040"	2015-02-03	"Android"	1.84949152542373	1770	"Android"	1.37096593659916
"1044"	2015-02-03	"Macintosh"	2.10970200970201	2886	"Macintosh"	2.01827822719694
"1050"	2015-02-03	"Windows"	2.25453044375645	3876	"Windows"	1.68867584031649
"1053"	2015-02-03	"iOS"	1.72340364880274	5262	"iOS"	1.3130883807619
"1055"	2015-02-02	"Android"	1.45801662707838	1684	"Android"	1.37096593659916
"1060"	2015-02-02	"Macintosh"	1.88701203940168	2741	"Macintosh"	2.01827822719694
"1065"	2015-02-02	"Windows"	1.77014608599779	3628	"Windows"	1.68867584031649
"1069"	2015-02-01	"Android"	1.7569696969697	1650	"Android"	1.37096593659916
"1072"	2015-02-01	"Chrome OS"	2.29411764705882	17	"| Other |"	0.478265955871462
"1074"	2015-02-01	"Macintosh"	1.56758739749676	2317	"Macintosh"	2.01827822719694
"1079"	2015-02-01	"Windows"	1.92775518503457	2459	"Windows"	1.68867584031649
"1089"	2015-01-31	"Macintosh"	2.6143995749203	1882	"Macintosh"	2.01827822719694
"1093"	2015-01-31	"Windows"	1.39548260869565	2300	"Windows"	1.68867584031649
"1097"	2015-01-30	"Android"	1.84027858386535	1723	"Android"	1.37096593659916
"1101"	2015-01-30	"Macintosh"	1.66425211665099	2126	"Macintosh"	2.01827822719694
"1108"	2015-01-30	"Windows"	1.43567618449953	3187	"Windows"	1.68867584031649
"1112"	2015-01-29	"Android"	1.36353427895981	1692	"Android"	1.37096593659916
"1116"	2015-01-29	"Macintosh"	1.76685675182482	2192	"Macintosh"	2.01827822719694
"1120"	2015-01-29	"Windows"	2.03823083403538	3561	"Windows"	1.68867584031649
"1122"	2015-01-29	"iOS"	1.61998460861917	4548	"iOS"	1.3130883807619
"1124"	2015-01-28	"Android"	1.73608302288451	1879	"Android"	1.37096593659916
"1127"	2015-01-28	"Chrome OS"	2.62068965517241	29	"| Other |"	0.478265955871462
"1129"	2015-01-28	"Macintosh"	1.36822001527884	2618	"Macintosh"	2.01827822719694
"1133"	2015-01-28	"Windows"	2.10742674789672	3447	"Windows"	1.68867584031649
"1136"	2015-01-28	"iOS"	1.53461027877868	5273	"iOS"	1.3130883807619
"1138"	2015-01-27	"Android"	1.33138921453693	1706	"Android"	1.37096593659916
"1142"	2015-01-27	"Macintosh"	1.81787890938252	2494	"Macintosh"	2.01827822719694
"1145"	2015-01-27	"Windows"	1.53509687034277	3355	"Windows"	1.68867584031649
"1148"	2015-01-27	"iOS"	1.31766304347826	4784	"iOS"	1.3130883807619
