"date"	"channelGrouping"	"revenuePerUser"	"users"	"cat"	"pred_RPU"
"2"	2015-04-27	"Direct"	0.504172846548773	3506	"Direct"	0.942842076311974
"3"	2015-04-27	"Display"	0.443548387096774	124	"Display"	1.03645419940066
"4"	2015-04-27	"Email"	0.578928571428571	1456	"Email"	1.65323575932829
"8"	2015-04-27	"Social"	0.294498381877023	927	"Social"	0.80002828892421
"9"	2015-04-26	"(Other)"	0.355524752475248	505	"(Other)"	1.70997152681954
"10"	2015-04-26	"Direct"	0.20587456445993	2870	"Direct"	0.942842076311974
"11"	2015-04-26	"Display"	0.495145631067961	103	"Display"	1.03645419940066
"13"	2015-04-26	"Organic Search"	0.471781112091792	5665	"Organic Search"	1.28210243434748
"14"	2015-04-26	"Paid Search"	0.528775365738556	4238	"Paid Search"	1.26872949440355
"16"	2015-04-26	"Social"	0.442563739376771	706	"Social"	0.80002828892421
"17"	2015-04-25	"(Other)"	0	457	"(Other)"	1.70997152681954
"18"	2015-04-25	"Direct"	0.146845280340667	2818	"Direct"	0.942842076311974
"19"	2015-04-25	"Display"	0	101	"Display"	1.03645419940066
"20"	2015-04-25	"Email"	0.262483994878361	781	"Email"	1.65323575932829
"21"	2015-04-25	"Organic Search"	0.335189003436426	4947	"Organic Search"	1.28210243434748
"22"	2015-04-25	"Paid Search"	0.3325049198763	3557	"Paid Search"	1.26872949440355
"23"	2015-04-25	"Referral"	0.233317865429234	1293	"Referral"	5.93526339890481
"24"	2015-04-25	"Social"	0.427989886219975	791	"Social"	0.80002828892421
"25"	2015-04-24	"(Other)"	0.375	528	"(Other)"	1.70997152681954
"26"	2015-04-24	"Direct"	0.264434755527873	3211	"Direct"	0.942842076311974
"27"	2015-04-24	"Display"	0.0425531914893617	94	"Display"	1.03645419940066
"28"	2015-04-24	"Email"	0.337437603993344	1202	"Email"	1.65323575932829
"29"	2015-04-24	"Organic Search"	0.464432173752991	5433	"Organic Search"	1.28210243434748
"30"	2015-04-24	"Paid Search"	0.450621605310803	3314	"Paid Search"	1.26872949440355
"31"	2015-04-24	"Referral"	0.492350260416667	1536	"Referral"	5.93526339890481
"32"	2015-04-24	"Social"	0.1263625	800	"Social"	0.80002828892421
"33"	2015-04-23	"(Other)"	0.581740976645435	471	"(Other)"	1.70997152681954
"35"	2015-04-23	"Display"	0	114	"Display"	1.03645419940066
"37"	2015-04-23	"Organic Search"	0.472677680261573	5811	"Organic Search"	1.28210243434748
"42"	2015-04-22	"Direct"	0.418512968299712	3470	"Direct"	0.942842076311974
"43"	2015-04-22	"Display"	0	103	"Display"	1.03645419940066
"48"	2015-04-22	"Social"	0.290971337579618	628	"Social"	0.80002828892421
"49"	2015-04-21	"(Other)"	0.610975609756098	738	"(Other)"	1.70997152681954
"50"	2015-04-21	"Direct"	0.47380998389694	3105	"Direct"	0.942842076311974
"51"	2015-04-21	"Display"	0	101	"Display"	1.03645419940066
"53"	2015-04-21	"Organic Search"	0.58244760369339	6823	"Organic Search"	1.28210243434748
"54"	2015-04-21	"Paid Search"	0.576039107545751	3989	"Paid Search"	1.26872949440355
"57"	2015-04-20	"(Other)"	0.281481481481481	702	"(Other)"	1.70997152681954
"58"	2015-04-20	"Direct"	0.591340902117214	3259	"Direct"	0.942842076311974
"59"	2015-04-20	"Display"	0	103	"Display"	1.03645419940066
"62"	2015-04-20	"Paid Search"	0.586654589371981	4140	"Paid Search"	1.26872949440355
"66"	2015-04-19	"Direct"	0.396005757466715	2779	"Direct"	0.942842076311974
"69"	2015-04-19	"Organic Search"	0.550005213764338	5754	"Organic Search"	1.28210243434748
"70"	2015-04-19	"Paid Search"	0.629495295124038	3507	"Paid Search"	1.26872949440355
"72"	2015-04-19	"Social"	0.29435691318328	622	"Social"	0.80002828892421
"74"	2015-04-18	"Direct"	0.38609900990099	2525	"Direct"	0.942842076311974
"75"	2015-04-18	"Display"	0	95	"Display"	1.03645419940066
"77"	2015-04-18	"Organic Search"	0.478678548141708	4601	"Organic Search"	1.28210243434748
"80"	2015-04-18	"Social"	0.193430656934307	548	"Social"	0.80002828892421
"81"	2015-04-17	"(Other)"	0.460266666666667	375	"(Other)"	1.70997152681954
"84"	2015-04-17	"Email"	0.334264952487423	1789	"Email"	1.65323575932829
"85"	2015-04-17	"Organic Search"	0.442208403994724	5307	"Organic Search"	1.28210243434748
"86"	2015-04-17	"Paid Search"	0.512798339674853	2891	"Paid Search"	1.26872949440355
"88"	2015-04-17	"Social"	0.425	600	"Social"	0.80002828892421
"91"	2015-04-16	"Display"	0	102	"Display"	1.03645419940066
"96"	2015-04-16	"Social"	0.554493307839388	523	"Social"	0.80002828892421
"97"	2015-04-15	"(Other)"	0.334359341445956	1397	"(Other)"	1.70997152681954
"98"	2015-04-15	"Direct"	0.618390804597701	3132	"Direct"	0.942842076311974
"104"	2015-04-15	"Social"	0.570858283433134	501	"Social"	0.80002828892421
"105"	2015-04-14	"(Other)"	0.263157894736842	494	"(Other)"	1.70997152681954
"107"	2015-04-14	"Display"	0	121	"Display"	1.03645419940066
"114"	2015-04-13	"Direct"	0.558269918699187	3075	"Direct"	0.942842076311974
"115"	2015-04-13	"Display"	0	97	"Display"	1.03645419940066
"116"	2015-04-13	"Email"	0.4740777666999	2006	"Email"	1.65323575932829
"117"	2015-04-13	"Organic Search"	0.593870601589103	6167	"Organic Search"	1.28210243434748
"118"	2015-04-13	"Paid Search"	0.461071975497703	3265	"Paid Search"	1.26872949440355
"119"	2015-04-13	"Referral"	0.614312736443884	1586	"Referral"	5.93526339890481
"121"	2015-04-12	"(Other)"	0.512839506172839	405	"(Other)"	1.70997152681954
"122"	2015-04-12	"Direct"	0.441120061373226	2607	"Direct"	0.942842076311974
"123"	2015-04-12	"Display"	0	109	"Display"	1.03645419940066
"129"	2015-04-11	"(Other)"	0.279950495049505	404	"(Other)"	1.70997152681954
"131"	2015-04-11	"Display"	0	88	"Display"	1.03645419940066
"132"	2015-04-11	"Email"	0.334872298624754	1018	"Email"	1.65323575932829
"133"	2015-04-11	"Organic Search"	0.264927973977695	4304	"Organic Search"	1.28210243434748
"134"	2015-04-11	"Paid Search"	0.338734501923899	2339	"Paid Search"	1.26872949440355
"136"	2015-04-11	"Social"	0.384937238493724	478	"Social"	0.80002828892421
"137"	2015-04-10	"(Other)"	0.28983451536643	423	"(Other)"	1.70997152681954
"138"	2015-04-10	"Direct"	0.43204252088079	2634	"Direct"	0.942842076311974
"139"	2015-04-10	"Display"	0	89	"Display"	1.03645419940066
"140"	2015-04-10	"Email"	0.618596881959911	1796	"Email"	1.65323575932829
"141"	2015-04-10	"Organic Search"	0.437049047426024	4934	"Organic Search"	1.28210243434748
"147"	2015-04-09	"Display"	0	91	"Display"	1.03645419940066
"168"	2015-04-07	"Social"	0.629624277456647	692	"Social"	0.80002828892421
"203"	2015-04-02	"Display"	0	105	"Display"	1.03645419940066
"211"	2015-04-01	"Display"	0	86	"Display"	1.03645419940066
"251"	2015-03-27	"Display"	0	80	"Display"	1.03645419940066
"259"	2015-03-26	"Display"	0.53781512605042	119	"Display"	1.03645419940066
"267"	2015-03-25	"Display"	0	92	"Display"	1.03645419940066
"291"	2015-03-22	"Display"	0.0444444444444444	135	"Display"	1.03645419940066
"296"	2015-03-22	"Social"	0.285205647636587	1629	"Social"	0.80002828892421
"299"	2015-03-21	"Display"	0.576576576576577	111	"Display"	1.03645419940066
"307"	2015-03-20	"Display"	0.234234234234234	111	"Display"	1.03645419940066
"312"	2015-03-20	"Social"	0.500929152148664	1722	"Social"	0.80002828892421
"315"	2015-03-19	"Display"	0	126	"Display"	1.03645419940066
"328"	2015-03-18	"Social"	0.567615793470008	2634	"Social"	0.80002828892421
"336"	2015-03-17	"Social"	0.351295147756293	5482	"Social"	0.80002828892421
"344"	2015-03-16	"Social"	0.165169250237267	15805	"Social"	0.80002828892421
"355"	2015-03-14	"Display"	0	90	"Display"	1.03645419940066
"392"	2015-03-10	"Social"	0.61885175664096	2334	"Social"	0.80002828892421
"400"	2015-03-09	"Social"	0.351906158357771	3069	"Social"	0.80002828892421
"403"	2015-03-08	"Display"	0	114	"Display"	1.03645419940066
"419"	2015-03-06	"Display"	0	86	"Display"	1.03645419940066
"451"	2015-03-02	"Display"	0.470588235294118	136	"Display"	1.03645419940066
"452"	2015-03-02	"Email"	0.548096280087527	2285	"Email"	1.65323575932829
"458"	2015-03-01	"Direct"	0.591791744840525	4264	"Direct"	0.942842076311974
"459"	2015-03-01	"Display"	0	170	"Display"	1.03645419940066
"466"	2015-02-28	"Direct"	0.591404164442072	3746	"Direct"	0.942842076311974
"467"	2015-02-28	"Display"	0	125	"Display"	1.03645419940066
"469"	2015-02-28	"Organic Search"	0.584292630446477	5577	"Organic Search"	1.28210243434748
"472"	2015-02-28	"Social"	0.180371352785146	754	"Social"	0.80002828892421
"475"	2015-02-27	"Display"	0.571428571428572	126	"Display"	1.03645419940066
"478"	2015-02-27	"Paid Search"	0.611251145737855	4364	"Paid Search"	1.26872949440355
"480"	2015-02-27	"Social"	0.545454545454545	924	"Social"	0.80002828892421
"482"	2015-02-26	"Direct"	0.571568848758465	4430	"Direct"	0.942842076311974
"490"	2015-02-25	"Direct"	0.495912961210974	5285	"Direct"	0.942842076311974
"496"	2015-02-25	"Social"	0.47935393258427	1780	"Social"	0.80002828892421
"498"	2015-02-24	"Direct"	0.607628152969894	4916	"Direct"	0.942842076311974
"515"	2015-02-22	"Display"	0	252	"Display"	1.03645419940066
"516"	2015-02-22	"Email"	0.602556818181818	704	"Email"	1.65323575932829
"522"	2015-02-21	"Direct"	0.481861348528015	3159	"Direct"	0.942842076311974
"524"	2015-02-21	"Email"	0.555785123966942	968	"Email"	1.65323575932829
"526"	2015-02-21	"Paid Search"	0.539309544531477	3447	"Paid Search"	1.26872949440355
"528"	2015-02-21	"Social"	0.543670886075949	790	"Social"	0.80002828892421
"531"	2015-02-20	"Display"	0	232	"Display"	1.03645419940066
"534"	2015-02-20	"Paid Search"	0.488997821350763	3672	"Paid Search"	1.26872949440355
"536"	2015-02-20	"Social"	0.385021551724138	928	"Social"	0.80002828892421
"545"	2015-02-18	"(Other)"	0.576616915422886	402	"(Other)"	1.70997152681954
"547"	2015-02-18	"Display"	0.566666666666667	240	"Display"	1.03645419940066
"548"	2015-02-18	"Email"	0.521877065432915	1513	"Email"	1.65323575932829
"550"	2015-02-18	"Paid Search"	0.613421503796228	4083	"Paid Search"	1.26872949440355
"558"	2015-02-17	"Paid Search"	0.464012455516014	4496	"Paid Search"	1.26872949440355
"560"	2015-02-17	"Social"	0.498461538461538	2210	"Social"	0.80002828892421
"563"	2015-02-16	"Display"	0.362992125984252	254	"Display"	1.03645419940066
"566"	2015-02-16	"Paid Search"	0.497610750695088	5395	"Paid Search"	1.26872949440355
"568"	2015-02-16	"Social"	0.361722488038278	3553	"Social"	0.80002828892421
"571"	2015-02-15	"Display"	0.0671641791044776	268	"Display"	1.03645419940066
"574"	2015-02-15	"Paid Search"	0.602729482146196	5349	"Paid Search"	1.26872949440355
"577"	2015-02-14	"(Other)"	0.467112299465241	374	"(Other)"	1.70997152681954
"579"	2015-02-14	"Display"	0	253	"Display"	1.03645419940066
"582"	2015-02-14	"Paid Search"	0.400316813758769	4419	"Paid Search"	1.26872949440355
"584"	2015-02-14	"Social"	0.568823993685872	1267	"Social"	0.80002828892421
"586"	2015-02-13	"Direct"	0.273472429210134	2684	"Direct"	0.942842076311974
"587"	2015-02-13	"Display"	0.187878787878788	165	"Display"	1.03645419940066
"590"	2015-02-13	"Paid Search"	0.587473279179136	4678	"Paid Search"	1.26872949440355
"592"	2015-02-13	"Social"	0.591098169717138	1202	"Social"	0.80002828892421
"594"	2015-02-12	"Direct"	0.631138907175773	3038	"Direct"	0.942842076311974
"595"	2015-02-12	"Display"	0.428571428571429	168	"Display"	1.03645419940066
"596"	2015-02-12	"Email"	0.520780287474333	2435	"Email"	1.65323575932829
"598"	2015-02-12	"Paid Search"	0.415716297078494	5682	"Paid Search"	1.26872949440355
"614"	2015-02-10	"Paid Search"	0.629752899647	5949	"Paid Search"	1.26872949440355
"616"	2015-02-10	"Social"	0.240181268882175	1324	"Social"	0.80002828892421
"617"	2015-02-09	"(Other)"	0.613414634146341	656	"(Other)"	1.70997152681954
"625"	2015-02-08	"(Other)"	0	531	"(Other)"	1.70997152681954
"626"	2015-02-08	"Direct"	0.502939015429831	2722	"Direct"	0.942842076311974
"627"	2015-02-08	"Display"	0.598765432098765	162	"Display"	1.03645419940066
"630"	2015-02-08	"Paid Search"	0.36693023255814	4300	"Paid Search"	1.26872949440355
"633"	2015-02-07	"(Other)"	0.129807692307692	416	"(Other)"	1.70997152681954
"634"	2015-02-07	"Direct"	0.62914653784219	2484	"Direct"	0.942842076311974
"635"	2015-02-07	"Display"	0	154	"Display"	1.03645419940066
"638"	2015-02-07	"Paid Search"	0.605869740016082	3731	"Paid Search"	1.26872949440355
"640"	2015-02-07	"Social"	0.417771883289125	754	"Social"	0.80002828892421
"642"	2015-02-06	"Direct"	0.623386319845857	2076	"Direct"	0.942842076311974
"644"	2015-02-06	"Email"	0.412522468544038	1669	"Email"	1.65323575932829
"651"	2015-02-05	"Display"	0.411242603550296	169	"Display"	1.03645419940066
"654"	2015-02-05	"Paid Search"	0.578420589529256	4546	"Paid Search"	1.26872949440355
"659"	2015-02-04	"Display"	0.47093023255814	172	"Display"	1.03645419940066
"672"	2015-02-03	"Social"	0.488576779026217	1068	"Social"	0.80002828892421
"674"	2015-02-02	"Direct"	0.468151815181518	2424	"Direct"	0.942842076311974
"675"	2015-02-02	"Display"	0.375	184	"Display"	1.03645419940066
"676"	2015-02-02	"Email"	0.383233532934132	1837	"Email"	1.65323575932829
"682"	2015-02-01	"Direct"	0.314971123944913	2251	"Direct"	0.942842076311974
"684"	2015-02-01	"Email"	0.585950413223141	968	"Email"	1.65323575932829
"688"	2015-02-01	"Social"	0.465454545454545	825	"Social"	0.80002828892421
"689"	2015-01-31	"(Other)"	0.447810218978102	274	"(Other)"	1.70997152681954
"697"	2015-01-30	"(Other)"	0.581012658227848	316	"(Other)"	1.70997152681954
"699"	2015-01-30	"Display"	0.564625850340136	147	"Display"	1.03645419940066
"700"	2015-01-30	"Email"	0.503856041131105	2723	"Email"	1.65323575932829
"706"	2015-01-29	"Direct"	0.498084291187739	2349	"Direct"	0.942842076311974
"714"	2015-01-28	"Direct"	0.531821797931583	2514	"Direct"	0.942842076311974
"723"	2015-01-27	"Display"	0	161	"Display"	1.03645419940066
"724"	2015-01-27	"Email"	0.55187969924812	665	"Email"	1.65323575932829
"5"	2015-04-27	"Organic Search"	0.746354242468345	6871	"Organic Search"	1.28210243434748
"6"	2015-04-27	"Paid Search"	0.641302216538789	4692	"Paid Search"	1.26872949440355
"12"	2015-04-26	"Email"	0.992568659127625	619	"Email"	1.65323575932829
"15"	2015-04-26	"Referral"	0.806923688394277	1258	"Referral"	5.93526339890481
"34"	2015-04-23	"Direct"	0.704030293052354	3037	"Direct"	0.942842076311974
"36"	2015-04-23	"Email"	0.82445600756859	1057	"Email"	1.65323575932829
"38"	2015-04-23	"Paid Search"	0.637451151939341	3429	"Paid Search"	1.26872949440355
"40"	2015-04-23	"Social"	0.641703296703297	546	"Social"	0.80002828892421
"44"	2015-04-22	"Email"	0.793546433378197	1486	"Email"	1.65323575932829
"45"	2015-04-22	"Organic Search"	0.681089875217185	6331	"Organic Search"	1.28210243434748
"46"	2015-04-22	"Paid Search"	0.743542686242523	3678	"Paid Search"	1.26872949440355
"47"	2015-04-22	"Referral"	0.697079096045198	1770	"Referral"	5.93526339890481
"52"	2015-04-21	"Email"	0.749301848049281	1461	"Email"	1.65323575932829
"55"	2015-04-21	"Referral"	0.869261853448276	1856	"Referral"	5.93526339890481
"56"	2015-04-21	"Social"	0.767364864864865	740	"Social"	0.80002828892421
"60"	2015-04-20	"Email"	0.915152057245081	2236	"Email"	1.65323575932829
"61"	2015-04-20	"Organic Search"	0.720030004286327	6999	"Organic Search"	1.28210243434748
"63"	2015-04-20	"Referral"	1.08245116572149	1587	"Referral"	5.93526339890481
"64"	2015-04-20	"Social"	0.766051344743276	818	"Social"	0.80002828892421
"65"	2015-04-19	"(Other)"	1.05429362880886	361	"(Other)"	1.70997152681954
"68"	2015-04-19	"Email"	0.631335830212235	801	"Email"	1.65323575932829
"71"	2015-04-19	"Referral"	1.08178775510204	1225	"Referral"	5.93526339890481
"73"	2015-04-18	"(Other)"	0.831949685534591	318	"(Other)"	1.70997152681954
"76"	2015-04-18	"Email"	0.753943524829601	1027	"Email"	1.65323575932829
"78"	2015-04-18	"Paid Search"	0.745379876796715	2922	"Paid Search"	1.26872949440355
"79"	2015-04-18	"Referral"	0.875801282051282	1248	"Referral"	5.93526339890481
"83"	2015-04-17	"Display"	0.782178217821782	101	"Display"	1.03645419940066
"87"	2015-04-17	"Referral"	0.999738562091503	1530	"Referral"	5.93526339890481
"89"	2015-04-16	"(Other)"	0.872427184466019	515	"(Other)"	1.70997152681954
"92"	2015-04-16	"Email"	0.634313725490196	1530	"Email"	1.65323575932829
"93"	2015-04-16	"Organic Search"	0.667584190003545	5642	"Organic Search"	1.28210243434748
"94"	2015-04-16	"Paid Search"	1.02986377925253	2863	"Paid Search"	1.26872949440355
"95"	2015-04-16	"Referral"	0.928855721393035	1608	"Referral"	5.93526339890481
"99"	2015-04-15	"Display"	0.705882352941177	102	"Display"	1.03645419940066
"101"	2015-04-15	"Organic Search"	0.785380496511439	6163	"Organic Search"	1.28210243434748
"106"	2015-04-14	"Direct"	0.768451908396947	3275	"Direct"	0.942842076311974
"109"	2015-04-14	"Organic Search"	0.822574317187264	6627	"Organic Search"	1.28210243434748
"112"	2015-04-14	"Social"	0.888057040998217	561	"Social"	0.80002828892421
"113"	2015-04-13	"(Other)"	0.751659751037345	482	"(Other)"	1.70997152681954
"120"	2015-04-13	"Social"	0.76271186440678	708	"Social"	0.80002828892421
"124"	2015-04-12	"Email"	0.911914893617021	705	"Email"	1.65323575932829
"125"	2015-04-12	"Organic Search"	0.650897082018927	5072	"Organic Search"	1.28210243434748
"126"	2015-04-12	"Paid Search"	0.639856373429084	2785	"Paid Search"	1.26872949440355
"127"	2015-04-12	"Referral"	0.751451378809869	1378	"Referral"	5.93526339890481
"128"	2015-04-12	"Social"	0.714285714285714	539	"Social"	0.80002828892421
"130"	2015-04-11	"Direct"	0.724876033057851	2420	"Direct"	0.942842076311974
"135"	2015-04-11	"Referral"	1.02462235649547	1324	"Referral"	5.93526339890481
"142"	2015-04-10	"Paid Search"	0.834186046511628	2580	"Paid Search"	1.26872949440355
"143"	2015-04-10	"Referral"	0.752949538024165	1407	"Referral"	5.93526339890481
"144"	2015-04-10	"Social"	0.712765957446808	470	"Social"	0.80002828892421
"186"	2015-04-04	"Direct"	0.998210412147505	2766	"Direct"	0.942842076311974
"208"	2015-04-02	"Social"	1.06044943820225	445	"Social"	0.80002828892421
"226"	2015-03-30	"Direct"	0.967327550598926	7263	"Direct"	0.942842076311974
"233"	2015-03-29	"(Other)"	0.927505330490405	938	"(Other)"	1.70997152681954
"234"	2015-03-29	"Direct"	0.70913961875322	7764	"Direct"	0.942842076311974
"242"	2015-03-28	"Direct"	0.80059456398641	7064	"Direct"	0.942842076311974
"250"	2015-03-27	"Direct"	0.794873937874356	7179	"Direct"	0.942842076311974
"258"	2015-03-26	"Direct"	1.07449681528662	7850	"Direct"	0.942842076311974
"264"	2015-03-26	"Social"	0.649817739975699	823	"Social"	0.80002828892421
"274"	2015-03-24	"Direct"	0.950499933342221	7501	"Direct"	0.942842076311974
"282"	2015-03-23	"Direct"	0.997499060268137	7981	"Direct"	0.942842076311974
"283"	2015-03-23	"Display"	0.73134328358209	134	"Display"	1.03645419940066
"288"	2015-03-23	"Social"	0.725675675675676	1480	"Social"	0.80002828892421
"290"	2015-03-22	"Direct"	1.06750064817215	7714	"Direct"	0.942842076311974
"298"	2015-03-21	"Direct"	1.00674651674407	8182	"Direct"	0.942842076311974
"304"	2015-03-21	"Social"	1.03501350135013	2222	"Social"	0.80002828892421
"314"	2015-03-19	"Direct"	0.759694250581589	6018	"Direct"	0.942842076311974
"320"	2015-03-19	"Social"	1.00592369477912	1992	"Social"	0.80002828892421
"323"	2015-03-18	"Display"	1.02803738317757	107	"Display"	1.03645419940066
"330"	2015-03-17	"Direct"	1.04005757900375	7468	"Direct"	0.942842076311974
"338"	2015-03-16	"Direct"	0.733378389794711	11837	"Direct"	0.942842076311974
"346"	2015-03-15	"Direct"	0.742597551644989	5228	"Direct"	0.942842076311974
"360"	2015-03-14	"Social"	0.839556377079482	541	"Social"	0.80002828892421
"361"	2015-03-13	"(Other)"	1.07933070866142	508	"(Other)"	1.70997152681954
"368"	2015-03-13	"Social"	1.01358024691358	810	"Social"	0.80002828892421
"376"	2015-03-12	"Social"	0.86726893676164	1439	"Social"	0.80002828892421
"384"	2015-03-11	"Social"	0.789192795196798	1499	"Social"	0.80002828892421
"402"	2015-03-08	"Direct"	0.798130965005302	3772	"Direct"	0.942842076311974
"409"	2015-03-07	"(Other)"	0.979963898916968	554	"(Other)"	1.70997152681954
"411"	2015-03-07	"Display"	1.06702127659574	94	"Display"	1.03645419940066
"416"	2015-03-07	"Social"	0.770758122743682	554	"Social"	0.80002828892421
"417"	2015-03-06	"(Other)"	1.03456425406204	677	"(Other)"	1.70997152681954
"425"	2015-03-05	"(Other)"	0.774162679425837	418	"(Other)"	1.70997152681954
"462"	2015-03-01	"Paid Search"	0.761320754716981	4982	"Paid Search"	1.26872949440355
"470"	2015-02-28	"Paid Search"	0.827961975423139	4313	"Paid Search"	1.26872949440355
"474"	2015-02-27	"Direct"	0.796758767268863	3764	"Direct"	0.942842076311974
"483"	2015-02-26	"Display"	0.91875	160	"Display"	1.03645419940066
"485"	2015-02-26	"Organic Search"	0.849148968446602	6592	"Organic Search"	1.28210243434748
"486"	2015-02-26	"Paid Search"	0.706882081409987	4766	"Paid Search"	1.26872949440355
"488"	2015-02-26	"Social"	0.769753086419753	1620	"Social"	0.80002828892421
"493"	2015-02-25	"Organic Search"	0.93900093495392	7487	"Organic Search"	1.28210243434748
"494"	2015-02-25	"Paid Search"	0.70664490109468	5207	"Paid Search"	1.26872949440355
"499"	2015-02-24	"Display"	0.742222222222222	225	"Display"	1.03645419940066
"500"	2015-02-24	"Email"	0.729308005427408	1474	"Email"	1.65323575932829
"501"	2015-02-24	"Organic Search"	0.835103717109843	7183	"Organic Search"	1.28210243434748
"502"	2015-02-24	"Paid Search"	0.635496014171834	4516	"Paid Search"	1.26872949440355
"506"	2015-02-23	"Direct"	0.690633387010199	3726	"Direct"	0.942842076311974
"507"	2015-02-23	"Display"	0.797478991596639	238	"Display"	1.03645419940066
"509"	2015-02-23	"Organic Search"	0.935122652937614	6604	"Organic Search"	1.28210243434748
"510"	2015-02-23	"Paid Search"	0.830264755890211	4117	"Paid Search"	1.26872949440355
"514"	2015-02-22	"Direct"	0.655109193852791	3709	"Direct"	0.942842076311974
"517"	2015-02-22	"Organic Search"	0.713170320404722	5930	"Organic Search"	1.28210243434748
"520"	2015-02-22	"Social"	0.890862944162436	788	"Social"	0.80002828892421
"521"	2015-02-21	"(Other)"	0.978132678132678	407	"(Other)"	1.70997152681954
"525"	2015-02-21	"Organic Search"	0.801563074659801	5438	"Organic Search"	1.28210243434748
"530"	2015-02-20	"Direct"	0.768830391863596	3343	"Direct"	0.942842076311974
"532"	2015-02-20	"Email"	0.855844155844156	1386	"Email"	1.65323575932829
"533"	2015-02-20	"Organic Search"	0.798238921001927	5190	"Organic Search"	1.28210243434748
"539"	2015-02-19	"Display"	0.883043478260869	230	"Display"	1.03645419940066
"540"	2015-02-19	"Email"	0.819731038192577	1859	"Email"	1.65323575932829
"541"	2015-02-19	"Organic Search"	0.894298808432631	5455	"Organic Search"	1.28210243434748
"542"	2015-02-19	"Paid Search"	0.886907663146493	3693	"Paid Search"	1.26872949440355
"544"	2015-02-19	"Social"	0.982103990326481	827	"Social"	0.80002828892421
"546"	2015-02-18	"Direct"	0.677993961757799	2981	"Direct"	0.942842076311974
"549"	2015-02-18	"Organic Search"	0.972666666666667	5925	"Organic Search"	1.28210243434748
"552"	2015-02-18	"Social"	0.923160434258142	829	"Social"	0.80002828892421
"554"	2015-02-17	"Direct"	0.701108841552378	3427	"Direct"	0.942842076311974
"555"	2015-02-17	"Display"	0.803921568627451	255	"Display"	1.03645419940066
"557"	2015-02-17	"Organic Search"	0.791203420891875	6548	"Organic Search"	1.28210243434748
"562"	2015-02-16	"Direct"	0.75983606557377	3782	"Direct"	0.942842076311974
"565"	2015-02-16	"Organic Search"	0.846011613691932	6544	"Organic Search"	1.28210243434748
"570"	2015-02-15	"Direct"	0.740336401142494	3151	"Direct"	0.942842076311974
"572"	2015-02-15	"Email"	1.00615866388309	958	"Email"	1.65323575932829
"573"	2015-02-15	"Organic Search"	0.70395156748639	5327	"Organic Search"	1.28210243434748
"576"	2015-02-15	"Social"	0.880091533180778	1311	"Social"	0.80002828892421
"578"	2015-02-14	"Direct"	0.690504765266502	2833	"Direct"	0.942842076311974
"588"	2015-02-13	"Email"	0.87783531848783	1931	"Email"	1.65323575932829
"589"	2015-02-13	"Organic Search"	0.788807576409815	4646	"Organic Search"	1.28210243434748
"593"	2015-02-12	"(Other)"	0.755072463768116	414	"(Other)"	1.70997152681954
"597"	2015-02-12	"Organic Search"	1.0012227741689	5234	"Organic Search"	1.28210243434748
"600"	2015-02-12	"Social"	0.6625	1420	"Social"	0.80002828892421
"602"	2015-02-11	"Direct"	0.904828125	3200	"Direct"	0.942842076311974
"604"	2015-02-11	"Email"	0.801103646833013	2084	"Email"	1.65323575932829
"605"	2015-02-11	"Organic Search"	0.858084135833756	5919	"Organic Search"	1.28210243434748
"606"	2015-02-11	"Paid Search"	0.728581326866447	5773	"Paid Search"	1.26872949440355
"608"	2015-02-11	"Social"	0.671582491582492	1485	"Social"	0.80002828892421
"618"	2015-02-09	"Direct"	0.880707798308801	3193	"Direct"	0.942842076311974
"619"	2015-02-09	"Display"	0.872448979591837	196	"Display"	1.03645419940066
"620"	2015-02-09	"Email"	0.888578826237054	1738	"Email"	1.65323575932829
"621"	2015-02-09	"Organic Search"	0.939027573829336	6129	"Organic Search"	1.28210243434748
"622"	2015-02-09	"Paid Search"	0.825206167084977	5578	"Paid Search"	1.26872949440355
"624"	2015-02-09	"Social"	0.651584377302874	1357	"Social"	0.80002828892421
"629"	2015-02-08	"Organic Search"	0.908333653292378	5209	"Organic Search"	1.28210243434748
"636"	2015-02-07	"Email"	0.632241813602015	1191	"Email"	1.65323575932829
"637"	2015-02-07	"Organic Search"	0.920742205677059	4298	"Organic Search"	1.28210243434748
"643"	2015-02-06	"Display"	0.75	148	"Display"	1.03645419940066
"645"	2015-02-06	"Organic Search"	1.07171919096896	4252	"Organic Search"	1.28210243434748
"646"	2015-02-06	"Paid Search"	0.787962732919255	4025	"Paid Search"	1.26872949440355
"648"	2015-02-06	"Social"	0.895981087470449	846	"Social"	0.80002828892421
"649"	2015-02-05	"(Other)"	0.828448275862069	348	"(Other)"	1.70997152681954
"650"	2015-02-05	"Direct"	0.792941176470588	2550	"Direct"	0.942842076311974
"656"	2015-02-05	"Social"	1.02983151635282	1009	"Social"	0.80002828892421
"658"	2015-02-04	"Direct"	0.713193116634799	2615	"Direct"	0.942842076311974
"662"	2015-02-04	"Paid Search"	0.829604178119846	3638	"Paid Search"	1.26872949440355
"664"	2015-02-04	"Social"	1.07019064124783	1154	"Social"	0.80002828892421
"666"	2015-02-03	"Direct"	1.04598267034265	2539	"Direct"	0.942842076311974
"668"	2015-02-03	"Email"	0.871861777150917	1418	"Email"	1.65323575932829
"677"	2015-02-02	"Organic Search"	0.870883248730964	4925	"Organic Search"	1.28210243434748
"678"	2015-02-02	"Paid Search"	0.819250292854354	2561	"Paid Search"	1.26872949440355
"680"	2015-02-02	"Social"	0.850056369785795	887	"Social"	0.80002828892421
"685"	2015-02-01	"Organic Search"	0.905558065973791	4426	"Organic Search"	1.28210243434748
"686"	2015-02-01	"Paid Search"	0.838965201465201	2184	"Paid Search"	1.26872949440355
"690"	2015-01-31	"Direct"	0.750080171031534	1871	"Direct"	0.942842076311974
"692"	2015-01-31	"Email"	1.00838323353293	1670	"Email"	1.65323575932829
"693"	2015-01-31	"Organic Search"	0.778816634105498	3583	"Organic Search"	1.28210243434748
"694"	2015-01-31	"Paid Search"	0.891154480483782	1819	"Paid Search"	1.26872949440355
"696"	2015-01-31	"Social"	0.757432432432432	740	"Social"	0.80002828892421
"698"	2015-01-30	"Direct"	0.730263157894737	2128	"Direct"	0.942842076311974
"701"	2015-01-30	"Organic Search"	0.975691411935953	4122	"Organic Search"	1.28210243434748
"702"	2015-01-30	"Paid Search"	0.92440537745605	1934	"Paid Search"	1.26872949440355
"704"	2015-01-30	"Social"	0.769608938547486	895	"Social"	0.80002828892421
"708"	2015-01-29	"Email"	1.0381679389313	1179	"Email"	1.65323575932829
"712"	2015-01-29	"Social"	0.928571428571428	952	"Social"	0.80002828892421
"716"	2015-01-28	"Email"	1.02806666666667	1500	"Email"	1.65323575932829
"717"	2015-01-28	"Organic Search"	0.936349574632637	5172	"Organic Search"	1.28210243434748
"718"	2015-01-28	"Paid Search"	0.827993254637437	2372	"Paid Search"	1.26872949440355
"720"	2015-01-28	"Social"	1.03187294633078	913	"Social"	0.80002828892421
"722"	2015-01-27	"Direct"	0.685832025117739	2548	"Direct"	0.942842076311974
"725"	2015-01-27	"Organic Search"	0.898234948029025	5099	"Organic Search"	1.28210243434748
"726"	2015-01-27	"Paid Search"	0.779611248966088	2418	"Paid Search"	1.26872949440355
"728"	2015-01-27	"Social"	0.682486486486486	925	"Social"	0.80002828892421
"1"	2015-04-27	"(Other)"	1.17145299145299	585	"(Other)"	1.70997152681954
"7"	2015-04-27	"Referral"	1.09885146327996	1811	"Referral"	5.93526339890481
"39"	2015-04-23	"Referral"	1.19772383354351	1586	"Referral"	5.93526339890481
"41"	2015-04-22	"(Other)"	1.47763779527559	635	"(Other)"	1.70997152681954
"67"	2015-04-19	"Display"	1.33684210526316	95	"Display"	1.03645419940066
"82"	2015-04-17	"Direct"	1.17063480741797	2804	"Direct"	0.942842076311974
"90"	2015-04-16	"Direct"	1.24135391090845	2851	"Direct"	0.942842076311974
"100"	2015-04-15	"Email"	1.20641916605706	2734	"Email"	1.65323575932829
"102"	2015-04-15	"Paid Search"	1.19928595261929	2997	"Paid Search"	1.26872949440355
"103"	2015-04-15	"Referral"	1.32749003984064	2008	"Referral"	5.93526339890481
"108"	2015-04-14	"Email"	1.13815288827395	2891	"Email"	1.65323575932829
"110"	2015-04-14	"Paid Search"	1.19325559407501	3173	"Paid Search"	1.26872949440355
"111"	2015-04-14	"Referral"	1.46501632208923	1838	"Referral"	5.93526339890481
"145"	2015-04-09	"(Other)"	1.64131868131868	455	"(Other)"	1.70997152681954
"146"	2015-04-09	"Direct"	1.56767888307155	2865	"Direct"	0.942842076311974
"148"	2015-04-09	"Email"	1.44607843137255	1224	"Email"	1.65323575932829
"149"	2015-04-09	"Organic Search"	1.44276942815249	5456	"Organic Search"	1.28210243434748
"150"	2015-04-09	"Paid Search"	1.75194672131148	2928	"Paid Search"	1.26872949440355
"154"	2015-04-08	"Direct"	1.95147540983607	3355	"Direct"	0.942842076311974
"162"	2015-04-07	"Direct"	2.11756827731092	3808	"Direct"	0.942842076311974
"163"	2015-04-07	"Display"	1.15772357723577	123	"Display"	1.03645419940066
"165"	2015-04-07	"Organic Search"	2.00725443075999	6658	"Organic Search"	1.28210243434748
"170"	2015-04-06	"Direct"	1.33714972940469	3326	"Direct"	0.942842076311974
"177"	2015-04-05	"(Other)"	1.62470862470862	429	"(Other)"	1.70997152681954
"178"	2015-04-05	"Direct"	1.27990605427975	2874	"Direct"	0.942842076311974
"181"	2015-04-05	"Organic Search"	1.86672716273442	4959	"Organic Search"	1.28210243434748
"182"	2015-04-05	"Paid Search"	1.60939597315436	2533	"Paid Search"	1.26872949440355
"183"	2015-04-05	"Referral"	1.99489575844716	1391	"Referral"	5.93526339890481
"184"	2015-04-05	"Social"	1.25625	624	"Social"	0.80002828892421
"189"	2015-04-04	"Organic Search"	1.68456996434938	4488	"Organic Search"	1.28210243434748
"191"	2015-04-04	"Referral"	1.3525	1380	"Referral"	5.93526339890481
"193"	2015-04-03	"(Other)"	1.38986636971047	449	"(Other)"	1.70997152681954
"194"	2015-04-03	"Direct"	1.28422669853192	2929	"Direct"	0.942842076311974
"197"	2015-04-03	"Organic Search"	1.89461262696674	5021	"Organic Search"	1.28210243434748
"198"	2015-04-03	"Paid Search"	2.01594776414721	2527	"Paid Search"	1.26872949440355
"202"	2015-04-02	"Direct"	1.72923327895595	3065	"Direct"	0.942842076311974
"205"	2015-04-02	"Organic Search"	1.43427230046948	4686	"Organic Search"	1.28210243434748
"209"	2015-04-01	"(Other)"	1.47927232635061	907	"(Other)"	1.70997152681954
"210"	2015-04-01	"Direct"	1.37750833024806	5402	"Direct"	0.942842076311974
"217"	2015-03-31	"(Other)"	1.17447552447552	1144	"(Other)"	1.70997152681954
"218"	2015-03-31	"Direct"	1.2882104519774	7080	"Direct"	0.942842076311974
"219"	2015-03-31	"Display"	1.42714285714286	70	"Display"	1.03645419940066
"221"	2015-03-31	"Organic Search"	2.10713804713805	7425	"Organic Search"	1.28210243434748
"224"	2015-03-31	"Social"	1.82881861575179	838	"Social"	0.80002828892421
"229"	2015-03-30	"Organic Search"	2.04568996097907	8457	"Organic Search"	1.28210243434748
"232"	2015-03-30	"Social"	1.44704049844237	963	"Social"	0.80002828892421
"237"	2015-03-29	"Organic Search"	1.50076579018704	7378	"Organic Search"	1.28210243434748
"240"	2015-03-29	"Social"	1.16875602700096	1037	"Social"	0.80002828892421
"244"	2015-03-28	"Email"	1.49405705229794	2524	"Email"	1.65323575932829
"245"	2015-03-28	"Organic Search"	1.27067307692308	6240	"Organic Search"	1.28210243434748
"248"	2015-03-28	"Social"	1.95636856368564	738	"Social"	0.80002828892421
"249"	2015-03-27	"(Other)"	1.65566556655666	909	"(Other)"	1.70997152681954
"252"	2015-03-27	"Email"	1.15438856015779	4056	"Email"	1.65323575932829
"253"	2015-03-27	"Organic Search"	1.65306757138818	7074	"Organic Search"	1.28210243434748
"256"	2015-03-27	"Social"	1.90669240669241	777	"Social"	0.80002828892421
"260"	2015-03-26	"Email"	2.06471389645777	1468	"Email"	1.65323575932829
"266"	2015-03-25	"Direct"	1.11046322253371	7491	"Direct"	0.942842076311974
"269"	2015-03-25	"Organic Search"	1.60992346938776	7840	"Organic Search"	1.28210243434748
"272"	2015-03-25	"Social"	1.4531185031185	962	"Social"	0.80002828892421
"277"	2015-03-24	"Organic Search"	1.55527459407832	8376	"Organic Search"	1.28210243434748
"278"	2015-03-24	"Paid Search"	1.96951934349355	2559	"Paid Search"	1.26872949440355
"280"	2015-03-24	"Social"	1.38797284190107	1031	"Social"	0.80002828892421
"285"	2015-03-23	"Organic Search"	1.46464170084179	9266	"Organic Search"	1.28210243434748
"292"	2015-03-22	"Email"	1.80997830802603	922	"Email"	1.65323575932829
"293"	2015-03-22	"Organic Search"	1.46161252074935	8434	"Organic Search"	1.28210243434748
"294"	2015-03-22	"Paid Search"	1.96559334298119	2764	"Paid Search"	1.26872949440355
"297"	2015-03-21	"(Other)"	2	445	"(Other)"	1.70997152681954
"301"	2015-03-21	"Organic Search"	1.26494844192635	8825	"Organic Search"	1.28210243434748
"302"	2015-03-21	"Paid Search"	1.66867043847242	2828	"Paid Search"	1.26872949440355
"306"	2015-03-20	"Direct"	1.19525568181818	7744	"Direct"	0.942842076311974
"309"	2015-03-20	"Organic Search"	1.27297424771248	10601	"Organic Search"	1.28210243434748
"310"	2015-03-20	"Paid Search"	1.83813164893617	3008	"Paid Search"	1.26872949440355
"317"	2015-03-19	"Organic Search"	1.77782982045277	7686	"Organic Search"	1.28210243434748
"322"	2015-03-18	"Direct"	1.3331444939529	6284	"Direct"	0.942842076311974
"325"	2015-03-18	"Organic Search"	1.9392312186003	8559	"Organic Search"	1.28210243434748
"326"	2015-03-18	"Paid Search"	2.11156199677939	3105	"Paid Search"	1.26872949440355
"329"	2015-03-17	"(Other)"	2.0653531598513	538	"(Other)"	1.70997152681954
"333"	2015-03-17	"Organic Search"	1.44984657870512	9777	"Organic Search"	1.28210243434748
"334"	2015-03-17	"Paid Search"	1.87172457762193	3137	"Paid Search"	1.26872949440355
"339"	2015-03-16	"Display"	1.20967741935484	124	"Display"	1.03645419940066
"341"	2015-03-16	"Organic Search"	1.27963689892051	10190	"Organic Search"	1.28210243434748
"342"	2015-03-16	"Paid Search"	1.94253080853622	3327	"Paid Search"	1.26872949440355
"347"	2015-03-15	"Display"	1.31428571428571	105	"Display"	1.03645419940066
"349"	2015-03-15	"Organic Search"	1.67875920084122	7608	"Organic Search"	1.28210243434748
"353"	2015-03-14	"(Other)"	1.38163265306122	441	"(Other)"	1.70997152681954
"354"	2015-03-14	"Direct"	1.15424565560821	5064	"Direct"	0.942842076311974
"356"	2015-03-14	"Email"	1.79283489096573	1284	"Email"	1.65323575932829
"357"	2015-03-14	"Organic Search"	1.28128608082104	6236	"Organic Search"	1.28210243434748
"358"	2015-03-14	"Paid Search"	1.17919360973754	2629	"Paid Search"	1.26872949440355
"362"	2015-03-13	"Direct"	1.28699018126888	5296	"Direct"	0.942842076311974
"363"	2015-03-13	"Display"	1.64814814814815	108	"Display"	1.03645419940066
"364"	2015-03-13	"Email"	1.78137424373379	2314	"Email"	1.65323575932829
"365"	2015-03-13	"Organic Search"	1.71162234416772	7107	"Organic Search"	1.28210243434748
"366"	2015-03-13	"Paid Search"	1.52046109510086	2429	"Paid Search"	1.26872949440355
"370"	2015-03-12	"Direct"	1.31072297532152	5754	"Direct"	0.942842076311974
"373"	2015-03-12	"Organic Search"	1.88265720081136	7888	"Organic Search"	1.28210243434748
"378"	2015-03-11	"Direct"	1.67104716227018	6255	"Direct"	0.942842076311974
"380"	2015-03-11	"Email"	1.98792253521127	2840	"Email"	1.65323575932829
"385"	2015-03-10	"(Other)"	1.46651785714286	448	"(Other)"	1.70997152681954
"386"	2015-03-10	"Direct"	1.82590434083601	4976	"Direct"	0.942842076311974
"388"	2015-03-10	"Email"	2.10285908781484	1469	"Email"	1.65323575932829
"389"	2015-03-10	"Organic Search"	2.12563316448947	7502	"Organic Search"	1.28210243434748
"394"	2015-03-09	"Direct"	1.85062630480167	4790	"Direct"	0.942842076311974
"396"	2015-03-09	"Email"	1.63506916555109	2241	"Email"	1.65323575932829
"401"	2015-03-08	"(Other)"	2.03553875236295	529	"(Other)"	1.70997152681954
"404"	2015-03-08	"Email"	1.64731554160126	637	"Email"	1.65323575932829
"405"	2015-03-08	"Organic Search"	1.27954545454545	5632	"Organic Search"	1.28210243434748
"408"	2015-03-08	"Social"	2.01949579831933	595	"Social"	0.80002828892421
"410"	2015-03-07	"Direct"	1.1109439124487	3655	"Direct"	0.942842076311974
"413"	2015-03-07	"Organic Search"	1.66112795633717	4947	"Organic Search"	1.28210243434748
"414"	2015-03-07	"Paid Search"	1.33420849420849	2590	"Paid Search"	1.26872949440355
"415"	2015-03-07	"Referral"	1.87614795918367	784	"Referral"	5.93526339890481
"418"	2015-03-06	"Direct"	1.1098814229249	3542	"Direct"	0.942842076311974
"420"	2015-03-06	"Email"	1.61327433628319	1582	"Email"	1.65323575932829
"421"	2015-03-06	"Organic Search"	1.5740854832499	5194	"Organic Search"	1.28210243434748
"422"	2015-03-06	"Paid Search"	1.54938565200159	2523	"Paid Search"	1.26872949440355
"426"	2015-03-05	"Direct"	1.54270446096654	4304	"Direct"	0.942842076311974
"427"	2015-03-05	"Display"	1.30833333333333	120	"Display"	1.03645419940066
"429"	2015-03-05	"Organic Search"	2.00312702527544	6172	"Organic Search"	1.28210243434748
"434"	2015-03-04	"Direct"	1.4465283657917	4724	"Direct"	0.942842076311974
"442"	2015-03-03	"Direct"	1.44849966659258	4499	"Direct"	0.942842076311974
"446"	2015-03-03	"Paid Search"	1.88249932377603	3697	"Paid Search"	1.26872949440355
"449"	2015-03-02	"(Other)"	2.03365949119374	511	"(Other)"	1.70997152681954
"450"	2015-03-02	"Direct"	1.17505145209239	4373	"Direct"	0.942842076311974
"453"	2015-03-02	"Organic Search"	1.34252105721754	6886	"Organic Search"	1.28210243434748
"454"	2015-03-02	"Paid Search"	1.17468482097832	3966	"Paid Search"	1.26872949440355
"456"	2015-03-02	"Social"	1.10365111561866	986	"Social"	0.80002828892421
"457"	2015-03-01	"(Other)"	1.66907407407407	540	"(Other)"	1.70997152681954
"460"	2015-03-01	"Email"	1.61111111111111	540	"Email"	1.65323575932829
"461"	2015-03-01	"Organic Search"	1.10686083170695	6661	"Organic Search"	1.28210243434748
"464"	2015-03-01	"Social"	1.44533947065593	869	"Social"	0.80002828892421
"465"	2015-02-28	"(Other)"	1.32326869806094	361	"(Other)"	1.70997152681954
"468"	2015-02-28	"Email"	1.95122699386503	652	"Email"	1.65323575932829
"476"	2015-02-27	"Email"	1.1358024691358	972	"Email"	1.65323575932829
"477"	2015-02-27	"Organic Search"	1.18382251381215	5792	"Organic Search"	1.28210243434748
"481"	2015-02-26	"(Other)"	1.38227848101266	395	"(Other)"	1.70997152681954
"484"	2015-02-26	"Email"	1.45542271562767	1171	"Email"	1.65323575932829
"489"	2015-02-25	"(Other)"	1.39771634615385	416	"(Other)"	1.70997152681954
"491"	2015-02-25	"Display"	1.35747663551402	214	"Display"	1.03645419940066
"492"	2015-02-25	"Email"	1.28625134264232	1862	"Email"	1.65323575932829
"497"	2015-02-24	"(Other)"	1.47522935779817	436	"(Other)"	1.70997152681954
"504"	2015-02-24	"Social"	1.12855910267472	1159	"Social"	0.80002828892421
"508"	2015-02-23	"Email"	1.14724540901503	1797	"Email"	1.65323575932829
"512"	2015-02-23	"Social"	1.53496503496504	1144	"Social"	0.80002828892421
"513"	2015-02-22	"(Other)"	1.30376569037657	478	"(Other)"	1.70997152681954
"523"	2015-02-21	"Display"	1.29130434782609	230	"Display"	1.03645419940066
"529"	2015-02-20	"(Other)"	1.1368909512761	431	"(Other)"	1.70997152681954
"537"	2015-02-19	"(Other)"	1.18846153846154	442	"(Other)"	1.70997152681954
"538"	2015-02-19	"Direct"	1.16550688802543	2831	"Direct"	0.942842076311974
"553"	2015-02-17	"(Other)"	1.90794701986755	453	"(Other)"	1.70997152681954
"556"	2015-02-17	"Email"	1.09176401869159	1712	"Email"	1.65323575932829
"561"	2015-02-16	"(Other)"	1.38053691275168	447	"(Other)"	1.70997152681954
"564"	2015-02-16	"Email"	1.27673112913288	1603	"Email"	1.65323575932829
"569"	2015-02-15	"(Other)"	1.79975961538462	416	"(Other)"	1.70997152681954
"580"	2015-02-14	"Email"	1.39078514911747	1643	"Email"	1.65323575932829
"581"	2015-02-14	"Organic Search"	1.14043101428906	4269	"Organic Search"	1.28210243434748
"585"	2015-02-13	"(Other)"	1.43350515463918	388	"(Other)"	1.70997152681954
"601"	2015-02-11	"(Other)"	1.32139737991266	458	"(Other)"	1.70997152681954
"603"	2015-02-11	"Display"	1.99450549450549	182	"Display"	1.03645419940066
"609"	2015-02-10	"(Other)"	1.40304761904762	525	"(Other)"	1.70997152681954
"610"	2015-02-10	"Direct"	1.15215476564958	3179	"Direct"	0.942842076311974
"611"	2015-02-10	"Display"	1.32947976878613	173	"Display"	1.03645419940066
"612"	2015-02-10	"Email"	1.158527696793	1372	"Email"	1.65323575932829
"613"	2015-02-10	"Organic Search"	1.09050269584523	6306	"Organic Search"	1.28210243434748
"628"	2015-02-08	"Email"	1.49543080939948	766	"Email"	1.65323575932829
"641"	2015-02-06	"(Other)"	1.49568965517241	348	"(Other)"	1.70997152681954
"652"	2015-02-05	"Email"	1.14279279279279	1110	"Email"	1.65323575932829
"653"	2015-02-05	"Organic Search"	1.10160333048676	4684	"Organic Search"	1.28210243434748
"657"	2015-02-04	"(Other)"	1.61143617021277	376	"(Other)"	1.70997152681954
"660"	2015-02-04	"Email"	1.33355513307985	1578	"Email"	1.65323575932829
"661"	2015-02-04	"Organic Search"	1.20227363382529	5014	"Organic Search"	1.28210243434748
"667"	2015-02-03	"Display"	1.20098039215686	204	"Display"	1.03645419940066
"669"	2015-02-03	"Organic Search"	1.26956867421984	5031	"Organic Search"	1.28210243434748
"670"	2015-02-03	"Paid Search"	1.11925008970219	2787	"Paid Search"	1.26872949440355
"673"	2015-02-02	"(Other)"	1.4472	375	"(Other)"	1.70997152681954
"681"	2015-02-01	"(Other)"	1.32901408450704	355	"(Other)"	1.70997152681954
"707"	2015-01-29	"Display"	1.15037593984962	133	"Display"	1.03645419940066
"709"	2015-01-29	"Organic Search"	1.22209364548495	4485	"Organic Search"	1.28210243434748
"710"	2015-01-29	"Paid Search"	1.25393356643357	2288	"Paid Search"	1.26872949440355
"713"	2015-01-28	"(Other)"	1.0891975308642	324	"(Other)"	1.70997152681954
"715"	2015-01-28	"Display"	1.82638888888889	144	"Display"	1.03645419940066
"151"	2015-04-09	"Referral"	2.1526600660066	1515	"Referral"	5.93526339890481
"152"	2015-04-09	"Social"	2.17314487632509	566	"Social"	0.80002828892421
"153"	2015-04-08	"(Other)"	2.97156488549618	524	"(Other)"	1.70997152681954
"155"	2015-04-08	"Display"	2.57538461538462	130	"Display"	1.03645419940066
"156"	2015-04-08	"Email"	2.86907949790795	2390	"Email"	1.65323575932829
"157"	2015-04-08	"Organic Search"	2.68197895072556	6271	"Organic Search"	1.28210243434748
"158"	2015-04-08	"Paid Search"	2.86518833535844	3292	"Paid Search"	1.26872949440355
"159"	2015-04-08	"Referral"	2.77605714285714	1750	"Referral"	5.93526339890481
"160"	2015-04-08	"Social"	3.12747875354108	706	"Social"	0.80002828892421
"161"	2015-04-07	"(Other)"	2.27788461538462	520	"(Other)"	1.70997152681954
"164"	2015-04-07	"Email"	4.11633333333333	2550	"Email"	1.65323575932829
"166"	2015-04-07	"Paid Search"	2.95068777991043	3126	"Paid Search"	1.26872949440355
"167"	2015-04-07	"Referral"	3.15260521042084	1996	"Referral"	5.93526339890481
"169"	2015-04-06	"(Other)"	4.66252631578947	475	"(Other)"	1.70997152681954
"171"	2015-04-06	"Display"	5.53684210526316	95	"Display"	1.03645419940066
"172"	2015-04-06	"Email"	4.10566037735849	689	"Email"	1.65323575932829
"173"	2015-04-06	"Organic Search"	2.41610703043022	5718	"Organic Search"	1.28210243434748
"174"	2015-04-06	"Paid Search"	2.56894280762565	2885	"Paid Search"	1.26872949440355
"175"	2015-04-06	"Referral"	3.3026982011992	1501	"Referral"	5.93526339890481
"176"	2015-04-06	"Social"	3.65171339563863	642	"Social"	0.80002828892421
"179"	2015-04-05	"Display"	6.20526315789474	95	"Display"	1.03645419940066
"180"	2015-04-05	"Email"	3.06852409638554	664	"Email"	1.65323575932829
"185"	2015-04-04	"(Other)"	4.36907692307692	325	"(Other)"	1.70997152681954
"187"	2015-04-04	"Display"	7.49438202247191	89	"Display"	1.03645419940066
"188"	2015-04-04	"Email"	3.19438430311231	739	"Email"	1.65323575932829
"190"	2015-04-04	"Paid Search"	2.47229456668163	2227	"Paid Search"	1.26872949440355
"192"	2015-04-04	"Social"	4.01329787234043	658	"Social"	0.80002828892421
"195"	2015-04-03	"Display"	8.18529411764706	102	"Display"	1.03645419940066
"196"	2015-04-03	"Email"	3.63578643578644	1386	"Email"	1.65323575932829
"199"	2015-04-03	"Referral"	2.48799833887043	1204	"Referral"	5.93526339890481
"200"	2015-04-03	"Social"	3.57913188647746	599	"Social"	0.80002828892421
"201"	2015-04-02	"(Other)"	2.17659409020218	643	"(Other)"	1.70997152681954
"204"	2015-04-02	"Email"	2.8396006655574	1803	"Email"	1.65323575932829
"206"	2015-04-02	"Paid Search"	2.41082875457875	2184	"Paid Search"	1.26872949440355
"207"	2015-04-02	"Referral"	4.23037225042301	1182	"Referral"	5.93526339890481
"212"	2015-04-01	"Email"	5.1380307831598	2209	"Email"	1.65323575932829
"213"	2015-04-01	"Organic Search"	2.14713552800342	7017	"Organic Search"	1.28210243434748
"214"	2015-04-01	"Paid Search"	2.55302245250432	2316	"Paid Search"	1.26872949440355
"215"	2015-04-01	"Referral"	3.65834076717217	1121	"Referral"	5.93526339890481
"216"	2015-04-01	"Social"	3.19318783068783	756	"Social"	0.80002828892421
"220"	2015-03-31	"Email"	3.52639399943391	3533	"Email"	1.65323575932829
"222"	2015-03-31	"Paid Search"	3.22876124284546	2446	"Paid Search"	1.26872949440355
"223"	2015-03-31	"Referral"	4.94506688963211	1196	"Referral"	5.93526339890481
"225"	2015-03-30	"(Other)"	3.34805327868852	976	"(Other)"	1.70997152681954
"227"	2015-03-30	"Display"	2.47727272727273	88	"Display"	1.03645419940066
"228"	2015-03-30	"Email"	2.88645833333333	2688	"Email"	1.65323575932829
"230"	2015-03-30	"Paid Search"	2.93561827956989	2232	"Paid Search"	1.26872949440355
"231"	2015-03-30	"Referral"	4.98964218455744	1062	"Referral"	5.93526339890481
"235"	2015-03-29	"Display"	2.48780487804878	82	"Display"	1.03645419940066
"236"	2015-03-29	"Email"	2.19644245142003	1338	"Email"	1.65323575932829
"238"	2015-03-29	"Paid Search"	3.10067796610169	2065	"Paid Search"	1.26872949440355
"239"	2015-03-29	"Referral"	6.48325892857143	896	"Referral"	5.93526339890481
"241"	2015-03-28	"(Other)"	2.21541463414634	1025	"(Other)"	1.70997152681954
"243"	2015-03-28	"Display"	4.03030303030303	66	"Display"	1.03645419940066
"246"	2015-03-28	"Paid Search"	4.6364126984127	1575	"Paid Search"	1.26872949440355
"247"	2015-03-28	"Referral"	4.49977851605759	903	"Referral"	5.93526339890481
"254"	2015-03-27	"Paid Search"	3.41862230005838	1713	"Paid Search"	1.26872949440355
"255"	2015-03-27	"Referral"	5.32661375661376	945	"Referral"	5.93526339890481
"257"	2015-03-26	"(Other)"	3.6650390625	512	"(Other)"	1.70997152681954
"261"	2015-03-26	"Organic Search"	2.12937983444158	7369	"Organic Search"	1.28210243434748
"262"	2015-03-26	"Paid Search"	3.58702516033547	2027	"Paid Search"	1.26872949440355
"263"	2015-03-26	"Referral"	5.84254624591948	919	"Referral"	5.93526339890481
"265"	2015-03-25	"(Other)"	2.7882618510158	443	"(Other)"	1.70997152681954
"268"	2015-03-25	"Email"	2.34464454976303	2110	"Email"	1.65323575932829
"270"	2015-03-25	"Paid Search"	2.69831894593367	2201	"Paid Search"	1.26872949440355
"271"	2015-03-25	"Referral"	3.941065830721	957	"Referral"	5.93526339890481
"273"	2015-03-24	"(Other)"	3.2812734082397	534	"(Other)"	1.70997152681954
"275"	2015-03-24	"Display"	2.13709677419355	124	"Display"	1.03645419940066
"276"	2015-03-24	"Email"	3.05236463331049	1459	"Email"	1.65323575932829
"279"	2015-03-24	"Referral"	3.88619791666667	960	"Referral"	5.93526339890481
"281"	2015-03-23	"(Other)"	2.29034334763948	466	"(Other)"	1.70997152681954
"284"	2015-03-23	"Email"	2.30860959920831	2021	"Email"	1.65323575932829
"286"	2015-03-23	"Paid Search"	3.18943273905997	3085	"Paid Search"	1.26872949440355
"287"	2015-03-23	"Referral"	3.00398803589232	1003	"Referral"	5.93526339890481
"289"	2015-03-22	"(Other)"	6.44367088607595	474	"(Other)"	1.70997152681954
"295"	2015-03-22	"Referral"	7.41583421891605	941	"Referral"	5.93526339890481
"300"	2015-03-21	"Email"	4.41429592566119	1399	"Email"	1.65323575932829
"303"	2015-03-21	"Referral"	3.44432485322896	1022	"Referral"	5.93526339890481
"305"	2015-03-20	"(Other)"	2.60373134328358	402	"(Other)"	1.70997152681954
"308"	2015-03-20	"Email"	2.96879237288136	2360	"Email"	1.65323575932829
"311"	2015-03-20	"Referral"	3.75033621517771	1041	"Referral"	5.93526339890481
"313"	2015-03-19	"(Other)"	4.68167053364269	431	"(Other)"	1.70997152681954
"316"	2015-03-19	"Email"	3.01368421052632	1444	"Email"	1.65323575932829
"318"	2015-03-19	"Paid Search"	3.28648648648649	2590	"Paid Search"	1.26872949440355
"319"	2015-03-19	"Referral"	5.08076923076923	936	"Referral"	5.93526339890481
"321"	2015-03-18	"(Other)"	3.38502879078695	521	"(Other)"	1.70997152681954
"324"	2015-03-18	"Email"	2.34310009718173	2058	"Email"	1.65323575932829
"327"	2015-03-18	"Referral"	3.45589519650655	916	"Referral"	5.93526339890481
"331"	2015-03-17	"Display"	2.35483870967742	124	"Display"	1.03645419940066
"332"	2015-03-17	"Email"	2.64673710379117	1609	"Email"	1.65323575932829
"335"	2015-03-17	"Referral"	5.05353233830846	1005	"Referral"	5.93526339890481
"337"	2015-03-16	"(Other)"	3.55365853658537	492	"(Other)"	1.70997152681954
"340"	2015-03-16	"Email"	2.19443988510464	2437	"Email"	1.65323575932829
"343"	2015-03-16	"Referral"	3.59462151394422	1004	"Referral"	5.93526339890481
"345"	2015-03-15	"(Other)"	2.16180698151951	487	"(Other)"	1.70997152681954
"350"	2015-03-15	"Paid Search"	2.55942555298778	3029	"Paid Search"	1.26872949440355
"351"	2015-03-15	"Referral"	4.04533527696793	686	"Referral"	5.93526339890481
"352"	2015-03-15	"Social"	2.85581395348837	645	"Social"	0.80002828892421
"359"	2015-03-14	"Referral"	3.52138554216867	664	"Referral"	5.93526339890481
"367"	2015-03-13	"Referral"	5.21448687350835	838	"Referral"	5.93526339890481
"369"	2015-03-12	"(Other)"	4.67092819614711	571	"(Other)"	1.70997152681954
"371"	2015-03-12	"Display"	2.9327731092437	119	"Display"	1.03645419940066
"372"	2015-03-12	"Email"	3.00383848454636	2006	"Email"	1.65323575932829
"374"	2015-03-12	"Paid Search"	2.38040227703985	2635	"Paid Search"	1.26872949440355
"375"	2015-03-12	"Referral"	6.59185510428101	911	"Referral"	5.93526339890481
"377"	2015-03-11	"(Other)"	4.12381930184805	487	"(Other)"	1.70997152681954
"379"	2015-03-11	"Display"	3.86851851851852	108	"Display"	1.03645419940066
"381"	2015-03-11	"Organic Search"	2.39085253456221	8680	"Organic Search"	1.28210243434748
"382"	2015-03-11	"Paid Search"	2.82185264663805	2796	"Paid Search"	1.26872949440355
"383"	2015-03-11	"Referral"	7.89870517928287	1004	"Referral"	5.93526339890481
"387"	2015-03-10	"Display"	2.98181818181818	110	"Display"	1.03645419940066
"390"	2015-03-10	"Paid Search"	2.45593722238673	3377	"Paid Search"	1.26872949440355
"391"	2015-03-10	"Referral"	4.50842418235877	1009	"Referral"	5.93526339890481
"393"	2015-03-09	"(Other)"	4.9731914893617	470	"(Other)"	1.70997152681954
"395"	2015-03-09	"Display"	3.43636363636364	110	"Display"	1.03645419940066
"397"	2015-03-09	"Organic Search"	2.52012069473064	6794	"Organic Search"	1.28210243434748
"398"	2015-03-09	"Paid Search"	2.21784541927783	3351	"Paid Search"	1.26872949440355
"399"	2015-03-09	"Referral"	5.55897187196896	1031	"Referral"	5.93526339890481
"406"	2015-03-08	"Paid Search"	2.56080611535789	2878	"Paid Search"	1.26872949440355
"407"	2015-03-08	"Referral"	4.15081967213115	793	"Referral"	5.93526339890481
"412"	2015-03-07	"Email"	2.18911704312115	974	"Email"	1.65323575932829
"423"	2015-03-06	"Referral"	6.54123819517314	953	"Referral"	5.93526339890481
"424"	2015-03-06	"Social"	3.13825503355705	596	"Social"	0.80002828892421
"428"	2015-03-05	"Email"	3.47118847539016	833	"Email"	1.65323575932829
"430"	2015-03-05	"Paid Search"	2.77715593101021	2841	"Paid Search"	1.26872949440355
"431"	2015-03-05	"Referral"	5.73940486925158	1109	"Referral"	5.93526339890481
"432"	2015-03-05	"Social"	2.47270114942529	696	"Social"	0.80002828892421
"433"	2015-03-04	"(Other)"	2.69788235294118	425	"(Other)"	1.70997152681954
"435"	2015-03-04	"Display"	6.23478260869565	115	"Display"	1.03645419940066
"436"	2015-03-04	"Email"	3.67725859247136	1222	"Email"	1.65323575932829
"437"	2015-03-04	"Organic Search"	2.63900284473724	6679	"Organic Search"	1.28210243434748
"438"	2015-03-04	"Paid Search"	3.01500463105897	3239	"Paid Search"	1.26872949440355
"439"	2015-03-04	"Referral"	4.67325174825175	1144	"Referral"	5.93526339890481
"440"	2015-03-04	"Social"	2.33998905908096	914	"Social"	0.80002828892421
"441"	2015-03-03	"(Other)"	3.00911111111111	450	"(Other)"	1.70997152681954
"444"	2015-03-03	"Email"	2.37358803986711	1505	"Email"	1.65323575932829
"445"	2015-03-03	"Organic Search"	2.39300740740741	6750	"Organic Search"	1.28210243434748
"447"	2015-03-03	"Referral"	7.57773343974461	1253	"Referral"	5.93526339890481
"448"	2015-03-03	"Social"	2.34898203592814	835	"Social"	0.80002828892421
"455"	2015-03-02	"Referral"	14.6691950464396	1292	"Referral"	5.93526339890481
"463"	2015-03-01	"Referral"	13.5040019762846	1012	"Referral"	5.93526339890481
"471"	2015-02-28	"Referral"	13.0801838610827	979	"Referral"	5.93526339890481
"473"	2015-02-27	"(Other)"	3.11937321937322	351	"(Other)"	1.70997152681954
"479"	2015-02-27	"Referral"	12.4648624667258	1127	"Referral"	5.93526339890481
"487"	2015-02-26	"Referral"	13.2007026627219	1352	"Referral"	5.93526339890481
"495"	2015-02-25	"Referral"	9.70735616438356	1460	"Referral"	5.93526339890481
"503"	2015-02-24	"Referral"	10.6393838158872	1347	"Referral"	5.93526339890481
"505"	2015-02-23	"(Other)"	2.7957345971564	422	"(Other)"	1.70997152681954
"511"	2015-02-23	"Referral"	13.3551690821256	1035	"Referral"	5.93526339890481
"519"	2015-02-22	"Referral"	12.8273607748184	826	"Referral"	5.93526339890481
"527"	2015-02-21	"Referral"	10.0310954063604	849	"Referral"	5.93526339890481
"535"	2015-02-20	"Referral"	10.5654019607843	1020	"Referral"	5.93526339890481
"543"	2015-02-19	"Referral"	10.5193365384615	1040	"Referral"	5.93526339890481
"551"	2015-02-18	"Referral"	11.1216783216783	1144	"Referral"	5.93526339890481
"559"	2015-02-17	"Referral"	9.85271463614064	1223	"Referral"	5.93526339890481
"567"	2015-02-16	"Referral"	13.014381245196	1301	"Referral"	5.93526339890481
"575"	2015-02-15	"Referral"	12.7933169774289	1019	"Referral"	5.93526339890481
"583"	2015-02-14	"Referral"	11.4074755168662	919	"Referral"	5.93526339890481
"591"	2015-02-13	"Referral"	11.5901286764706	1088	"Referral"	5.93526339890481
"599"	2015-02-12	"Referral"	11.7133609958506	1205	"Referral"	5.93526339890481
"607"	2015-02-11	"Referral"	11.6640661938534	1269	"Referral"	5.93526339890481
"615"	2015-02-10	"Referral"	11.3466666666667	1305	"Referral"	5.93526339890481
"623"	2015-02-09	"Referral"	12.3606888361045	1263	"Referral"	5.93526339890481
"631"	2015-02-08	"Referral"	11.4180830039526	1012	"Referral"	5.93526339890481
"639"	2015-02-07	"Referral"	10.2409454545455	825	"Referral"	5.93526339890481
"647"	2015-02-06	"Referral"	10.0696090047393	844	"Referral"	5.93526339890481
"655"	2015-02-05	"Referral"	12.9251066098081	938	"Referral"	5.93526339890481
"663"	2015-02-04	"Referral"	11.2742456896552	928	"Referral"	5.93526339890481
"665"	2015-02-03	"(Other)"	2.74438725490196	408	"(Other)"	1.70997152681954
"671"	2015-02-03	"Referral"	11.6189638318671	1023	"Referral"	5.93526339890481
"679"	2015-02-02	"Referral"	12.7814135514019	856	"Referral"	5.93526339890481
"683"	2015-02-01	"Display"	2.2247191011236	178	"Display"	1.03645419940066
"687"	2015-02-01	"Referral"	13.8783559577677	663	"Referral"	5.93526339890481
"691"	2015-01-31	"Display"	2.20355029585799	169	"Display"	1.03645419940066
"695"	2015-01-31	"Referral"	9.47630331753555	633	"Referral"	5.93526339890481
"703"	2015-01-30	"Referral"	9.31503355704698	745	"Referral"	5.93526339890481
"705"	2015-01-29	"(Other)"	2.31945288753799	329	"(Other)"	1.70997152681954
"711"	2015-01-29	"Referral"	10.6055070603338	779	"Referral"	5.93526339890481
"719"	2015-01-28	"Referral"	11.7492012779553	939	"Referral"	5.93526339890481
"721"	2015-01-27	"(Other)"	2.26767676767677	297	"(Other)"	1.70997152681954
"727"	2015-01-27	"Referral"	10.627652284264	788	"Referral"	5.93526339890481
