"date"	"operatingSystem"	"revenuePerUser"	"users"	"cat"	"pred_RPU"
"1"	2015-04-05	"(not set)"	0	25	"| Other |"	0.762127559548688
"2"	2015-04-05	"Android"	1.06262248654772	3531	"Android"	1.09780239690767
"3"	2015-04-05	"BlackBerry"	0	10	"| Other |"	0.762127559548688
"4"	2015-04-05	"Chrome OS"	0	30	"| Other |"	0.762127559548688
"5"	2015-04-05	"Linux"	0	71	"Linux"	1.51151449275363
"7"	2015-04-05	"Series40"	0	1	"| Other |"	0.762127559548688
"8"	2015-04-05	"SymbianOS"	0	1	"| Other |"	0.762127559548688
"10"	2015-04-05	"Windows Phone"	0	88	"| Other |"	0.762127559548688
"11"	2015-04-05	"Xbox"	0	4	"| Other |"	0.762127559548688
"12"	2015-04-05	"iOS"	1.57473690053286	9008	"iOS"	1.32942100055481
"13"	2015-04-04	"(not set)"	0	8	"| Other |"	0.762127559548688
"14"	2015-04-04	"Android"	1.62182605273514	5082	"Android"	1.09780239690767
"15"	2015-04-04	"BlackBerry"	0	15	"| Other |"	0.762127559548688
"17"	2015-04-04	"Linux"	1.13636363636364	88	"Linux"	1.51151449275363
"19"	2015-04-04	"Series40"	0	1	"| Other |"	0.762127559548688
"21"	2015-04-04	"Windows Phone"	0.87962962962963	108	"| Other |"	0.762127559548688
"22"	2015-04-04	"Xbox"	0	4	"| Other |"	0.762127559548688
"23"	2015-04-04	"iOS"	1.69769369228361	12778	"iOS"	1.32942100055481
"24"	2015-04-03	"(not set)"	0	20	"| Other |"	0.762127559548688
"25"	2015-04-03	"Android"	1.46722957014643	4234	"Android"	1.09780239690767
"26"	2015-04-03	"BlackBerry"	0	13	"| Other |"	0.762127559548688
"28"	2015-04-03	"Firefox OS"	0	1	"| Other |"	0.762127559548688
"29"	2015-04-03	"Linux"	0	115	"Linux"	1.51151449275363
"31"	2015-04-03	"Playstation 3"	0	1	"| Other |"	0.762127559548688
"32"	2015-04-03	"SymbianOS"	0	1	"| Other |"	0.762127559548688
"34"	2015-04-03	"Windows Phone"	0	82	"| Other |"	0.762127559548688
"35"	2015-04-03	"Xbox"	0	2	"| Other |"	0.762127559548688
"36"	2015-04-03	"iOS"	1.61309446855665	10829	"iOS"	1.32942100055481
"37"	2015-04-02	"(not set)"	0	19	"| Other |"	0.762127559548688
"38"	2015-04-02	"Android"	1.17945300290243	4479	"Android"	1.09780239690767
"39"	2015-04-02	"BlackBerry"	0	14	"| Other |"	0.762127559548688
"40"	2015-04-02	"Chrome OS"	0	41	"| Other |"	0.762127559548688
"41"	2015-04-02	"Linux"	1.76991150442478	113	"Linux"	1.51151449275363
"43"	2015-04-02	"Nintendo Wii"	0	2	"| Other |"	0.762127559548688
"44"	2015-04-02	"Series40"	0	1	"| Other |"	0.762127559548688
"45"	2015-04-02	"SunOS"	0	1	"| Other |"	0.762127559548688
"46"	2015-04-02	"SymbianOS"	0	1	"| Other |"	0.762127559548688
"49"	2015-04-02	"Xbox"	0	1	"| Other |"	0.762127559548688
"50"	2015-04-02	"iOS"	1.54152615007871	11434	"iOS"	1.32942100055481
"51"	2015-04-01	"(not set)"	0	19	"| Other |"	0.762127559548688
"52"	2015-04-01	"Android"	1.57274123309649	4363	"Android"	1.09780239690767
"53"	2015-04-01	"BlackBerry"	0	20	"| Other |"	0.762127559548688
"55"	2015-04-01	"Linux"	1.73076923076923	104	"Linux"	1.51151449275363
"57"	2015-04-01	"Nintendo Wii"	0	1	"| Other |"	0.762127559548688
"58"	2015-04-01	"Series40"	0	1	"| Other |"	0.762127559548688
"60"	2015-04-01	"Windows Phone"	0	87	"| Other |"	0.762127559548688
"61"	2015-04-01	"Xbox"	0	5	"| Other |"	0.762127559548688
"62"	2015-04-01	"iOS"	1.6273148467103	11612	"iOS"	1.32942100055481
"63"	2015-03-31	"(not set)"	0	16	"| Other |"	0.762127559548688
"64"	2015-03-31	"Android"	1.32088162251656	4832	"Android"	1.09780239690767
"65"	2015-03-31	"BlackBerry"	0	25	"| Other |"	0.762127559548688
"66"	2015-03-31	"Chrome OS"	0	72	"| Other |"	0.762127559548688
"67"	2015-03-31	"Linux"	1.70454545454545	132	"Linux"	1.51151449275363
"69"	2015-03-31	"SunOS"	0	1	"| Other |"	0.762127559548688
"70"	2015-03-31	"SymbianOS"	0	1	"| Other |"	0.762127559548688
"72"	2015-03-31	"Windows Phone"	0.940594059405941	101	"| Other |"	0.762127559548688
"73"	2015-03-31	"Xbox"	0	3	"| Other |"	0.762127559548688
"74"	2015-03-31	"iOS"	1.31688760379597	13488	"iOS"	1.32942100055481
"75"	2015-03-30	"(not set)"	0	15	"| Other |"	0.762127559548688
"76"	2015-03-30	"Android"	1.1177205408886	4659	"Android"	1.09780239690767
"77"	2015-03-30	"BlackBerry"	0	18	"| Other |"	0.762127559548688
"78"	2015-03-30	"Chrome OS"	0.491803278688525	61	"| Other |"	0.762127559548688
"79"	2015-03-30	"Linux"	0.871559633027523	109	"Linux"	1.51151449275363
"81"	2015-03-30	"OpenBSD"	0	1	"| Other |"	0.762127559548688
"82"	2015-03-30	"Series40"	0	2	"| Other |"	0.762127559548688
"84"	2015-03-30	"Windows Phone"	0.940594059405941	101	"| Other |"	0.762127559548688
"85"	2015-03-30	"Xbox"	0	1	"| Other |"	0.762127559548688
"86"	2015-03-30	"iOS"	1.62421632996633	11880	"iOS"	1.32942100055481
"87"	2015-03-29	"(not set)"	0	8	"| Other |"	0.762127559548688
"88"	2015-03-29	"Android"	0.937319785802554	7283	"Android"	1.09780239690767
"90"	2015-03-29	"Chrome OS"	0	71	"| Other |"	0.762127559548688
"92"	2015-03-29	"Google TV"	0	1	"| Other |"	0.762127559548688
"95"	2015-03-29	"Nintendo Wii"	0	1	"| Other |"	0.762127559548688
"96"	2015-03-29	"Series40"	0	1	"| Other |"	0.762127559548688
"98"	2015-03-29	"Windows Phone"	0	208	"| Other |"	0.762127559548688
"99"	2015-03-29	"Xbox"	0	1	"| Other |"	0.762127559548688
"100"	2015-03-29	"iOS"	1.07519195388201	16306	"iOS"	1.32942100055481
"101"	2015-03-28	"(not set)"	0	11	"| Other |"	0.762127559548688
"102"	2015-03-28	"Android"	1.13001088731628	5511	"Android"	1.09780239690767
"103"	2015-03-28	"BlackBerry"	0	22	"| Other |"	0.762127559548688
"105"	2015-03-28	"FreeBSD"	0	3	"| Other |"	0.762127559548688
"108"	2015-03-28	"SymbianOS"	0	2	"| Other |"	0.762127559548688
"110"	2015-03-28	"Windows Phone"	0	127	"| Other |"	0.762127559548688
"111"	2015-03-28	"iOS"	1.33704679726368	12864	"iOS"	1.32942100055481
"112"	2015-03-27	"(not set)"	0	20	"| Other |"	0.762127559548688
"113"	2015-03-27	"Android"	1.2485635989952	4379	"Android"	1.09780239690767
"114"	2015-03-27	"BlackBerry"	0	18	"| Other |"	0.762127559548688
"117"	2015-03-27	"Linux"	1.11764705882353	85	"Linux"	1.51151449275363
"119"	2015-03-27	"Series40"	0	1	"| Other |"	0.762127559548688
"121"	2015-03-27	"Windows Phone"	1.02803738317757	107	"| Other |"	0.762127559548688
"122"	2015-03-27	"Xbox"	0	2	"| Other |"	0.762127559548688
"123"	2015-03-27	"iOS"	1.52568868014953	10433	"iOS"	1.32942100055481
"124"	2015-03-26	"(not set)"	0	18	"| Other |"	0.762127559548688
"125"	2015-03-26	"Android"	1.1146581769437	5968	"Android"	1.09780239690767
"126"	2015-03-26	"BlackBerry"	0	28	"| Other |"	0.762127559548688
"127"	2015-03-26	"Chrome OS"	1.72131147540984	61	"| Other |"	0.762127559548688
"130"	2015-03-26	"Series40"	0	2	"| Other |"	0.762127559548688
"131"	2015-03-26	"SymbianOS"	0	1	"| Other |"	0.762127559548688
"133"	2015-03-26	"Windows Phone"	0.565476190476191	168	"| Other |"	0.762127559548688
"134"	2015-03-26	"iOS"	1.19871045436792	15362	"iOS"	1.32942100055481
"135"	2015-03-25	"(not set)"	0	13	"| Other |"	0.762127559548688
"136"	2015-03-25	"Android"	0.75645783847981	6736	"Android"	1.09780239690767
"137"	2015-03-25	"BlackBerry"	0	44	"| Other |"	0.762127559548688
"138"	2015-03-25	"Chrome OS"	1.15853658536585	82	"| Other |"	0.762127559548688
"139"	2015-03-25	"FreeBSD"	0	1	"| Other |"	0.762127559548688
"140"	2015-03-25	"Linux"	0.886363636363636	220	"Linux"	1.51151449275363
"142"	2015-03-25	"Playstation Vita"	0	1	"| Other |"	0.762127559548688
"144"	2015-03-25	"Windows Phone"	0.782312925170068	147	"| Other |"	0.762127559548688
"145"	2015-03-25	"Xbox"	0	1	"| Other |"	0.762127559548688
"146"	2015-03-25	"iOS"	1.13448050759563	16391	"iOS"	1.32942100055481
"147"	2015-03-24	"(not set)"	0	30	"| Other |"	0.762127559548688
"148"	2015-03-24	"Android"	1.04968340038482	5717	"Android"	1.09780239690767
"150"	2015-03-24	"Chrome OS"	0	53	"| Other |"	0.762127559548688
"151"	2015-03-24	"Linux"	1.35416666666667	96	"Linux"	1.51151449275363
"153"	2015-03-24	"Nokia"	0	1	"| Other |"	0.762127559548688
"154"	2015-03-24	"Samsung"	0	1	"| Other |"	0.762127559548688
"155"	2015-03-24	"Series40"	0	2	"| Other |"	0.762127559548688
"156"	2015-03-24	"SymbianOS"	0	1	"| Other |"	0.762127559548688
"158"	2015-03-24	"Windows Phone"	0	139	"| Other |"	0.762127559548688
"159"	2015-03-24	"Xbox"	0	1	"| Other |"	0.762127559548688
"160"	2015-03-24	"iOS"	1.13537545388526	13770	"iOS"	1.32942100055481
"161"	2015-03-23	"(not set)"	0	8	"| Other |"	0.762127559548688
"162"	2015-03-23	"Android"	1.39851155503329	5106	"Android"	1.09780239690767
"163"	2015-03-23	"BlackBerry"	0	20	"| Other |"	0.762127559548688
"164"	2015-03-23	"Chrome OS"	1.75925925925926	54	"| Other |"	0.762127559548688
"165"	2015-03-23	"Firefox OS"	0	1	"| Other |"	0.762127559548688
"166"	2015-03-23	"Linux"	0	105	"Linux"	1.51151449275363
"168"	2015-03-23	"Playstation Vita"	0	1	"| Other |"	0.762127559548688
"169"	2015-03-23	"UNIX"	0	1	"| Other |"	0.762127559548688
"171"	2015-03-23	"Windows Phone"	0.7421875	128	"| Other |"	0.762127559548688
"172"	2015-03-23	"Xbox"	0	1	"| Other |"	0.762127559548688
"173"	2015-03-23	"iOS"	1.36330336330336	12012	"iOS"	1.32942100055481
"174"	2015-03-22	"(not set)"	0	19	"| Other |"	0.762127559548688
"175"	2015-03-22	"Android"	1.06818726016884	6515	"Android"	1.09780239690767
"176"	2015-03-22	"BlackBerry"	0	23	"| Other |"	0.762127559548688
"178"	2015-03-22	"Firefox OS"	0	2	"| Other |"	0.762127559548688
"179"	2015-03-22	"Linux"	0	86	"Linux"	1.51151449275363
"181"	2015-03-22	"Samsung"	0	1	"| Other |"	0.762127559548688
"182"	2015-03-22	"Series40"	0	1	"| Other |"	0.762127559548688
"183"	2015-03-22	"SymbianOS"	0	1	"| Other |"	0.762127559548688
"185"	2015-03-22	"Windows Phone"	0	155	"| Other |"	0.762127559548688
"186"	2015-03-22	"Xbox"	0	2	"| Other |"	0.762127559548688
"187"	2015-03-22	"iOS"	1.20929923273657	15640	"iOS"	1.32942100055481
"188"	2015-03-21	"(not set)"	0	12	"| Other |"	0.762127559548688
"189"	2015-03-21	"Android"	0.894663358147229	6045	"Android"	1.09780239690767
"190"	2015-03-21	"BlackBerry"	0	28	"| Other |"	0.762127559548688
"191"	2015-03-21	"Chrome OS"	0	51	"| Other |"	0.762127559548688
"192"	2015-03-21	"Firefox OS"	0	2	"| Other |"	0.762127559548688
"193"	2015-03-21	"Google TV"	0	1	"| Other |"	0.762127559548688
"194"	2015-03-21	"Linux"	0	92	"Linux"	1.51151449275363
"197"	2015-03-21	"Windows Phone"	0	147	"| Other |"	0.762127559548688
"198"	2015-03-21	"Xbox"	0	2	"| Other |"	0.762127559548688
"199"	2015-03-21	"iOS"	0.989900613660619	14992	"iOS"	1.32942100055481
"200"	2015-03-20	"(not set)"	0	21	"| Other |"	0.762127559548688
"201"	2015-03-20	"Android"	0.871314420803783	4230	"Android"	1.09780239690767
"202"	2015-03-20	"BlackBerry"	0	20	"| Other |"	0.762127559548688
"203"	2015-03-20	"Chrome OS"	1.90375	48	"| Other |"	0.762127559548688
"207"	2015-03-20	"Windows Phone"	0	110	"| Other |"	0.762127559548688
"208"	2015-03-20	"Xbox"	0	1	"| Other |"	0.762127559548688
"209"	2015-03-20	"iOS"	1.64842051595799	9807	"iOS"	1.32942100055481
"210"	2015-03-19	"(not set)"	0	15	"| Other |"	0.762127559548688
"211"	2015-03-19	"Android"	1.3125	4344	"Android"	1.09780239690767
"212"	2015-03-19	"BlackBerry"	0	14	"| Other |"	0.762127559548688
"213"	2015-03-19	"Chrome OS"	1.86274509803922	51	"| Other |"	0.762127559548688
"217"	2015-03-19	"Windows Phone"	0	89	"| Other |"	0.762127559548688
"219"	2015-03-19	"iOS"	1.47292456442657	10446	"iOS"	1.32942100055481
"220"	2015-03-18	"(not set)"	0	26	"| Other |"	0.762127559548688
"221"	2015-03-18	"Android"	1.2983903705452	4237	"Android"	1.09780239690767
"222"	2015-03-18	"BlackBerry"	0	11	"| Other |"	0.762127559548688
"223"	2015-03-18	"Chrome OS"	0	45	"| Other |"	0.762127559548688
"224"	2015-03-18	"Firefox OS"	0	1	"| Other |"	0.762127559548688
"227"	2015-03-18	"Series40"	0	2	"| Other |"	0.762127559548688
"228"	2015-03-18	"SymbianOS"	0	1	"| Other |"	0.762127559548688
"230"	2015-03-18	"Windows Phone"	0	91	"| Other |"	0.762127559548688
"231"	2015-03-18	"Xbox"	0	1	"| Other |"	0.762127559548688
"232"	2015-03-18	"iOS"	1.45863390170512	9970	"iOS"	1.32942100055481
"233"	2015-03-17	"(not set)"	0	8	"| Other |"	0.762127559548688
"234"	2015-03-17	"Android"	1.22538048343778	4468	"Android"	1.09780239690767
"235"	2015-03-17	"Bada"	0	1	"| Other |"	0.762127559548688
"236"	2015-03-17	"BlackBerry"	0	23	"| Other |"	0.762127559548688
"240"	2015-03-17	"Playstation Vita"	0	1	"| Other |"	0.762127559548688
"242"	2015-03-17	"Windows Phone"	0	101	"| Other |"	0.762127559548688
"243"	2015-03-17	"iOS"	1.45903575297941	10153	"iOS"	1.32942100055481
"244"	2015-03-16	"(not set)"	0	18	"| Other |"	0.762127559548688
"245"	2015-03-16	"Android"	1.17992770234527	5671	"Android"	1.09780239690767
"246"	2015-03-16	"Bada"	0	1	"| Other |"	0.762127559548688
"247"	2015-03-16	"BlackBerry"	0	28	"| Other |"	0.762127559548688
"248"	2015-03-16	"Chrome OS"	0	50	"| Other |"	0.762127559548688
"249"	2015-03-16	"Linux"	1.02150537634409	93	"Linux"	1.51151449275363
"251"	2015-03-16	"Nintendo Wii"	0	1	"| Other |"	0.762127559548688
"252"	2015-03-16	"SymbianOS"	0	3	"| Other |"	0.762127559548688
"254"	2015-03-16	"Windows Phone"	0	185	"| Other |"	0.762127559548688
"255"	2015-03-16	"iOS"	1.66208712962254	13061	"iOS"	1.32942100055481
"256"	2015-03-15	"(not set)"	0	16	"| Other |"	0.762127559548688
"257"	2015-03-15	"Android"	1.00167325201855	5821	"Android"	1.09780239690767
"258"	2015-03-15	"BlackBerry"	0	18	"| Other |"	0.762127559548688
"259"	2015-03-15	"Chrome OS"	0	49	"| Other |"	0.762127559548688
"260"	2015-03-15	"Firefox OS"	0	1	"| Other |"	0.762127559548688
"261"	2015-03-15	"Linux"	0	79	"Linux"	1.51151449275363
"263"	2015-03-15	"Nintendo Wii"	0	2	"| Other |"	0.762127559548688
"264"	2015-03-15	"Series40"	0	1	"| Other |"	0.762127559548688
"266"	2015-03-15	"Windows Phone"	0	135	"| Other |"	0.762127559548688
"267"	2015-03-15	"iOS"	1.66441402908469	14028	"iOS"	1.32942100055481
"268"	2015-03-14	"(not set)"	0	19	"| Other |"	0.762127559548688
"269"	2015-03-14	"Android"	1.14813159528243	6444	"Android"	1.09780239690767
"270"	2015-03-14	"BlackBerry"	0	22	"| Other |"	0.762127559548688
"272"	2015-03-14	"Linux"	0	82	"Linux"	1.51151449275363
"274"	2015-03-14	"Playstation 3"	0	1	"| Other |"	0.762127559548688
"275"	2015-03-14	"Series40"	0	2	"| Other |"	0.762127559548688
"277"	2015-03-14	"Windows Phone"	0	161	"| Other |"	0.762127559548688
"278"	2015-03-14	"iOS"	1.38426086328858	13854	"iOS"	1.32942100055481
"279"	2015-03-13	"(not set)"	0	18	"| Other |"	0.762127559548688
"280"	2015-03-13	"Android"	1.50894928311577	4673	"Android"	1.09780239690767
"281"	2015-03-13	"BlackBerry"	0	25	"| Other |"	0.762127559548688
"282"	2015-03-13	"Chrome OS"	0	57	"| Other |"	0.762127559548688
"283"	2015-03-13	"Linux"	0	76	"Linux"	1.51151449275363
"285"	2015-03-13	"Samsung"	0	1	"| Other |"	0.762127559548688
"287"	2015-03-13	"Windows Phone"	0	113	"| Other |"	0.762127559548688
"288"	2015-03-13	"iOS"	1.60198818368991	11171	"iOS"	1.32942100055481
"289"	2015-03-12	"(not set)"	0	33	"| Other |"	0.762127559548688
"290"	2015-03-12	"Android"	1.29244141252006	6230	"Android"	1.09780239690767
"293"	2015-03-12	"Linux"	0.91304347826087	115	"Linux"	1.51151449275363
"295"	2015-03-12	"Series40"	0	1	"| Other |"	0.762127559548688
"296"	2015-03-12	"SunOS"	0	1	"| Other |"	0.762127559548688
"298"	2015-03-12	"Windows Phone"	0	156	"| Other |"	0.762127559548688
"299"	2015-03-12	"Xbox"	0	1	"| Other |"	0.762127559548688
"300"	2015-03-12	"iOS"	1.24227368569019	14228	"iOS"	1.32942100055481
"301"	2015-03-11	"(not set)"	0	14	"| Other |"	0.762127559548688
"302"	2015-03-11	"Android"	1.08053175210406	5228	"Android"	1.09780239690767
"303"	2015-03-11	"BlackBerry"	0	14	"| Other |"	0.762127559548688
"304"	2015-03-11	"Chrome OS"	0	55	"| Other |"	0.762127559548688
"305"	2015-03-11	"Linux"	0.931372549019608	102	"Linux"	1.51151449275363
"307"	2015-03-11	"SymbianOS"	0	2	"| Other |"	0.762127559548688
"309"	2015-03-11	"Windows Phone"	0	111	"| Other |"	0.762127559548688
"310"	2015-03-11	"Xbox"	0	1	"| Other |"	0.762127559548688
"311"	2015-03-11	"iOS"	1.35440248640249	12870	"iOS"	1.32942100055481
"312"	2015-03-10	"(not set)"	0	21	"| Other |"	0.762127559548688
"313"	2015-03-10	"Android"	0.93115701242329	6681	"Android"	1.09780239690767
"314"	2015-03-10	"BlackBerry"	0	23	"| Other |"	0.762127559548688
"315"	2015-03-10	"Chrome OS"	0	57	"| Other |"	0.762127559548688
"316"	2015-03-10	"FreeBSD"	0	1	"| Other |"	0.762127559548688
"317"	2015-03-10	"Linux"	1.74318181818182	110	"Linux"	1.51151449275363
"319"	2015-03-10	"Nintendo Wii"	0	1	"| Other |"	0.762127559548688
"321"	2015-03-10	"Windows Phone"	1.58420289855072	138	"| Other |"	0.762127559548688
"322"	2015-03-10	"iOS"	1.40957966505593	15107	"iOS"	1.32942100055481
"323"	2015-03-09	"(not set)"	0	10	"| Other |"	0.762127559548688
"324"	2015-03-09	"Android"	1.05022051902649	7437	"Android"	1.09780239690767
"325"	2015-03-09	"BlackBerry"	0	22	"| Other |"	0.762127559548688
"327"	2015-03-09	"Firefox OS"	0	1	"| Other |"	0.762127559548688
"328"	2015-03-09	"Linux"	0	112	"Linux"	1.51151449275363
"330"	2015-03-09	"Nokia"	0	1	"| Other |"	0.762127559548688
"331"	2015-03-09	"Playstation 3"	0	1	"| Other |"	0.762127559548688
"332"	2015-03-09	"Series40"	0	4	"| Other |"	0.762127559548688
"335"	2015-03-09	"Xbox"	0	2	"| Other |"	0.762127559548688
"336"	2015-03-09	"iOS"	1.26847265976598	17776	"iOS"	1.32942100055481
"337"	2015-03-08	"(not set)"	0	27	"| Other |"	0.762127559548688
"338"	2015-03-08	"Android"	0.974062463170301	8485	"Android"	1.09780239690767
"339"	2015-03-08	"BlackBerry"	0	33	"| Other |"	0.762127559548688
"340"	2015-03-08	"Chrome OS"	1.56716417910448	67	"| Other |"	0.762127559548688
"343"	2015-03-08	"Nintendo Wii"	0	1	"| Other |"	0.762127559548688
"344"	2015-03-08	"Series40"	0	1	"| Other |"	0.762127559548688
"346"	2015-03-08	"Windows Phone"	0	145	"| Other |"	0.762127559548688
"347"	2015-03-08	"Xbox"	0	3	"| Other |"	0.762127559548688
"348"	2015-03-08	"iOS"	1.24083068783069	18900	"iOS"	1.32942100055481
"349"	2015-03-07	"(not set)"	0	19	"| Other |"	0.762127559548688
"350"	2015-03-07	"Android"	0.677395456652758	10785	"Android"	1.09780239690767
"351"	2015-03-07	"BlackBerry"	0	27	"| Other |"	0.762127559548688
"353"	2015-03-07	"Linux"	0	117	"Linux"	1.51151449275363
"356"	2015-03-07	"Windows Phone"	0	243	"| Other |"	0.762127559548688
"357"	2015-03-07	"Xbox"	0	3	"| Other |"	0.762127559548688
"358"	2015-03-07	"iOS"	1.08019846943066	23782	"iOS"	1.32942100055481
"359"	2015-03-06	"(not set)"	0	15	"| Other |"	0.762127559548688
"360"	2015-03-06	"Android"	1.12932319391635	7890	"Android"	1.09780239690767
"361"	2015-03-06	"BlackBerry"	0	26	"| Other |"	0.762127559548688
"362"	2015-03-06	"Chrome OS"	0	56	"| Other |"	0.762127559548688
"365"	2015-03-06	"Samsung"	0	1	"| Other |"	0.762127559548688
"367"	2015-03-06	"Windows Phone"	0	144	"| Other |"	0.762127559548688
"368"	2015-03-06	"iOS"	1.30378881016879	19196	"iOS"	1.32942100055481
"369"	2015-03-05	"(not set)"	0	17	"| Other |"	0.762127559548688
"370"	2015-03-05	"Android"	1.07377775461274	9593	"Android"	1.09780239690767
"372"	2015-03-05	"Chrome OS"	1.69230769230769	65	"| Other |"	0.762127559548688
"373"	2015-03-05	"Google TV"	0	1	"| Other |"	0.762127559548688
"374"	2015-03-05	"Linux"	1.5748031496063	127	"Linux"	1.51151449275363
"376"	2015-03-05	"Samsung"	0	1	"| Other |"	0.762127559548688
"377"	2015-03-05	"Series40"	0	1	"| Other |"	0.762127559548688
"378"	2015-03-05	"SymbianOS"	0	1	"| Other |"	0.762127559548688
"380"	2015-03-05	"Windows Phone"	0	181	"| Other |"	0.762127559548688
"381"	2015-03-05	"Xbox"	0	2	"| Other |"	0.762127559548688
"382"	2015-03-05	"iOS"	1.11976019931486	22477	"iOS"	1.32942100055481
"383"	2015-03-04	"(not set)"	0	4	"| Other |"	0.762127559548688
"384"	2015-03-04	"Android"	1.18007914438503	4675	"Android"	1.09780239690767
"385"	2015-03-04	"BlackBerry"	0	11	"| Other |"	0.762127559548688
"389"	2015-03-04	"Nintendo Wii"	0	1	"| Other |"	0.762127559548688
"390"	2015-03-04	"Series40"	0	1	"| Other |"	0.762127559548688
"391"	2015-03-04	"SymbianOS"	0	1	"| Other |"	0.762127559548688
"393"	2015-03-04	"Windows Phone"	0	90	"| Other |"	0.762127559548688
"394"	2015-03-04	"Xbox"	0	1	"| Other |"	0.762127559548688
"395"	2015-03-04	"iOS"	1.3234606952709	12772	"iOS"	1.32942100055481
"396"	2015-03-03	"(not set)"	0	8	"| Other |"	0.762127559548688
"397"	2015-03-03	"Android"	1.15564028180688	4826	"Android"	1.09780239690767
"398"	2015-03-03	"Bada"	0	1	"| Other |"	0.762127559548688
"399"	2015-03-03	"BlackBerry"	0	11	"| Other |"	0.762127559548688
"400"	2015-03-03	"Chrome OS"	0	55	"| Other |"	0.762127559548688
"403"	2015-03-03	"SymbianOS"	0	1	"| Other |"	0.762127559548688
"405"	2015-03-03	"Windows Phone"	0	128	"| Other |"	0.762127559548688
"406"	2015-03-03	"Xbox"	0	1	"| Other |"	0.762127559548688
"407"	2015-03-03	"iOS"	1.57682691534689	12439	"iOS"	1.32942100055481
"408"	2015-03-02	"(not set)"	0	13	"| Other |"	0.762127559548688
"409"	2015-03-02	"Android"	1.28280469341408	5284	"Android"	1.09780239690767
"410"	2015-03-02	"BlackBerry"	0	14	"| Other |"	0.762127559548688
"414"	2015-03-02	"SymbianOS"	0	1	"| Other |"	0.762127559548688
"416"	2015-03-02	"Windows Phone"	0.763888888888889	144	"| Other |"	0.762127559548688
"417"	2015-03-02	"iOS"	1.24623863949325	14524	"iOS"	1.32942100055481
"418"	2015-03-01	"(not set)"	0	11	"| Other |"	0.762127559548688
"419"	2015-03-01	"Android"	1.15866472680246	6186	"Android"	1.09780239690767
"420"	2015-03-01	"BlackBerry"	0	21	"| Other |"	0.762127559548688
"424"	2015-03-01	"Nintendo Wii"	0	1	"| Other |"	0.762127559548688
"426"	2015-03-01	"Windows Phone"	0.728476821192053	151	"| Other |"	0.762127559548688
"427"	2015-03-01	"iOS"	1.61060518924702	14954	"iOS"	1.32942100055481
"428"	2015-02-28	"(not set)"	0	10	"| Other |"	0.762127559548688
"429"	2015-02-28	"Android"	0.902465227817746	6255	"Android"	1.09780239690767
"430"	2015-02-28	"BlackBerry"	0	23	"| Other |"	0.762127559548688
"432"	2015-02-28	"Linux"	0	60	"Linux"	1.51151449275363
"434"	2015-02-28	"Series40"	0	1	"| Other |"	0.762127559548688
"436"	2015-02-28	"Windows Phone"	0	179	"| Other |"	0.762127559548688
"437"	2015-02-28	"Xbox"	0	2	"| Other |"	0.762127559548688
"438"	2015-02-28	"iOS"	1.30236188681785	14861	"iOS"	1.32942100055481
"439"	2015-02-27	"(not set)"	0	7	"| Other |"	0.762127559548688
"440"	2015-02-27	"Android"	0.920219713152273	6554	"Android"	1.09780239690767
"441"	2015-02-27	"BlackBerry"	0	18	"| Other |"	0.762127559548688
"442"	2015-02-27	"Chrome OS"	0	41	"| Other |"	0.762127559548688
"443"	2015-02-27	"Linux"	1.09195402298851	87	"Linux"	1.51151449275363
"445"	2015-02-27	"Nintendo Wii"	0	1	"| Other |"	0.762127559548688
"446"	2015-02-27	"Samsung"	0	1	"| Other |"	0.762127559548688
"447"	2015-02-27	"Series40"	0	2	"| Other |"	0.762127559548688
"449"	2015-02-27	"Windows Phone"	1.50326797385621	153	"| Other |"	0.762127559548688
"450"	2015-02-27	"iOS"	1.69616888085136	14377	"iOS"	1.32942100055481
"451"	2015-02-26	"(not set)"	0	16	"| Other |"	0.762127559548688
"452"	2015-02-26	"Android"	1.0063393107313	7138	"Android"	1.09780239690767
"453"	2015-02-26	"BlackBerry"	0	39	"| Other |"	0.762127559548688
"454"	2015-02-26	"Chrome OS"	0	84	"| Other |"	0.762127559548688
"455"	2015-02-26	"Linux"	0.555555555555555	261	"Linux"	1.51151449275363
"457"	2015-02-26	"Series40"	0	1	"| Other |"	0.762127559548688
"459"	2015-02-26	"Windows Phone"	0.616883116883117	154	"| Other |"	0.762127559548688
"460"	2015-02-26	"iOS"	1.13831262692629	16742	"iOS"	1.32942100055481
"461"	2015-02-25	"(not set)"	0	18	"| Other |"	0.762127559548688
"462"	2015-02-25	"Android"	1.06398728428701	6606	"Android"	1.09780239690767
"463"	2015-02-25	"BlackBerry"	0	11	"| Other |"	0.762127559548688
"468"	2015-02-25	"Windows Phone"	0	126	"| Other |"	0.762127559548688
"469"	2015-02-25	"Xbox"	0	1	"| Other |"	0.762127559548688
"470"	2015-02-25	"iOS"	1.32265763722377	15431	"iOS"	1.32942100055481
"471"	2015-02-24	"(not set)"	0	13	"| Other |"	0.762127559548688
"472"	2015-02-24	"Android"	1.17465914433474	6381	"Android"	1.09780239690767
"473"	2015-02-24	"BlackBerry"	0	27	"| Other |"	0.762127559548688
"474"	2015-02-24	"Chrome OS"	0	47	"| Other |"	0.762127559548688
"475"	2015-02-24	"Linux"	0	87	"Linux"	1.51151449275363
"477"	2015-02-24	"Playstation 3"	0	1	"| Other |"	0.762127559548688
"478"	2015-02-24	"Series40"	0	2	"| Other |"	0.762127559548688
"480"	2015-02-24	"Windows Phone"	0	148	"| Other |"	0.762127559548688
"481"	2015-02-24	"iOS"	1.09025729507204	16518	"iOS"	1.32942100055481
"483"	2015-02-23	"Android"	0.624541228284805	8174	"Android"	1.09780239690767
"484"	2015-02-23	"Bada"	0	1	"| Other |"	0.762127559548688
"485"	2015-02-23	"BlackBerry"	0	20	"| Other |"	0.762127559548688
"486"	2015-02-23	"Chrome OS"	1.79176470588235	51	"| Other |"	0.762127559548688
"487"	2015-02-23	"Firefox OS"	0	1	"| Other |"	0.762127559548688
"488"	2015-02-23	"LG"	0	1	"| Other |"	0.762127559548688
"491"	2015-02-23	"Playstation 3"	0	2	"| Other |"	0.762127559548688
"492"	2015-02-23	"Series40"	0	1	"| Other |"	0.762127559548688
"494"	2015-02-23	"Windows Phone"	0	211	"| Other |"	0.762127559548688
"495"	2015-02-23	"iOS"	0.88014000890516	20213	"iOS"	1.32942100055481
"496"	2015-02-22	"(not set)"	0	19	"| Other |"	0.762127559548688
"497"	2015-02-22	"Android"	0.735509499136442	9843	"Android"	1.09780239690767
"498"	2015-02-22	"BlackBerry"	0	29	"| Other |"	0.762127559548688
"500"	2015-02-22	"Firefox OS"	0	1	"| Other |"	0.762127559548688
"504"	2015-02-22	"SymbianOS"	0	2	"| Other |"	0.762127559548688
"506"	2015-02-22	"Windows Phone"	0	273	"| Other |"	0.762127559548688
"507"	2015-02-22	"iOS"	1.18335868133735	23539	"iOS"	1.32942100055481
"508"	2015-02-21	"(not set)"	0	7	"| Other |"	0.762127559548688
"509"	2015-02-21	"Android"	0.924562490554632	6617	"Android"	1.09780239690767
"510"	2015-02-21	"BlackBerry"	0	22	"| Other |"	0.762127559548688
"513"	2015-02-21	"FreeBSD"	0	1	"| Other |"	0.762127559548688
"514"	2015-02-21	"Linux"	0	84	"Linux"	1.51151449275363
"516"	2015-02-21	"Nintendo Wii"	0	1	"| Other |"	0.762127559548688
"518"	2015-02-21	"Windows Phone"	0	150	"| Other |"	0.762127559548688
"519"	2015-02-21	"Xbox"	0	1	"| Other |"	0.762127559548688
"520"	2015-02-21	"iOS"	1.3921561461794	15050	"iOS"	1.32942100055481
"521"	2015-02-20	"(not set)"	0	12	"| Other |"	0.762127559548688
"522"	2015-02-20	"Android"	0.862536138543008	6987	"Android"	1.09780239690767
"523"	2015-02-20	"BlackBerry"	0	23	"| Other |"	0.762127559548688
"525"	2015-02-20	"Linux"	0	99	"Linux"	1.51151449275363
"528"	2015-02-20	"Windows Phone"	0	150	"| Other |"	0.762127559548688
"529"	2015-02-20	"Xbox"	0	6	"| Other |"	0.762127559548688
"530"	2015-02-20	"iOS"	1.32951946805594	14588	"iOS"	1.32942100055481
"532"	2015-02-19	"Android"	0.948864535768645	6570	"Android"	1.09780239690767
"533"	2015-02-19	"BlackBerry"	0	16	"| Other |"	0.762127559548688
"534"	2015-02-19	"Chrome OS"	0	30	"| Other |"	0.762127559548688
"537"	2015-02-19	"OpenBSD"	0	1	"| Other |"	0.762127559548688
"538"	2015-02-19	"Series40"	0	1	"| Other |"	0.762127559548688
"539"	2015-02-19	"SymbianOS"	0	2	"| Other |"	0.762127559548688
"541"	2015-02-19	"Windows Phone"	0	119	"| Other |"	0.762127559548688
"543"	2015-02-19	"iOS"	1.1272803640182	14285	"iOS"	1.32942100055481
"544"	2015-02-18	"(not set)"	0	8	"| Other |"	0.762127559548688
"545"	2015-02-18	"Android"	1.05822502250225	5555	"Android"	1.09780239690767
"546"	2015-02-18	"BlackBerry"	0	17	"| Other |"	0.762127559548688
"548"	2015-02-18	"Linux"	1.27551020408163	98	"Linux"	1.51151449275363
"550"	2015-02-18	"Nintendo Wii"	0	1	"| Other |"	0.762127559548688
"551"	2015-02-18	"Series40"	0	1	"| Other |"	0.762127559548688
"553"	2015-02-18	"Windows Phone"	0	132	"| Other |"	0.762127559548688
"554"	2015-02-18	"Xbox"	0	2	"| Other |"	0.762127559548688
"555"	2015-02-18	"iOS"	1.26591769418048	12733	"iOS"	1.32942100055481
"556"	2015-02-17	"(not set)"	0	12	"| Other |"	0.762127559548688
"557"	2015-02-17	"Android"	0.855389133627019	6810	"Android"	1.09780239690767
"558"	2015-02-17	"BlackBerry"	0	15	"| Other |"	0.762127559548688
"559"	2015-02-17	"Chrome OS"	0	27	"| Other |"	0.762127559548688
"562"	2015-02-17	"Series40"	0	1	"| Other |"	0.762127559548688
"563"	2015-02-17	"SymbianOS"	0	2	"| Other |"	0.762127559548688
"565"	2015-02-17	"Windows Phone"	0	163	"| Other |"	0.762127559548688
"566"	2015-02-17	"Xbox"	0	3	"| Other |"	0.762127559548688
"567"	2015-02-17	"iOS"	1.300011346713	14101	"iOS"	1.32942100055481
"568"	2015-02-16	"(not set)"	0	5	"| Other |"	0.762127559548688
"569"	2015-02-16	"Android"	1.17100094726871	6334	"Android"	1.09780239690767
"570"	2015-02-16	"BlackBerry"	0	19	"| Other |"	0.762127559548688
"572"	2015-02-16	"Firefox OS"	0	1	"| Other |"	0.762127559548688
"573"	2015-02-16	"Linux"	0.965909090909091	88	"Linux"	1.51151449275363
"575"	2015-02-16	"Nintendo 3DS"	0	1	"| Other |"	0.762127559548688
"576"	2015-02-16	"OpenBSD"	0	1	"| Other |"	0.762127559548688
"577"	2015-02-16	"Series40"	0	1	"| Other |"	0.762127559548688
"579"	2015-02-16	"Windows Phone"	0	153	"| Other |"	0.762127559548688
"580"	2015-02-16	"iOS"	1.29179408220645	14938	"iOS"	1.32942100055481
"581"	2015-02-15	"(not set)"	0	11	"| Other |"	0.762127559548688
"582"	2015-02-15	"Android"	1.0574833653704	6763	"Android"	1.09780239690767
"583"	2015-02-15	"BlackBerry"	0	20	"| Other |"	0.762127559548688
"585"	2015-02-15	"FreeBSD"	0	1	"| Other |"	0.762127559548688
"588"	2015-02-15	"Playstation 3"	0	1	"| Other |"	0.762127559548688
"589"	2015-02-15	"Playstation Vita"	0	1	"| Other |"	0.762127559548688
"591"	2015-02-15	"Windows Phone"	0.811965811965812	117	"| Other |"	0.762127559548688
"592"	2015-02-15	"iOS"	1.34231191723081	15658	"iOS"	1.32942100055481
"594"	2015-02-14	"Android"	0.911300725931215	8403	"Android"	1.09780239690767
"595"	2015-02-14	"BlackBerry"	0	37	"| Other |"	0.762127559548688
"597"	2015-02-14	"Firefox OS"	0	1	"| Other |"	0.762127559548688
"600"	2015-02-14	"Playstation Vita"	0	1	"| Other |"	0.762127559548688
"601"	2015-02-14	"Series40"	0	1	"| Other |"	0.762127559548688
"602"	2015-02-14	"UNIX"	0	1	"| Other |"	0.762127559548688
"604"	2015-02-14	"Windows Phone"	0.5	190	"| Other |"	0.762127559548688
"605"	2015-02-14	"Xbox"	0	1	"| Other |"	0.762127559548688
"606"	2015-02-14	"iOS"	0.993741621256691	20737	"iOS"	1.32942100055481
"607"	2015-02-13	"(not set)"	0	13	"| Other |"	0.762127559548688
"608"	2015-02-13	"Android"	1.25467647058824	6120	"Android"	1.09780239690767
"609"	2015-02-13	"BlackBerry"	0	23	"| Other |"	0.762127559548688
"610"	2015-02-13	"Chrome OS"	0	37	"| Other |"	0.762127559548688
"611"	2015-02-13	"Firefox OS"	0	2	"| Other |"	0.762127559548688
"612"	2015-02-13	"Linux"	0	91	"Linux"	1.51151449275363
"615"	2015-02-13	"Windows Phone"	0	162	"| Other |"	0.762127559548688
"616"	2015-02-13	"iOS"	1.19916156382478	16984	"iOS"	1.32942100055481
"617"	2015-02-12	"(not set)"	0	5	"| Other |"	0.762127559548688
"618"	2015-02-12	"Android"	0.798114778471603	6726	"Android"	1.09780239690767
"619"	2015-02-12	"BlackBerry"	0	33	"| Other |"	0.762127559548688
"621"	2015-02-12	"Linux"	0.7421875	128	"Linux"	1.51151449275363
"623"	2015-02-12	"Playstation Vita"	0	1	"| Other |"	0.762127559548688
"624"	2015-02-12	"SymbianOS"	0	2	"| Other |"	0.762127559548688
"626"	2015-02-12	"Windows Phone"	0.641891891891892	148	"| Other |"	0.762127559548688
"627"	2015-02-12	"Xbox"	0	3	"| Other |"	0.762127559548688
"628"	2015-02-12	"iOS"	1.11355115297174	15395	"iOS"	1.32942100055481
"629"	2015-02-11	"(not set)"	0	5	"| Other |"	0.762127559548688
"630"	2015-02-11	"Android"	1.16717804667243	6942	"Android"	1.09780239690767
"631"	2015-02-11	"Bada"	0	1	"| Other |"	0.762127559548688
"632"	2015-02-11	"BlackBerry"	0	20	"| Other |"	0.762127559548688
"634"	2015-02-11	"Firefox OS"	0	1	"| Other |"	0.762127559548688
"635"	2015-02-11	"Linux"	0.698529411764706	136	"Linux"	1.51151449275363
"637"	2015-02-11	"Playstation Vita"	0	1	"| Other |"	0.762127559548688
"638"	2015-02-11	"Series40"	0	2	"| Other |"	0.762127559548688
"639"	2015-02-11	"SymbianOS"	0	3	"| Other |"	0.762127559548688
"641"	2015-02-11	"Windows Phone"	0	118	"| Other |"	0.762127559548688
"642"	2015-02-11	"Xbox"	0	1	"| Other |"	0.762127559548688
"643"	2015-02-11	"iOS"	1.29399029250224	15658	"iOS"	1.32942100055481
"644"	2015-02-10	"(not set)"	0	7	"| Other |"	0.762127559548688
"645"	2015-02-10	"Android"	1.1008374325135	8335	"Android"	1.09780239690767
"648"	2015-02-10	"Firefox OS"	0	1	"| Other |"	0.762127559548688
"649"	2015-02-10	"Linux"	0.645161290322581	155	"Linux"	1.51151449275363
"651"	2015-02-10	"SymbianOS"	0	3	"| Other |"	0.762127559548688
"653"	2015-02-10	"Windows Phone"	1.1849710982659	173	"| Other |"	0.762127559548688
"654"	2015-02-10	"Xbox"	0	5	"| Other |"	0.762127559548688
"655"	2015-02-10	"iOS"	1.29916621967936	16779	"iOS"	1.32942100055481
"656"	2015-02-09	"(not set)"	0	9	"| Other |"	0.762127559548688
"657"	2015-02-09	"Android"	0.879320710521179	10246	"Android"	1.09780239690767
"658"	2015-02-09	"BlackBerry"	0	26	"| Other |"	0.762127559548688
"659"	2015-02-09	"Chrome OS"	1.37096774193548	62	"| Other |"	0.762127559548688
"660"	2015-02-09	"Firefox OS"	0	1	"| Other |"	0.762127559548688
"661"	2015-02-09	"Linux"	0.6875	160	"Linux"	1.51151449275363
"663"	2015-02-09	"OpenBSD"	0	1	"| Other |"	0.762127559548688
"664"	2015-02-09	"SunOS"	0	1	"| Other |"	0.762127559548688
"665"	2015-02-09	"SymbianOS"	0	1	"| Other |"	0.762127559548688
"667"	2015-02-09	"Windows Phone"	0.50761421319797	197	"| Other |"	0.762127559548688
"668"	2015-02-09	"Xbox"	0	3	"| Other |"	0.762127559548688
"669"	2015-02-09	"iOS"	1.27204717604596	19671	"iOS"	1.32942100055481
"670"	2015-02-08	"(not set)"	0	4	"| Other |"	0.762127559548688
"671"	2015-02-08	"Android"	1.07892846423212	9995	"Android"	1.09780239690767
"672"	2015-02-08	"Bada"	0	1	"| Other |"	0.762127559548688
"674"	2015-02-08	"Chrome OS"	0	52	"| Other |"	0.762127559548688
"675"	2015-02-08	"Firefox OS"	0	1	"| Other |"	0.762127559548688
"676"	2015-02-08	"Linux"	0.80188679245283	106	"Linux"	1.51151449275363
"680"	2015-02-08	"Windows Phone"	0.572916666666667	192	"| Other |"	0.762127559548688
"681"	2015-02-08	"Xbox"	0	1	"| Other |"	0.762127559548688
"682"	2015-02-08	"iOS"	1.28581744551122	21977	"iOS"	1.32942100055481
"683"	2015-02-07	"(not set)"	0	14	"| Other |"	0.762127559548688
"684"	2015-02-07	"Android"	0.991043338683788	8722	"Android"	1.09780239690767
"685"	2015-02-07	"BlackBerry"	0	32	"| Other |"	0.762127559548688
"687"	2015-02-07	"Firefox OS"	0	1	"| Other |"	0.762127559548688
"690"	2015-02-07	"Series40"	0	1	"| Other |"	0.762127559548688
"692"	2015-02-07	"Windows Phone"	0	185	"| Other |"	0.762127559548688
"693"	2015-02-07	"iOS"	1.46435097686822	17249	"iOS"	1.32942100055481
"694"	2015-02-06	"(not set)"	0	7	"| Other |"	0.762127559548688
"695"	2015-02-06	"Android"	1.38637017070979	7791	"Android"	1.09780239690767
"696"	2015-02-06	"Bada"	0	1	"| Other |"	0.762127559548688
"697"	2015-02-06	"BlackBerry"	0	28	"| Other |"	0.762127559548688
"698"	2015-02-06	"Chrome OS"	0	41	"| Other |"	0.762127559548688
"701"	2015-02-06	"Series40"	0	2	"| Other |"	0.762127559548688
"702"	2015-02-06	"Sony"	0	1	"| Other |"	0.762127559548688
"703"	2015-02-06	"SymbianOS"	0	2	"| Other |"	0.762127559548688
"705"	2015-02-06	"Windows Phone"	0.566502463054187	203	"| Other |"	0.762127559548688
"706"	2015-02-06	"Xbox"	0	2	"| Other |"	0.762127559548688
"707"	2015-02-06	"iOS"	1.49589742044359	16592	"iOS"	1.32942100055481
"708"	2015-02-05	"(not set)"	0	7	"| Other |"	0.762127559548688
"709"	2015-02-05	"Android"	1.50797989669133	14326	"Android"	1.09780239690767
"710"	2015-02-05	"BlackBerry"	0	64	"| Other |"	0.762127559548688
"711"	2015-02-05	"Chrome OS"	1.39189189189189	74	"| Other |"	0.762127559548688
"712"	2015-02-05	"Firefox OS"	0	1	"| Other |"	0.762127559548688
"715"	2015-02-05	"Nintendo Wii"	0	1	"| Other |"	0.762127559548688
"716"	2015-02-05	"Series40"	0	1	"| Other |"	0.762127559548688
"718"	2015-02-05	"Windows Phone"	1.22615803814714	367	"| Other |"	0.762127559548688
"719"	2015-02-05	"Xbox"	0	1	"| Other |"	0.762127559548688
"721"	2015-02-04	"(not set)"	0	15	"| Other |"	0.762127559548688
"722"	2015-02-04	"Android"	1.24118952285619	11988	"Android"	1.09780239690767
"723"	2015-02-04	"Bada"	0	1	"| Other |"	0.762127559548688
"724"	2015-02-04	"BlackBerry"	1.94339622641509	53	"| Other |"	0.762127559548688
"726"	2015-02-04	"Linux"	1.59638554216867	166	"Linux"	1.51151449275363
"728"	2015-02-04	"Samsung"	0	1	"| Other |"	0.762127559548688
"729"	2015-02-04	"Series40"	0	1	"| Other |"	0.762127559548688
"730"	2015-02-04	"SymbianOS"	0	2	"| Other |"	0.762127559548688
"732"	2015-02-04	"Windows Phone"	0	306	"| Other |"	0.762127559548688
"733"	2015-02-04	"iOS"	1.69708771253174	31113	"iOS"	1.32942100055481
"734"	2015-02-03	"(not set)"	0	9	"| Other |"	0.762127559548688
"735"	2015-02-03	"Android"	1.37601553715629	9783	"Android"	1.09780239690767
"736"	2015-02-03	"BlackBerry"	0	50	"| Other |"	0.762127559548688
"737"	2015-02-03	"Chrome OS"	1.49803278688525	61	"| Other |"	0.762127559548688
"738"	2015-02-03	"Firefox OS"	0	1	"| Other |"	0.762127559548688
"739"	2015-02-03	"Linux"	0	163	"Linux"	1.51151449275363
"742"	2015-02-03	"Windows Phone"	0	255	"| Other |"	0.762127559548688
"743"	2015-02-03	"iOS"	1.71913775926094	22082	"iOS"	1.32942100055481
"744"	2015-02-02	"(not set)"	0	13	"| Other |"	0.762127559548688
"745"	2015-02-02	"Android"	1.06016451756336	4498	"Android"	1.09780239690767
"746"	2015-02-02	"BlackBerry"	0	18	"| Other |"	0.762127559548688
"750"	2015-02-02	"Nokia"	0	1	"| Other |"	0.762127559548688
"751"	2015-02-02	"Series40"	0	1	"| Other |"	0.762127559548688
"753"	2015-02-02	"Windows Phone"	0	73	"| Other |"	0.762127559548688
"754"	2015-02-02	"Xbox"	0	1	"| Other |"	0.762127559548688
"755"	2015-02-02	"iOS"	1.46387927256792	9128	"iOS"	1.32942100055481
"756"	2015-02-01	"(not set)"	0	10	"| Other |"	0.762127559548688
"757"	2015-02-01	"Android"	1.1143744752309	4764	"Android"	1.09780239690767
"758"	2015-02-01	"BlackBerry"	0	16	"| Other |"	0.762127559548688
"759"	2015-02-01	"Chrome OS"	1.8	50	"| Other |"	0.762127559548688
"760"	2015-02-01	"Linux"	1.89393939393939	66	"Linux"	1.51151449275363
"762"	2015-02-01	"Nintendo Wii"	0	1	"| Other |"	0.762127559548688
"763"	2015-02-01	"Series40"	0	2	"| Other |"	0.762127559548688
"765"	2015-02-01	"Windows Phone"	0	55	"| Other |"	0.762127559548688
"766"	2015-02-01	"Xbox"	0	2	"| Other |"	0.762127559548688
"767"	2015-02-01	"iOS"	1.22673973185784	9398	"iOS"	1.32942100055481
"768"	2015-01-31	"(not set)"	0	16	"| Other |"	0.762127559548688
"769"	2015-01-31	"Android"	1.05542700979276	4391	"Android"	1.09780239690767
"770"	2015-01-31	"BlackBerry"	0	16	"| Other |"	0.762127559548688
"772"	2015-01-31	"Firefox OS"	0	1	"| Other |"	0.762127559548688
"775"	2015-01-31	"SymbianOS"	0	1	"| Other |"	0.762127559548688
"777"	2015-01-31	"Windows Phone"	0	67	"| Other |"	0.762127559548688
"778"	2015-01-31	"Xbox"	0	1	"| Other |"	0.762127559548688
"779"	2015-01-31	"iOS"	1.79652173913043	8372	"iOS"	1.32942100055481
"780"	2015-01-30	"(not set)"	0	9	"| Other |"	0.762127559548688
"781"	2015-01-30	"Android"	1.46105550500455	3297	"Android"	1.09780239690767
"782"	2015-01-30	"BlackBerry"	0	12	"| Other |"	0.762127559548688
"784"	2015-01-30	"Linux"	1.20253164556962	79	"Linux"	1.51151449275363
"787"	2015-01-30	"Windows Phone"	0	50	"| Other |"	0.762127559548688
"788"	2015-01-30	"Xbox"	0	2	"| Other |"	0.762127559548688
"789"	2015-01-30	"iOS"	1.57904456699955	6709	"iOS"	1.32942100055481
"790"	2015-01-29	"(not set)"	0	8	"| Other |"	0.762127559548688
"791"	2015-01-29	"Android"	1.19221508379888	3580	"Android"	1.09780239690767
"792"	2015-01-29	"BlackBerry"	0	20	"| Other |"	0.762127559548688
"793"	2015-01-29	"Chrome OS"	0	45	"| Other |"	0.762127559548688
"796"	2015-01-29	"OpenBSD"	0	1	"| Other |"	0.762127559548688
"797"	2015-01-29	"SunOS"	0	1	"| Other |"	0.762127559548688
"799"	2015-01-29	"Windows Phone"	0	50	"| Other |"	0.762127559548688
"800"	2015-01-29	"Xbox"	0	4	"| Other |"	0.762127559548688
"801"	2015-01-29	"iOS"	1.37656688892041	7049	"iOS"	1.32942100055481
"802"	2015-01-28	"(not set)"	0	6	"| Other |"	0.762127559548688
"803"	2015-01-28	"Android"	1.18211738891936	3646	"Android"	1.09780239690767
"805"	2015-01-28	"Chrome OS"	1.72727272727273	55	"| Other |"	0.762127559548688
"806"	2015-01-28	"Linux"	1.03260869565217	92	"Linux"	1.51151449275363
"808"	2015-01-28	"Series40"	0	1	"| Other |"	0.762127559548688
"809"	2015-01-28	"SymbianOS"	0	2	"| Other |"	0.762127559548688
"810"	2015-01-28	"Windows"	1.8867342130066	8488	"Windows"	3.00872370561802
"811"	2015-01-28	"Windows Phone"	0	51	"| Other |"	0.762127559548688
"812"	2015-01-28	"Xbox"	0	3	"| Other |"	0.762127559548688
"813"	2015-01-28	"iOS"	1.34067903620667	7761	"iOS"	1.32942100055481
"814"	2015-01-27	"(not set)"	0	5	"| Other |"	0.762127559548688
"815"	2015-01-27	"Android"	1.05115631691649	3736	"Android"	1.09780239690767
"816"	2015-01-27	"BlackBerry"	0	20	"| Other |"	0.762127559548688
"817"	2015-01-27	"Chrome OS"	0	56	"| Other |"	0.762127559548688
"819"	2015-01-27	"Linux"	0	82	"Linux"	1.51151449275363
"821"	2015-01-27	"Series40"	0	1	"| Other |"	0.762127559548688
"822"	2015-01-27	"SymbianOS"	0	2	"| Other |"	0.762127559548688
"824"	2015-01-27	"Windows Phone"	0	63	"| Other |"	0.762127559548688
"825"	2015-01-27	"Xbox"	0	4	"| Other |"	0.762127559548688
"826"	2015-01-27	"iOS"	0.956690809190809	8008	"iOS"	1.32942100055481
"827"	2015-01-26	"(not set)"	0	9	"| Other |"	0.762127559548688
"828"	2015-01-26	"Android"	1.29994209612044	3454	"Android"	1.09780239690767
"830"	2015-01-26	"Chrome OS"	0	64	"| Other |"	0.762127559548688
"831"	2015-01-26	"Linux"	1.375	80	"Linux"	1.51151449275363
"833"	2015-01-26	"SymbianOS"	0	1	"| Other |"	0.762127559548688
"836"	2015-01-26	"Xbox"	0	2	"| Other |"	0.762127559548688
"837"	2015-01-26	"iOS"	1.16678576189841	7501	"iOS"	1.32942100055481
"838"	2015-01-25	"(not set)"	0	13	"| Other |"	0.762127559548688
"839"	2015-01-25	"Android"	1.07775536261491	3916	"Android"	1.09780239690767
"840"	2015-01-25	"BlackBerry"	0	15	"| Other |"	0.762127559548688
"841"	2015-01-25	"Chrome OS"	0	57	"| Other |"	0.762127559548688
"842"	2015-01-25	"Linux"	0	71	"Linux"	1.51151449275363
"844"	2015-01-25	"Playstation Vita"	0	1	"| Other |"	0.762127559548688
"845"	2015-01-25	"Samsung"	0	1	"| Other |"	0.762127559548688
"846"	2015-01-25	"Series40"	0	2	"| Other |"	0.762127559548688
"847"	2015-01-25	"SymbianOS"	0	2	"| Other |"	0.762127559548688
"849"	2015-01-25	"Windows Phone"	0	54	"| Other |"	0.762127559548688
"850"	2015-01-25	"Xbox"	0	6	"| Other |"	0.762127559548688
"851"	2015-01-25	"iOS"	1.10548075805139	8601	"iOS"	1.32942100055481
"852"	2015-01-24	"(not set)"	0	9	"| Other |"	0.762127559548688
"853"	2015-01-24	"Android"	0.949046052631579	3648	"Android"	1.09780239690767
"854"	2015-01-24	"BlackBerry"	0	21	"| Other |"	0.762127559548688
"855"	2015-01-24	"Chrome OS"	0	38	"| Other |"	0.762127559548688
"856"	2015-01-24	"Linux"	0	61	"Linux"	1.51151449275363
"858"	2015-01-24	"Samsung"	0	1	"| Other |"	0.762127559548688
"859"	2015-01-24	"Series40"	0	1	"| Other |"	0.762127559548688
"861"	2015-01-24	"Windows Phone"	0	48	"| Other |"	0.762127559548688
"862"	2015-01-24	"Xbox"	0	4	"| Other |"	0.762127559548688
"863"	2015-01-24	"iOS"	1.16457328145266	7710	"iOS"	1.32942100055481
"864"	2015-01-23	"(not set)"	0	11	"| Other |"	0.762127559548688
"865"	2015-01-23	"Android"	1.20376784605835	3222	"Android"	1.09780239690767
"866"	2015-01-23	"BlackBerry"	0	21	"| Other |"	0.762127559548688
"867"	2015-01-23	"Chrome OS"	0	39	"| Other |"	0.762127559548688
"868"	2015-01-23	"Linux"	0	75	"Linux"	1.51151449275363
"871"	2015-01-23	"Windows Phone"	0	53	"| Other |"	0.762127559548688
"872"	2015-01-23	"Xbox"	0	2	"| Other |"	0.762127559548688
"874"	2015-01-22	"(not set)"	0	6	"| Other |"	0.762127559548688
"875"	2015-01-22	"Android"	1.17779293978048	3371	"Android"	1.09780239690767
"878"	2015-01-22	"Linux"	1.16438356164384	73	"Linux"	1.51151449275363
"880"	2015-01-22	"SymbianOS"	0	2	"| Other |"	0.762127559548688
"882"	2015-01-22	"Windows Phone"	0	54	"| Other |"	0.762127559548688
"883"	2015-01-22	"Xbox"	0	1	"| Other |"	0.762127559548688
"884"	2015-01-22	"iOS"	1.39346511010878	7538	"iOS"	1.32942100055481
"885"	2015-01-21	"(not set)"	0	15	"| Other |"	0.762127559548688
"886"	2015-01-21	"Android"	1.36025022886787	3277	"Android"	1.09780239690767
"887"	2015-01-21	"Bada"	0	1	"| Other |"	0.762127559548688
"888"	2015-01-21	"BlackBerry"	0	13	"| Other |"	0.762127559548688
"890"	2015-01-21	"Linux"	0	70	"Linux"	1.51151449275363
"892"	2015-01-21	"OpenBSD"	0	1	"| Other |"	0.762127559548688
"893"	2015-01-21	"Series40"	0	1	"| Other |"	0.762127559548688
"894"	2015-01-21	"SunOS"	0	1	"| Other |"	0.762127559548688
"895"	2015-01-21	"SymbianOS"	0	1	"| Other |"	0.762127559548688
"897"	2015-01-21	"Windows Phone"	0	37	"| Other |"	0.762127559548688
"898"	2015-01-21	"Xbox"	0	4	"| Other |"	0.762127559548688
"899"	2015-01-21	"iOS"	1.22836577868852	7808	"iOS"	1.32942100055481
"900"	2015-01-20	"(not set)"	0	14	"| Other |"	0.762127559548688
"901"	2015-01-20	"Android"	0.975367162722615	4099	"Android"	1.09780239690767
"902"	2015-01-20	"BlackBerry"	0	16	"| Other |"	0.762127559548688
"904"	2015-01-20	"Google TV"	0	1	"| Other |"	0.762127559548688
"905"	2015-01-20	"Linux"	1.35869565217391	92	"Linux"	1.51151449275363
"907"	2015-01-20	"Playstation Vita"	0	1	"| Other |"	0.762127559548688
"910"	2015-01-20	"Xbox"	0	1	"| Other |"	0.762127559548688
"911"	2015-01-20	"iOS"	1.32786065757101	8942	"iOS"	1.32942100055481
"912"	2015-01-19	"(not set)"	0	9	"| Other |"	0.762127559548688
"913"	2015-01-19	"Android"	0.679801939343924	4847	"Android"	1.09780239690767
"914"	2015-01-19	"BlackBerry"	0	22	"| Other |"	0.762127559548688
"915"	2015-01-19	"Chrome OS"	0	50	"| Other |"	0.762127559548688
"916"	2015-01-19	"Linux"	0	119	"Linux"	1.51151449275363
"918"	2015-01-19	"Playstation Vita"	0	1	"| Other |"	0.762127559548688
"919"	2015-01-19	"Series40"	0	2	"| Other |"	0.762127559548688
"920"	2015-01-19	"SunOS"	0	1	"| Other |"	0.762127559548688
"921"	2015-01-19	"SymbianOS"	0	1	"| Other |"	0.762127559548688
"924"	2015-01-19	"Xbox"	0	2	"| Other |"	0.762127559548688
"925"	2015-01-19	"iOS"	1.10010627214003	9598	"iOS"	1.32942100055481
"926"	2015-01-18	"(not set)"	0	17	"| Other |"	0.762127559548688
"927"	2015-01-18	"Android"	0.720037453183521	5340	"Android"	1.09780239690767
"928"	2015-01-18	"BlackBerry"	0	22	"| Other |"	0.762127559548688
"929"	2015-01-18	"Chrome OS"	1.88679245283019	53	"| Other |"	0.762127559548688
"930"	2015-01-18	"Linux"	0.78125	128	"Linux"	1.51151449275363
"932"	2015-01-18	"Nintendo Wii"	0	1	"| Other |"	0.762127559548688
"933"	2015-01-18	"Series40"	0	2	"| Other |"	0.762127559548688
"935"	2015-01-18	"Windows Phone"	0	78	"| Other |"	0.762127559548688
"936"	2015-01-18	"iOS"	1.03393578608373	10247	"iOS"	1.32942100055481
"937"	2015-01-17	"(not set)"	0	17	"| Other |"	0.762127559548688
"938"	2015-01-17	"Android"	1.32090429042904	3030	"Android"	1.09780239690767
"939"	2015-01-17	"BlackBerry"	0	15	"| Other |"	0.762127559548688
"940"	2015-01-17	"Chrome OS"	0	33	"| Other |"	0.762127559548688
"943"	2015-01-17	"Playstation 3"	0	1	"| Other |"	0.762127559548688
"944"	2015-01-17	"Series40"	0	1	"| Other |"	0.762127559548688
"945"	2015-01-17	"SymbianOS"	0	1	"| Other |"	0.762127559548688
"946"	2015-01-17	"Windows"	1.9452817693365	8003	"Windows"	3.00872370561802
"947"	2015-01-17	"Windows Phone"	0	64	"| Other |"	0.762127559548688
"948"	2015-01-17	"iOS"	1.57000142227279	7031	"iOS"	1.32942100055481
"949"	2015-01-16	"(not set)"	0	8	"| Other |"	0.762127559548688
"950"	2015-01-16	"Android"	0.895743978884856	3031	"Android"	1.09780239690767
"951"	2015-01-16	"BlackBerry"	0	20	"| Other |"	0.762127559548688
"953"	2015-01-16	"Linux"	0.880344827586207	116	"Linux"	1.51151449275363
"955"	2015-01-16	"Playstation 3"	0	1	"| Other |"	0.762127559548688
"956"	2015-01-16	"Samsung"	0	1	"| Other |"	0.762127559548688
"957"	2015-01-16	"Series40"	0	3	"| Other |"	0.762127559548688
"959"	2015-01-16	"Windows Phone"	0	67	"| Other |"	0.762127559548688
"960"	2015-01-16	"Xbox"	0	1	"| Other |"	0.762127559548688
"961"	2015-01-16	"iOS"	1.48666910367013	6839	"iOS"	1.32942100055481
"962"	2015-01-15	"(not set)"	0	7	"| Other |"	0.762127559548688
"963"	2015-01-15	"Android"	1.27728086419753	3240	"Android"	1.09780239690767
"964"	2015-01-15	"BlackBerry"	0	20	"| Other |"	0.762127559548688
"966"	2015-01-15	"Linux"	0.94017094017094	117	"Linux"	1.51151449275363
"968"	2015-01-15	"Series40"	0	1	"| Other |"	0.762127559548688
"970"	2015-01-15	"Windows Phone"	0	74	"| Other |"	0.762127559548688
"971"	2015-01-15	"Xbox"	0	2	"| Other |"	0.762127559548688
"972"	2015-01-15	"iOS"	1.20501799760032	7501	"iOS"	1.32942100055481
"974"	2015-01-14	"Android"	1.0156986204457	2827	"Android"	1.09780239690767
"975"	2015-01-14	"Bada"	0	1	"| Other |"	0.762127559548688
"976"	2015-01-14	"BlackBerry"	0	21	"| Other |"	0.762127559548688
"978"	2015-01-14	"Google TV"	0	1	"| Other |"	0.762127559548688
"979"	2015-01-14	"Linux"	0	99	"Linux"	1.51151449275363
"982"	2015-01-14	"Windows Phone"	0	68	"| Other |"	0.762127559548688
"983"	2015-01-14	"Xbox"	0	1	"| Other |"	0.762127559548688
"984"	2015-01-14	"iOS"	1.37367794395237	6887	"iOS"	1.32942100055481
"985"	2015-01-13	"(not set)"	0	12	"| Other |"	0.762127559548688
"986"	2015-01-13	"Android"	1.01917255297679	2973	"Android"	1.09780239690767
"987"	2015-01-13	"BlackBerry"	0	20	"| Other |"	0.762127559548688
"989"	2015-01-13	"Linux"	0	128	"Linux"	1.51151449275363
"991"	2015-01-13	"Playstation 3"	0	1	"| Other |"	0.762127559548688
"992"	2015-01-13	"SymbianOS"	0	1	"| Other |"	0.762127559548688
"993"	2015-01-13	"Windows"	1.73890306122449	12152	"Windows"	3.00872370561802
"994"	2015-01-13	"Windows Phone"	0	61	"| Other |"	0.762127559548688
"995"	2015-01-13	"iOS"	1.07747750242282	7223	"iOS"	1.32942100055481
"996"	2015-01-12	"(not set)"	0	11	"| Other |"	0.762127559548688
"997"	2015-01-12	"Android"	0.823244552058111	3304	"Android"	1.09780239690767
"999"	2015-01-12	"Chrome OS"	0	58	"| Other |"	0.762127559548688
"1000"	2015-01-12	"Linux"	1.28378378378378	148	"Linux"	1.51151449275363
"1002"	2015-01-12	"Series40"	0	1	"| Other |"	0.762127559548688
"1004"	2015-01-12	"Windows Phone"	0	72	"| Other |"	0.762127559548688
"1005"	2015-01-12	"iOS"	1.31571484172289	7708	"iOS"	1.32942100055481
"1006"	2015-01-11	"(not set)"	0	10	"| Other |"	0.762127559548688
"1007"	2015-01-11	"Android"	1.28818009028273	4209	"Android"	1.09780239690767
"1008"	2015-01-11	"BlackBerry"	0	18	"| Other |"	0.762127559548688
"1012"	2015-01-11	"Nintendo Wii"	0	1	"| Other |"	0.762127559548688
"1014"	2015-01-11	"Windows Phone"	0	77	"| Other |"	0.762127559548688
"1015"	2015-01-11	"Xbox"	0	2	"| Other |"	0.762127559548688
"1016"	2015-01-11	"iOS"	1.20206745160647	10022	"iOS"	1.32942100055481
"1017"	2015-01-10	"(not set)"	0	18	"| Other |"	0.762127559548688
"1018"	2015-01-10	"Android"	1.43123061013444	3868	"Android"	1.09780239690767
"1019"	2015-01-10	"BlackBerry"	0	21	"| Other |"	0.762127559548688
"1020"	2015-01-10	"Chrome OS"	0	49	"| Other |"	0.762127559548688
"1023"	2015-01-10	"SymbianOS"	0	1	"| Other |"	0.762127559548688
"1024"	2015-01-10	"Windows"	1.89696886804741	7677	"Windows"	3.00872370561802
"1025"	2015-01-10	"Windows Phone"	0	84	"| Other |"	0.762127559548688
"1026"	2015-01-10	"Xbox"	0	1	"| Other |"	0.762127559548688
"1027"	2015-01-10	"iOS"	1.0572184029614	9455	"iOS"	1.32942100055481
"1028"	2015-01-09	"(not set)"	0	15	"| Other |"	0.762127559548688
"1029"	2015-01-09	"Android"	1.1210092272203	3468	"Android"	1.09780239690767
"1030"	2015-01-09	"BlackBerry"	0	15	"| Other |"	0.762127559548688
"1032"	2015-01-09	"Linux"	1.31386861313869	137	"Linux"	1.51151449275363
"1034"	2015-01-09	"Series40"	0	2	"| Other |"	0.762127559548688
"1036"	2015-01-09	"Windows Phone"	1.69491525423729	59	"| Other |"	0.762127559548688
"1037"	2015-01-09	"Xbox"	0	1	"| Other |"	0.762127559548688
"1038"	2015-01-09	"iOS"	1.13696407576747	7655	"iOS"	1.32942100055481
"1039"	2015-01-08	"(not set)"	0	5	"| Other |"	0.762127559548688
"1040"	2015-01-08	"Android"	1.53835086721638	3517	"Android"	1.09780239690767
"1041"	2015-01-08	"BlackBerry"	0	23	"| Other |"	0.762127559548688
"1045"	2015-01-08	"Nokia"	0	2	"| Other |"	0.762127559548688
"1047"	2015-01-08	"Windows Phone"	0	70	"| Other |"	0.762127559548688
"1048"	2015-01-08	"Xbox"	0	2	"| Other |"	0.762127559548688
"1049"	2015-01-08	"iOS"	1.3775634024997	8241	"iOS"	1.32942100055481
"1050"	2015-01-07	"(not set)"	0	6	"| Other |"	0.762127559548688
"1051"	2015-01-07	"Android"	1.30893892339545	3864	"Android"	1.09780239690767
"1052"	2015-01-07	"BlackBerry"	0	22	"| Other |"	0.762127559548688
"1053"	2015-01-07	"Chrome OS"	1.796875	64	"| Other |"	0.762127559548688
"1054"	2015-01-07	"FreeBSD"	0	1	"| Other |"	0.762127559548688
"1055"	2015-01-07	"Linux"	0.625	152	"Linux"	1.51151449275363
"1057"	2015-01-07	"Samsung"	0	1	"| Other |"	0.762127559548688
"1059"	2015-01-07	"Windows Phone"	0	80	"| Other |"	0.762127559548688
"1060"	2015-01-07	"Xbox"	0	1	"| Other |"	0.762127559548688
"1061"	2015-01-07	"iOS"	1.62475148198814	8772	"iOS"	1.32942100055481
"1062"	2015-01-06	"(not set)"	0	3	"| Other |"	0.762127559548688
"1063"	2015-01-06	"Android"	1.60752342061014	4163	"Android"	1.09780239690767
"1064"	2015-01-06	"Bada"	0	1	"| Other |"	0.762127559548688
"1065"	2015-01-06	"BlackBerry"	0	13	"| Other |"	0.762127559548688
"1067"	2015-01-06	"Linux"	1.26623376623377	154	"Linux"	1.51151449275363
"1070"	2015-01-06	"Windows Phone"	1.31578947368421	76	"| Other |"	0.762127559548688
"1071"	2015-01-06	"Xbox"	0	3	"| Other |"	0.762127559548688
"1072"	2015-01-06	"iOS"	1.60093642241379	9280	"iOS"	1.32942100055481
"1073"	2015-01-05	"(not set)"	0	10	"| Other |"	0.762127559548688
"1074"	2015-01-05	"Android"	1.03754927636113	7255	"Android"	1.09780239690767
"1075"	2015-01-05	"BlackBerry"	0	30	"| Other |"	0.762127559548688
"1076"	2015-01-05	"Chrome OS"	0	52	"| Other |"	0.762127559548688
"1077"	2015-01-05	"Linux"	0	155	"Linux"	1.51151449275363
"1079"	2015-01-05	"Nintendo Wii"	0	2	"| Other |"	0.762127559548688
"1080"	2015-01-05	"SymbianOS"	0	1	"| Other |"	0.762127559548688
"1082"	2015-01-05	"Windows Phone"	1.11650485436893	103	"| Other |"	0.762127559548688
"1083"	2015-01-05	"Xbox"	0	2	"| Other |"	0.762127559548688
"1084"	2015-01-05	"iOS"	1.32785405405405	14800	"iOS"	1.32942100055481
"6"	2015-04-05	"Macintosh"	3.32125047947833	2607	"Macintosh"	3.8491658139766
"9"	2015-04-05	"Windows"	2.51802245250432	5790	"Windows"	3.00872370561802
"18"	2015-04-04	"Macintosh"	4.65092587564486	3683	"Macintosh"	3.8491658139766
"20"	2015-04-04	"Windows"	2.25492331891467	7629	"Windows"	3.00872370561802
"27"	2015-04-03	"Chrome OS"	2.83984375	64	"| Other |"	0.762127559548688
"30"	2015-04-03	"Macintosh"	3.50235155636934	3823	"Macintosh"	3.8491658139766
"33"	2015-04-03	"Windows"	2.38204914004914	8140	"Windows"	3.00872370561802
"42"	2015-04-02	"Macintosh"	3.84481799271971	3846	"Macintosh"	3.8491658139766
"47"	2015-04-02	"Windows"	2.70113754227734	8870	"Windows"	3.00872370561802
"48"	2015-04-02	"Windows Phone"	2.53333333333333	75	"| Other |"	0.762127559548688
"54"	2015-04-01	"Chrome OS"	3.01470588235294	68	"| Other |"	0.762127559548688
"56"	2015-04-01	"Macintosh"	4.45264577893821	4596	"Macintosh"	3.8491658139766
"59"	2015-04-01	"Windows"	2.88423829344433	9610	"Windows"	3.00872370561802
"68"	2015-03-31	"Macintosh"	3.8923938070663	5038	"Macintosh"	3.8491658139766
"71"	2015-03-31	"Windows"	2.98111152039783	10859	"Windows"	3.00872370561802
"80"	2015-03-30	"Macintosh"	3.50000234137204	4271	"Macintosh"	3.8491658139766
"83"	2015-03-30	"Windows"	3.19724678879764	9498	"Windows"	3.00872370561802
"89"	2015-03-29	"BlackBerry"	5.22727272727273	22	"| Other |"	0.762127559548688
"91"	2015-03-29	"Firefox OS"	125	1	"| Other |"	0.762127559548688
"93"	2015-03-29	"Linux"	4.57943925233645	107	"Linux"	1.51151449275363
"94"	2015-03-29	"Macintosh"	4.11951150775012	4258	"Macintosh"	3.8491658139766
"97"	2015-03-29	"Windows"	2.25282229965157	9184	"Windows"	3.00872370561802
"104"	2015-03-28	"Chrome OS"	7.25431034482759	58	"| Other |"	0.762127559548688
"106"	2015-03-28	"Linux"	4.70588235294118	68	"Linux"	1.51151449275363
"107"	2015-03-28	"Macintosh"	4.01387615361715	3359	"Macintosh"	3.8491658139766
"109"	2015-03-28	"Windows"	3.00287671232877	6132	"Windows"	3.00872370561802
"115"	2015-03-27	"Chrome OS"	2.09037037037037	54	"| Other |"	0.762127559548688
"116"	2015-03-27	"Firefox OS"	50	2	"| Other |"	0.762127559548688
"118"	2015-03-27	"Macintosh"	4.66174790555979	2626	"Macintosh"	3.8491658139766
"120"	2015-03-27	"Windows"	3.568789857273	6586	"Windows"	3.00872370561802
"128"	2015-03-26	"Linux"	2.60504201680672	119	"Linux"	1.51151449275363
"129"	2015-03-26	"Macintosh"	3.31612272420769	4449	"Macintosh"	3.8491658139766
"132"	2015-03-26	"Windows"	3.20436114880145	8844	"Windows"	3.00872370561802
"141"	2015-03-25	"Macintosh"	2.73353778119592	5201	"Macintosh"	3.8491658139766
"143"	2015-03-25	"Windows"	2.46729545260643	11721	"Windows"	3.00872370561802
"149"	2015-03-24	"BlackBerry"	4.07142857142857	21	"| Other |"	0.762127559548688
"152"	2015-03-24	"Macintosh"	3.78379831932773	3570	"Macintosh"	3.8491658139766
"157"	2015-03-24	"Windows"	3.01018257365903	7942	"Windows"	3.00872370561802
"167"	2015-03-23	"Macintosh"	4.68226705370102	3445	"Macintosh"	3.8491658139766
"170"	2015-03-23	"Windows"	3.82782352186738	7797	"Windows"	3.00872370561802
"177"	2015-03-22	"Chrome OS"	2.5	38	"| Other |"	0.762127559548688
"180"	2015-03-22	"Macintosh"	4.33889219934995	3692	"Macintosh"	3.8491658139766
"184"	2015-03-22	"Windows"	3.35930637386181	7468	"Windows"	3.00872370561802
"195"	2015-03-21	"Macintosh"	3.87638046116505	3296	"Macintosh"	3.8491658139766
"196"	2015-03-21	"Windows"	2.74692705167173	6580	"Windows"	3.00872370561802
"204"	2015-03-20	"Linux"	4.33333333333333	75	"Linux"	1.51151449275363
"205"	2015-03-20	"Macintosh"	5.14801407928863	2699	"Macintosh"	3.8491658139766
"206"	2015-03-20	"Windows"	3.23118463010204	6272	"Windows"	3.00872370561802
"214"	2015-03-19	"Linux"	2.3780487804878	82	"Linux"	1.51151449275363
"215"	2015-03-19	"Macintosh"	4.58240384615385	2912	"Macintosh"	3.8491658139766
"216"	2015-03-19	"Windows"	3.31514417887433	6485	"Windows"	3.00872370561802
"218"	2015-03-19	"Xbox"	110	1	"| Other |"	0.762127559548688
"225"	2015-03-18	"Linux"	2.4390243902439	82	"Linux"	1.51151449275363
"226"	2015-03-18	"Macintosh"	5.29048149361284	3053	"Macintosh"	3.8491658139766
"229"	2015-03-18	"Windows"	4.50157300029735	6726	"Windows"	3.00872370561802
"237"	2015-03-17	"Chrome OS"	2.11111111111111	45	"| Other |"	0.762127559548688
"238"	2015-03-17	"Linux"	2.1264367816092	87	"Linux"	1.51151449275363
"239"	2015-03-17	"Macintosh"	4.9573038018835	2867	"Macintosh"	3.8491658139766
"241"	2015-03-17	"Windows"	4.2107644598298	6933	"Windows"	3.00872370561802
"250"	2015-03-16	"Macintosh"	3.99452825013714	3646	"Macintosh"	3.8491658139766
"253"	2015-03-16	"Windows"	3.21057984790875	8416	"Windows"	3.00872370561802
"262"	2015-03-15	"Macintosh"	5.02337282998071	3629	"Macintosh"	3.8491658139766
"265"	2015-03-15	"Windows"	3.46376258140912	6756	"Windows"	3.00872370561802
"271"	2015-03-14	"Chrome OS"	7.625	40	"| Other |"	0.762127559548688
"273"	2015-03-14	"Macintosh"	4.12618008185539	2932	"Macintosh"	3.8491658139766
"276"	2015-03-14	"Windows"	3.08490889437925	6476	"Windows"	3.00872370561802
"284"	2015-03-13	"Macintosh"	4.7918547037161	2987	"Macintosh"	3.8491658139766
"286"	2015-03-13	"Windows"	4.2965701264334	6802	"Windows"	3.00872370561802
"291"	2015-03-12	"BlackBerry"	5.55555555555556	18	"| Other |"	0.762127559548688
"292"	2015-03-12	"Chrome OS"	2.86764705882353	68	"| Other |"	0.762127559548688
"294"	2015-03-12	"Macintosh"	3.99651574290919	3843	"Macintosh"	3.8491658139766
"297"	2015-03-12	"Windows"	3.33682921245421	8736	"Windows"	3.00872370561802
"306"	2015-03-11	"Macintosh"	3.85450230887635	3898	"Macintosh"	3.8491658139766
"308"	2015-03-11	"Windows"	3.21605135839226	8061	"Windows"	3.00872370561802
"318"	2015-03-10	"Macintosh"	4.20428954423592	4849	"Macintosh"	3.8491658139766
"320"	2015-03-10	"Windows"	3.14805960945529	9730	"Windows"	3.00872370561802
"326"	2015-03-09	"Chrome OS"	2.01612903225806	62	"| Other |"	0.762127559548688
"329"	2015-03-09	"Macintosh"	3.57405808033189	5303	"Macintosh"	3.8491658139766
"333"	2015-03-09	"Windows"	3.24392052847563	9991	"Windows"	3.00872370561802
"341"	2015-03-08	"Linux"	2.01923076923077	104	"Linux"	1.51151449275363
"342"	2015-03-08	"Macintosh"	4.61017245343757	4349	"Macintosh"	3.8491658139766
"352"	2015-03-07	"Chrome OS"	3.8135593220339	59	"| Other |"	0.762127559548688
"354"	2015-03-07	"Macintosh"	3.97048304213772	3892	"Macintosh"	3.8491658139766
"355"	2015-03-07	"Windows"	2.71854088988317	8046	"Windows"	3.00872370561802
"363"	2015-03-06	"Linux"	2.85714285714286	105	"Linux"	1.51151449275363
"364"	2015-03-06	"Macintosh"	3.87929526123937	4115	"Macintosh"	3.8491658139766
"366"	2015-03-06	"Windows"	2.81385033126969	9207	"Windows"	3.00872370561802
"371"	2015-03-05	"BlackBerry"	4.4	25	"| Other |"	0.762127559548688
"375"	2015-03-05	"Macintosh"	3.66795604823026	5142	"Macintosh"	3.8491658139766
"379"	2015-03-05	"Windows"	2.58017984330484	11232	"Windows"	3.00872370561802
"386"	2015-03-04	"Chrome OS"	2.47727272727273	44	"| Other |"	0.762127559548688
"387"	2015-03-04	"Linux"	4.07894736842105	76	"Linux"	1.51151449275363
"388"	2015-03-04	"Macintosh"	4.82031801007557	3176	"Macintosh"	3.8491658139766
"392"	2015-03-04	"Windows"	4.11011809086436	6097	"Windows"	3.00872370561802
"401"	2015-03-03	"Linux"	2.5625	80	"Linux"	1.51151449275363
"402"	2015-03-03	"Macintosh"	5.20224448897796	2994	"Macintosh"	3.8491658139766
"404"	2015-03-03	"Windows"	4.74463342238053	6738	"Windows"	3.00872370561802
"411"	2015-03-02	"Chrome OS"	2.61904761904762	42	"| Other |"	0.762127559548688
"412"	2015-03-02	"Linux"	4.70149253731343	67	"Linux"	1.51151449275363
"413"	2015-03-02	"Macintosh"	4.90053778658364	3533	"Macintosh"	3.8491658139766
"415"	2015-03-02	"Windows"	4.50732233842853	7458	"Windows"	3.00872370561802
"421"	2015-03-01	"Chrome OS"	4.02173913043478	46	"| Other |"	0.762127559548688
"422"	2015-03-01	"Linux"	2.56410256410256	78	"Linux"	1.51151449275363
"423"	2015-03-01	"Macintosh"	5.63823291925466	3220	"Macintosh"	3.8491658139766
"425"	2015-03-01	"Windows"	4.28495824311785	6466	"Windows"	3.00872370561802
"431"	2015-02-28	"Chrome OS"	2.75	40	"| Other |"	0.762127559548688
"433"	2015-02-28	"Macintosh"	4.63036263736264	2730	"Macintosh"	3.8491658139766
"435"	2015-02-28	"Windows"	3.64463125716469	5234	"Windows"	3.00872370561802
"444"	2015-02-27	"Macintosh"	4.11812290502793	2685	"Macintosh"	3.8491658139766
"448"	2015-02-27	"Windows"	3.32731664726426	6872	"Windows"	3.00872370561802
"456"	2015-02-26	"Macintosh"	2.99619251753702	5132	"Macintosh"	3.8491658139766
"458"	2015-02-26	"Windows"	2.47864171921673	12052	"Windows"	3.00872370561802
"464"	2015-02-25	"Chrome OS"	2.94117647058824	34	"| Other |"	0.762127559548688
"465"	2015-02-25	"Linux"	4.15	100	"Linux"	1.51151449275363
"466"	2015-02-25	"Macintosh"	4.33504963176433	3123	"Macintosh"	3.8491658139766
"467"	2015-02-25	"Windows"	3.58399817017383	7651	"Windows"	3.00872370561802
"476"	2015-02-24	"Macintosh"	4.95804949911609	3394	"Macintosh"	3.8491658139766
"479"	2015-02-24	"Windows"	3.51454834016664	7561	"Windows"	3.00872370561802
"482"	2015-02-23	"(not set)"	7.33333333333333	15	"| Other |"	0.762127559548688
"489"	2015-02-23	"Linux"	2.08333333333333	96	"Linux"	1.51151449275363
"490"	2015-02-23	"Macintosh"	4.23947325769854	3702	"Macintosh"	3.8491658139766
"493"	2015-02-23	"Windows"	3.6337947349266	8243	"Windows"	3.00872370561802
"499"	2015-02-22	"Chrome OS"	2.66304347826087	46	"| Other |"	0.762127559548688
"501"	2015-02-22	"Linux"	2.26744186046512	86	"Linux"	1.51151449275363
"502"	2015-02-22	"Macintosh"	3.86546004842615	4130	"Macintosh"	3.8491658139766
"505"	2015-02-22	"Windows"	2.96777119146414	8435	"Windows"	3.00872370561802
"511"	2015-02-21	"Chrome OS"	3.38235294117647	34	"| Other |"	0.762127559548688
"512"	2015-02-21	"Firefox OS"	95	1	"| Other |"	0.762127559548688
"515"	2015-02-21	"Macintosh"	3.87704480796586	2812	"Macintosh"	3.8491658139766
"517"	2015-02-21	"Windows"	2.51940141374643	6649	"Windows"	3.00872370561802
"524"	2015-02-20	"Chrome OS"	3.125	32	"| Other |"	0.762127559548688
"526"	2015-02-20	"Macintosh"	4.22020157157499	2927	"Macintosh"	3.8491658139766
"527"	2015-02-20	"Windows"	3.16230728686256	7589	"Windows"	3.00872370561802
"531"	2015-02-19	"(not set)"	5.88235294117647	17	"| Other |"	0.762127559548688
"535"	2015-02-19	"Linux"	5.0462962962963	108	"Linux"	1.51151449275363
"536"	2015-02-19	"Macintosh"	4.33188008130081	2952	"Macintosh"	3.8491658139766
"540"	2015-02-19	"Windows"	3.32927402323126	7576	"Windows"	3.00872370561802
"542"	2015-02-19	"Xbox"	46.2066666666667	3	"| Other |"	0.762127559548688
"547"	2015-02-18	"Chrome OS"	1.96078431372549	51	"| Other |"	0.762127559548688
"549"	2015-02-18	"Macintosh"	4.3083061778683	2946	"Macintosh"	3.8491658139766
"552"	2015-02-18	"Windows"	3.53538741625401	6866	"Windows"	3.00872370561802
"560"	2015-02-17	"Linux"	2.95698924731183	93	"Linux"	1.51151449275363
"561"	2015-02-17	"Macintosh"	4.1778698570178	3427	"Macintosh"	3.8491658139766
"564"	2015-02-17	"Windows"	2.94035109106425	8203	"Windows"	3.00872370561802
"571"	2015-02-16	"Chrome OS"	2.36111111111111	36	"| Other |"	0.762127559548688
"574"	2015-02-16	"Macintosh"	4.93617790530846	3485	"Macintosh"	3.8491658139766
"578"	2015-02-16	"Windows"	4.07620766023971	7676	"Windows"	3.00872370561802
"584"	2015-02-15	"Chrome OS"	6.29836734693878	49	"| Other |"	0.762127559548688
"586"	2015-02-15	"Linux"	2.58620689655172	87	"Linux"	1.51151449275363
"587"	2015-02-15	"Macintosh"	5.22110351258937	3217	"Macintosh"	3.8491658139766
"590"	2015-02-15	"Windows"	2.73015441722346	6735	"Windows"	3.00872370561802
"596"	2015-02-14	"Chrome OS"	2.75	40	"| Other |"	0.762127559548688
"598"	2015-02-14	"Linux"	4.79338842975207	121	"Linux"	1.51151449275363
"599"	2015-02-14	"Macintosh"	4.32324928366762	3490	"Macintosh"	3.8491658139766
"603"	2015-02-14	"Windows"	2.56721322722283	7288	"Windows"	3.00872370561802
"613"	2015-02-13	"Macintosh"	4.42746118721461	3285	"Macintosh"	3.8491658139766
"614"	2015-02-13	"Windows"	3.47012203482792	7293	"Windows"	3.00872370561802
"620"	2015-02-12	"Chrome OS"	7.15909090909091	44	"| Other |"	0.762127559548688
"622"	2015-02-12	"Macintosh"	3.9110367803838	3752	"Macintosh"	3.8491658139766
"625"	2015-02-12	"Windows"	3.37297691072972	8099	"Windows"	3.00872370561802
"633"	2015-02-11	"Chrome OS"	6.59090909090909	44	"| Other |"	0.762127559548688
"636"	2015-02-11	"Macintosh"	3.5044949619071	4069	"Macintosh"	3.8491658139766
"640"	2015-02-11	"Windows"	3.06813102119461	8823	"Windows"	3.00872370561802
"646"	2015-02-10	"BlackBerry"	9.61538461538462	13	"| Other |"	0.762127559548688
"647"	2015-02-10	"Chrome OS"	2.11538461538462	52	"| Other |"	0.762127559548688
"650"	2015-02-10	"Macintosh"	3.73063518595905	4786	"Macintosh"	3.8491658139766
"652"	2015-02-10	"Windows"	3.13951428816614	11653	"Windows"	3.00872370561802
"662"	2015-02-09	"Macintosh"	4.84751926977688	4930	"Macintosh"	3.8491658139766
"666"	2015-02-09	"Windows"	3.02121514809346	11513	"Windows"	3.00872370561802
"673"	2015-02-08	"BlackBerry"	8.46153846153846	39	"| Other |"	0.762127559548688
"677"	2015-02-08	"Macintosh"	3.99967006033183	5304	"Macintosh"	3.8491658139766
"679"	2015-02-08	"Windows"	2.98060609178843	9718	"Windows"	3.00872370561802
"686"	2015-02-07	"Chrome OS"	5.48780487804878	41	"| Other |"	0.762127559548688
"688"	2015-02-07	"Linux"	3.52	125	"Linux"	1.51151449275363
"689"	2015-02-07	"Macintosh"	4.6691064079953	3402	"Macintosh"	3.8491658139766
"691"	2015-02-07	"Windows"	3.08470828233374	7353	"Windows"	3.00872370561802
"699"	2015-02-06	"Linux"	5.14851485148515	101	"Linux"	1.51151449275363
"700"	2015-02-06	"Macintosh"	5.12436080632814	3919	"Macintosh"	3.8491658139766
"704"	2015-02-06	"Windows"	3.68500104384134	9580	"Windows"	3.00872370561802
"713"	2015-02-05	"Linux"	3.55376344086022	186	"Linux"	1.51151449275363
"714"	2015-02-05	"Macintosh"	6.56770777836974	7508	"Macintosh"	3.8491658139766
"717"	2015-02-05	"Windows"	4.69730936555891	16550	"Windows"	3.00872370561802
"725"	2015-02-04	"Chrome OS"	3.38333333333333	60	"| Other |"	0.762127559548688
"727"	2015-02-04	"Macintosh"	5.1560036096429	7757	"Macintosh"	3.8491658139766
"731"	2015-02-04	"Windows"	4.57659476732574	15021	"Windows"	3.00872370561802
"740"	2015-02-03	"Macintosh"	5.71467472118959	5380	"Macintosh"	3.8491658139766
"741"	2015-02-03	"Windows"	3.04997680371141	12502	"Windows"	3.00872370561802
"747"	2015-02-02	"Chrome OS"	4.58333333333333	48	"| Other |"	0.762127559548688
"748"	2015-02-02	"Linux"	2.20238095238095	84	"Linux"	1.51151449275363
"749"	2015-02-02	"Macintosh"	3.93930456852792	3940	"Macintosh"	3.8491658139766
"752"	2015-02-02	"Windows"	3.61217255717256	7696	"Windows"	3.00872370561802
"761"	2015-02-01	"Macintosh"	3.7245738045738	4329	"Macintosh"	3.8491658139766
"764"	2015-02-01	"Windows"	2.63487355037027	7157	"Windows"	3.00872370561802
"771"	2015-01-31	"Chrome OS"	2.08333333333333	48	"| Other |"	0.762127559548688
"773"	2015-01-31	"Linux"	8.66666666666667	75	"Linux"	1.51151449275363
"774"	2015-01-31	"Macintosh"	2.77715058823529	4250	"Macintosh"	3.8491658139766
"776"	2015-01-31	"Windows"	2.29446679438059	6264	"Windows"	3.00872370561802
"783"	2015-01-30	"Chrome OS"	1.96078431372549	51	"| Other |"	0.762127559548688
"785"	2015-01-30	"Macintosh"	2.57722478238607	3906	"Macintosh"	3.8491658139766
"786"	2015-01-30	"Windows"	2.70249040511727	7035	"Windows"	3.00872370561802
"794"	2015-01-29	"Linux"	4.255	72	"Linux"	1.51151449275363
"795"	2015-01-29	"Macintosh"	2.25888258402444	4582	"Macintosh"	3.8491658139766
"798"	2015-01-29	"Windows"	2.36182593205242	7859	"Windows"	3.00872370561802
"804"	2015-01-28	"BlackBerry"	9.09090909090909	11	"| Other |"	0.762127559548688
"807"	2015-01-28	"Macintosh"	2.95944467213115	4880	"Macintosh"	3.8491658139766
"818"	2015-01-27	"Firefox OS"	100	1	"| Other |"	0.762127559548688
"820"	2015-01-27	"Macintosh"	2.58367006487488	5395	"Macintosh"	3.8491658139766
"823"	2015-01-27	"Windows"	2.65877121347454	7837	"Windows"	3.00872370561802
"829"	2015-01-26	"BlackBerry"	9.61538461538462	13	"| Other |"	0.762127559548688
"832"	2015-01-26	"Macintosh"	2.7178916461451	5279	"Macintosh"	3.8491658139766
"834"	2015-01-26	"Windows"	2.18980560464529	7922	"Windows"	3.00872370561802
"835"	2015-01-26	"Windows Phone"	2.78571428571429	70	"| Other |"	0.762127559548688
"843"	2015-01-25	"Macintosh"	2.04267664023071	5548	"Macintosh"	3.8491658139766
"848"	2015-01-25	"Windows"	2.17123777506112	6544	"Windows"	3.00872370561802
"860"	2015-01-24	"Windows"	2.85959125281014	4893	"Windows"	3.00872370561802
"869"	2015-01-23	"Macintosh"	2.70239856020942	3056	"Macintosh"	3.8491658139766
"870"	2015-01-23	"Windows"	2.91431220498989	5932	"Windows"	3.00872370561802
"876"	2015-01-22	"BlackBerry"	7.72727272727273	11	"| Other |"	0.762127559548688
"877"	2015-01-22	"Chrome OS"	2.42857142857143	35	"| Other |"	0.762127559548688
"879"	2015-01-22	"Macintosh"	3.10568376068376	3510	"Macintosh"	3.8491658139766
"881"	2015-01-22	"Windows"	2.32468821119709	6591	"Windows"	3.00872370561802
"889"	2015-01-21	"Chrome OS"	2.85714285714286	35	"| Other |"	0.762127559548688
"891"	2015-01-21	"Macintosh"	3.89919150285352	3154	"Macintosh"	3.8491658139766
"896"	2015-01-21	"Windows"	3.46681424446583	6234	"Windows"	3.00872370561802
"903"	2015-01-20	"Chrome OS"	2.82051282051282	39	"| Other |"	0.762127559548688
"906"	2015-01-20	"Macintosh"	3.47733596837945	3795	"Macintosh"	3.8491658139766
"908"	2015-01-20	"Windows"	2.90946855123675	7075	"Windows"	3.00872370561802
"909"	2015-01-20	"Windows Phone"	2.1875	48	"| Other |"	0.762127559548688
"917"	2015-01-19	"Macintosh"	2.84747324159021	5232	"Macintosh"	3.8491658139766
"922"	2015-01-19	"Windows"	2.58713564890871	8522	"Windows"	3.00872370561802
"931"	2015-01-18	"Macintosh"	2.80335611377909	5414	"Macintosh"	3.8491658139766
"934"	2015-01-18	"Windows"	2.05140737251207	8491	"Windows"	3.00872370561802
"941"	2015-01-17	"Linux"	2.01030927835052	97	"Linux"	1.51151449275363
"942"	2015-01-17	"Macintosh"	3.46668556701031	3880	"Macintosh"	3.8491658139766
"952"	2015-01-16	"Chrome OS"	5.52631578947368	38	"| Other |"	0.762127559548688
"954"	2015-01-16	"Macintosh"	2.7269625520111	3605	"Macintosh"	3.8491658139766
"958"	2015-01-16	"Windows"	2.28592335766423	8220	"Windows"	3.00872370561802
"965"	2015-01-15	"Chrome OS"	2.61486486486486	37	"| Other |"	0.762127559548688
"967"	2015-01-15	"Macintosh"	2.75680845708533	3973	"Macintosh"	3.8491658139766
"969"	2015-01-15	"Windows"	2.39708661417323	9398	"Windows"	3.00872370561802
"973"	2015-01-14	"(not set)"	9.09090909090909	11	"| Other |"	0.762127559548688
"977"	2015-01-14	"Chrome OS"	7.75641025641026	39	"| Other |"	0.762127559548688
"980"	2015-01-14	"Macintosh"	2.89160072303675	4979	"Macintosh"	3.8491658139766
"981"	2015-01-14	"Windows"	2.61183358098068	10095	"Windows"	3.00872370561802
"988"	2015-01-13	"Chrome OS"	7.83853658536585	41	"| Other |"	0.762127559548688
"990"	2015-01-13	"Macintosh"	1.99708776384701	6301	"Macintosh"	3.8491658139766
"998"	2015-01-12	"BlackBerry"	4.07142857142857	21	"| Other |"	0.762127559548688
"1001"	2015-01-12	"Macintosh"	2.50209365150833	6663	"Macintosh"	3.8491658139766
"1003"	2015-01-12	"Windows"	2.39612068219202	11551	"Windows"	3.00872370561802
"1009"	2015-01-11	"Chrome OS"	4.55903225806452	62	"| Other |"	0.762127559548688
"1010"	2015-01-11	"Linux"	2.13286713286713	143	"Linux"	1.51151449275363
"1011"	2015-01-11	"Macintosh"	2.56365039323342	6739	"Macintosh"	3.8491658139766
"1013"	2015-01-11	"Windows"	1.98774670283416	10691	"Windows"	3.00872370561802
"1021"	2015-01-10	"Linux"	2.71028037383178	107	"Linux"	1.51151449275363
"1022"	2015-01-10	"Macintosh"	2.57954770878794	5041	"Macintosh"	3.8491658139766
"1031"	2015-01-09	"Chrome OS"	2.63157894736842	38	"| Other |"	0.762127559548688
"1033"	2015-01-09	"Macintosh"	2.44875456601148	5749	"Macintosh"	3.8491658139766
"1035"	2015-01-09	"Windows"	2.49957929430012	10316	"Windows"	3.00872370561802
"1042"	2015-01-08	"Chrome OS"	9.77272727272727	44	"| Other |"	0.762127559548688
"1043"	2015-01-08	"Linux"	2.13375796178344	157	"Linux"	1.51151449275363
"1044"	2015-01-08	"Macintosh"	3.59326650274258	5287	"Macintosh"	3.8491658139766
"1046"	2015-01-08	"Windows"	2.25311126804771	12744	"Windows"	3.00872370561802
"1056"	2015-01-07	"Macintosh"	3.86243058271412	5114	"Macintosh"	3.8491658139766
"1058"	2015-01-07	"Windows"	2.792196612267	12929	"Windows"	3.00872370561802
"1066"	2015-01-06	"Chrome OS"	2.08333333333333	48	"| Other |"	0.762127559548688
"1068"	2015-01-06	"Macintosh"	4.20324267782427	5258	"Macintosh"	3.8491658139766
"1069"	2015-01-06	"Windows"	2.36382390794156	13209	"Windows"	3.00872370561802
"1078"	2015-01-05	"Macintosh"	4.252681501461	4449	"Macintosh"	3.8491658139766
"1081"	2015-01-05	"Windows"	2.97077117572693	11074	"Windows"	3.00872370561802
