"factor"	"estimate"	"stdErr"	"tValue"	"pValue"	"iter"
"1"	"(Intercept)"	-0.158756768541372	0.528869898082288	-0.300181139287815	0.764040198446272	4
"2"	"users"	0.000146229614862698	0.000343374293827233	0.425860693393293	0.670211132022004	4
"3"	"userType_catReturning Visitor"	0.320530997373775	0.293467511307466	1.09221970072849	0.274741638106928	4
"4"	"channelGrouping_catDirect"	0.0329969954751917	0.580596372724638	0.0568329342471475	0.954678498364431	4
"5"	"channelGrouping_catDisplay"	0.227394541479294	0.655884606702863	0.346699006434087	0.728818868684767	4
"6"	"channelGrouping_catEmail"	1.74428597103445	1.53744008551284	1.13453915210791	0.256573724010394	4
"7"	"channelGrouping_catOrganic Search"	0.32546236915232	0.560911595338086	0.580238261888933	0.561756485091536	4
"8"	"channelGrouping_catPaid Search"	0.297094215049449	0.750807587091761	0.395699537614209	0.692328330507526	4
"9"	"channelGrouping_catReferral"	-1.15015515705881	0.991915137376007	-1.15952979616926	0.246245656995485	4
"10"	"channelGrouping_catSocial"	0.139899308712847	0.52730716578406	0.265308946645603	0.790772531453331	4
"11"	"deviceCategory_catmobile"	0.291034230220948	0.513956372676845	0.566262518947183	0.571217795190968	4
"12"	"deviceCategory_cattablet"	0.887491499362702	0.549428596691347	1.61529906653415	0.106252051734949	4
"13"	"operatingSystem_catAndroid"	0.008914858236616	0.39178530490298	0.022754447716776	0.981846231934719	4
"14"	"operatingSystem_catiOS"	-0.300461182885067	0.690722124411421	-0.434995741798623	0.663567335188666	4
"15"	"operatingSystem_catLinux"	0.556603188951912	1.43290387175947	0.388444193586033	0.697688945521312	4
"16"	"operatingSystem_catMacintosh"	-0.667946442502946	0.765136340477453	-0.872977020129694	0.38267966042409	4
"17"	"operatingSystem_catWindows"	-0.202137547061637	0.552515397792568	-0.36584961771061	0.71447879089937	4
"18"	"javaEnabled_catYes"	0.501490441043965	0.328185985939793	1.52806781071988	0.126501824263635	4
"19"	"browser_catChrome"	0.211023751073268	0.655929097529145	0.321717319552044	0.74766815727379	4
"20"	"browser_catFirefox"	8.40465776332787	2.71998812934316	3.08996119235178	0.0020028895718374	4
"21"	"browser_catInternet Explorer"	-1.58783376475297	0.608797429194545	-2.60814794644208	0.00910597894281833	4
"22"	"browser_catSafari"	1.19568842807574	0.675163517053225	1.77096125290413	0.076573039906512	4
"23"	"browser_catSafari (in-app)"	0.288989003247021	0.79490376933803	0.363552186307636	0.716193924124555	4
"24"	"users:userType_catReturning Visitor"	0.000124606878563516	2.71869537866386e-05	4.58333359233339	4.58690656490747e-06	4
"25"	"users:channelGrouping_catDirect"	-0.000158319972939416	0.000110032807158014	-1.43884335071138	0.150200968534743	4
"26"	"users:channelGrouping_catDisplay"	-0.00122010942138186	0.000570940553223658	-2.13701656764938	0.0326013260124062	4
"27"	"users:channelGrouping_catEmail"	-0.00136645096713289	0.000208324688018567	-6.55923683423976	5.45926597951853e-11	4
"28"	"users:channelGrouping_catOrganic Search"	9.72801657710826e-05	0.000199063657740589	0.488688728395887	0.625064159177158	4
"29"	"users:channelGrouping_catPaid Search"	-0.00179070722412334	0.000584720465157718	-3.06250136745312	0.00219608285592441	4
"30"	"users:channelGrouping_catReferral"	-0.000148994434454076	0.000706698799664788	-0.210831594060651	0.83301951559189	4
"31"	"users:channelGrouping_catSocial"	-5.4382266919294e-05	3.94231121472704e-05	-1.37945139176586	0.167761593769337	4
"32"	"users:deviceCategory_catmobile"	-6.09989279739963e-05	4.44336353210877e-05	-1.37280975398938	0.169817456102578	4
"33"	"users:deviceCategory_cattablet"	0.0016597101490309	0.000380605559158521	4.36070916226327	1.29892024149099e-05	4
"34"	"users:javaEnabled_catYes"	-0.000309425458896715	0.000125359881786504	-2.46829730921162	0.0135789642492174	4
"35"	"users:browser_catChrome"	0.000201316899487726	0.000367266295959329	0.548149671512519	0.583591504664906	4
"36"	"users:browser_catFirefox"	0.00170671525167778	0.000670310711948398	2.54615541905462	0.0108945451423537	4
"37"	"users:browser_catInternet Explorer"	3.7869480903009e-06	0.000769327061409282	0.0049224163301416	0.996072514873591	4
"38"	"users:browser_catSafari"	0.000179899405087876	0.000346079197199558	0.519821493298661	0.603190224409931	4
"39"	"users:browser_catSafari (in-app)"	-9.01187033199942e-05	0.000344067238898966	-0.261921779034758	0.793382792525478	4
"40"	"userType_catReturning Visitor:channelGrouping_catDirect"	0.46526533566431	0.113372838411629	4.10385187654071	4.06950594800203e-05	4
"41"	"userType_catReturning Visitor:channelGrouping_catDisplay"	-0.838292718346253	0.106403637628818	-7.87842161252588	3.37977306738642e-15	4
"42"	"userType_catReturning Visitor:channelGrouping_catEmail"	-0.255005348652821	0.185688397307134	-1.37329715992451	0.169665944502361	4
"43"	"userType_catReturning Visitor:channelGrouping_catOrganic Search"	1.09100203763366	0.0794818571134319	13.7264286122133	8.3859749409198e-43	4
"44"	"userType_catReturning Visitor:channelGrouping_catPaid Search"	0.38058608970223	0.120453778958079	3.15960273720167	0.00158075444690849	4
"45"	"userType_catReturning Visitor:channelGrouping_catReferral"	13.3546774695526	0.14088790257566	94.7893837966734	0	4
"46"	"userType_catReturning Visitor:channelGrouping_catSocial"	-0.484290245518289	0.0796654680743731	-6.0790485165564	1.21741979301271e-09	4
"47"	"userType_catReturning Visitor:deviceCategory_catmobile"	-0.698503666112548	0.158258853228565	-4.41367829895579	1.01834533210439e-05	4
"48"	"userType_catReturning Visitor:deviceCategory_cattablet"	-0.109482234285454	0.174384886183517	-0.627819512811669	0.530124956747308	4
"49"	"userType_catReturning Visitor:operatingSystem_catAndroid"	0.670985147225599	0.2639746833327	2.54185416099135	0.0110295121963659	4
"50"	"userType_catReturning Visitor:operatingSystem_catiOS"	0.769659971962613	0.271827420403242	2.83142874556534	0.00463584600262067	4
"51"	"userType_catReturning Visitor:operatingSystem_catLinux"	-0.11866428663625	0.45822355867496	-0.258965922615132	0.795662565270406	4
"52"	"userType_catReturning Visitor:operatingSystem_catMacintosh"	2.43527419816995	0.280577822300937	8.67949639853561	4.08877765946443e-18	4
"53"	"userType_catReturning Visitor:operatingSystem_catWindows"	1.0672655207398	0.277277614790752	3.84908648880732	0.000118701756508086	4
"54"	"userType_catReturning Visitor:browser_catChrome"	0.340120253467565	0.124882906855259	2.72351326560464	0.00646133149369332	4
"55"	"userType_catReturning Visitor:browser_catFirefox"	0.818629656902038	0.151250648792918	5.41240426692548	6.24602150789959e-08	4
"56"	"userType_catReturning Visitor:browser_catInternet Explorer"	1.71318163020975	0.17312653219155	9.89554638750725	4.5629953249188e-23	4
"57"	"userType_catReturning Visitor:browser_catSafari"	-0.0363880620866014	0.159653746017042	-0.227918623861899	0.819710405907368	4
"58"	"userType_catReturning Visitor:browser_catSafari (in-app)"	0.329891273095353	0.179840991256729	1.83434972633365	0.0666078444220136	4
"59"	"channelGrouping_catDirect:deviceCategory_catmobile"	0.276843668235762	0.535795252373622	0.51669675498116	0.605370073265735	4
"60"	"channelGrouping_catDisplay:deviceCategory_catmobile"	-0.0635668088736402	0.41743921110935	-0.152278001639354	0.878968269323066	4
"61"	"channelGrouping_catEmail:deviceCategory_catmobile"	-1.56468147490578	1.3185126292756	-1.1867019247024	0.235350672135157	4
"62"	"channelGrouping_catOrganic Search:deviceCategory_catmobile"	0.657567544060431	0.488227811056705	1.34684573301388	0.178035829731086	4
"63"	"channelGrouping_catPaid Search:deviceCategory_catmobile"	0.0851622832949098	0.40795290881529	0.208755180940428	0.834640183788494	4
"64"	"channelGrouping_catReferral:deviceCategory_catmobile"	0.756169928685189	0.83517049807856	0.905407854354142	0.3652535782844	4
"65"	"channelGrouping_catSocial:deviceCategory_catmobile"	0.341269170685329	0.542381160676601	0.629205428631791	0.529217357275001	4
"66"	"channelGrouping_catDirect:deviceCategory_cattablet"	0.176340336044319	0.553199227415285	0.31876461011747	0.749906304974453	4
"67"	"channelGrouping_catDisplay:deviceCategory_cattablet"	-0.273477501439189	0.440287807938777	-0.621133487024053	0.534514537972942	4
"68"	"channelGrouping_catEmail:deviceCategory_cattablet"	-2.00520120565235	1.35605907548923	-1.47869753014184	0.139227269083355	4
"69"	"channelGrouping_catOrganic Search:deviceCategory_cattablet"	1.26522233368619	0.51346269133099	2.46409788879987	0.0137390907556227	4
"70"	"channelGrouping_catPaid Search:deviceCategory_cattablet"	-0.456870470591711	0.443362544928309	-1.03046699776046	0.302795660463143	4
"71"	"channelGrouping_catReferral:deviceCategory_cattablet"	1.06141442631861	0.867267639656966	1.22386029154556	0.221010516431335	4
"72"	"channelGrouping_catSocial:deviceCategory_cattablet"	0.116820505944896	0.557811019464316	0.20942667295652	0.834115998096732	4
"73"	"channelGrouping_catDirect:operatingSystem_catAndroid"	0.0200667627052656	0.43326320289617	0.0463154095965876	0.963059036412116	4
"74"	"channelGrouping_catDisplay:operatingSystem_catAndroid"	0.338615549800148	0.624800355236476	0.541957998202462	0.587849778057642	4
"75"	"channelGrouping_catEmail:operatingSystem_catAndroid"	0.926094240271695	1.07530460717653	0.861238977393931	0.38911043366124	4
"76"	"channelGrouping_catOrganic Search:operatingSystem_catAndroid"	-0.987126267458302	0.498623443136775	-1.97970288209559	0.0477422227210293	4
"77"	"channelGrouping_catPaid Search:operatingSystem_catAndroid"	-0.316803249498136	0.697463612150894	-0.454221903449777	0.649671027619304	4
"78"	"channelGrouping_catReferral:operatingSystem_catAndroid"	-2.43105834360017	1.05598092850185	-2.3021801606296	0.0213289705481809	4
"79"	"channelGrouping_catSocial:operatingSystem_catAndroid"	-0.527815760761104	0.431170279215596	-1.22414690020224	0.22090239818618	4
"80"	"channelGrouping_catDirect:operatingSystem_catiOS"	-0.532355687046163	0.44057758865059	-1.20831313430325	0.226932368585169	4
"81"	"channelGrouping_catDisplay:operatingSystem_catiOS"	0.480939986646896	0.641326580088723	0.749914320688783	0.453309723603537	4
"82"	"channelGrouping_catEmail:operatingSystem_catiOS"	-0.413725962276585	1.09135406682769	-0.379094168292413	0.704619494574121	4
"83"	"channelGrouping_catOrganic Search:operatingSystem_catiOS"	-1.27481566696139	0.518819452772244	-2.4571470097152	0.0140077986138827	4
"84"	"channelGrouping_catPaid Search:operatingSystem_catiOS"	-0.334652177526513	0.714200235819019	-0.46856912213526	0.639379629515544	4
"85"	"channelGrouping_catReferral:operatingSystem_catiOS"	0.752513633871402	1.07631268079861	0.699158940795017	0.484455854479592	4
"86"	"channelGrouping_catSocial:operatingSystem_catiOS"	-0.128358267140025	0.467349320374224	-0.27465166106852	0.78358497034407	4
"87"	"channelGrouping_catDirect:operatingSystem_catLinux"	-0.176054561503687	0.790664180182553	-0.222666671788569	0.823795822406468	4
"88"	"channelGrouping_catDisplay:operatingSystem_catLinux"	0.978410177605282	0.955551688423599	1.02392177153639	0.305877019958725	4
"89"	"channelGrouping_catEmail:operatingSystem_catLinux"	-0.558812600976437	2.13732801592123	-0.261453832455183	0.793743590094135	4
"90"	"channelGrouping_catOrganic Search:operatingSystem_catLinux"	0.784735228992334	0.78230083050872	1.00311184443206	0.315811598390477	4
"91"	"channelGrouping_catPaid Search:operatingSystem_catLinux"	-1.22853378213204	1.20295426956284	-1.0212639110367	0.307134201583209	4
"92"	"channelGrouping_catReferral:operatingSystem_catLinux"	-0.164881185924649	1.24930821341701	-0.131977989221475	0.895002215415177	4
"93"	"channelGrouping_catSocial:operatingSystem_catLinux"	-0.417235158268477	0.791419344275074	-0.527198584778916	0.598057954977971	4
"94"	"channelGrouping_catDirect:operatingSystem_catMacintosh"	1.31012537361528	0.569699077673983	2.29967964660286	0.0214703435361518	4
"95"	"channelGrouping_catDisplay:operatingSystem_catMacintosh"	-0.00279110129349876	0.633654858355872	-0.00440476587008385	0.996485533688921	4
"96"	"channelGrouping_catEmail:operatingSystem_catMacintosh"	-1.46399422935861	1.49140044455701	-0.981623838655524	0.326289795379691	4
"97"	"channelGrouping_catOrganic Search:operatingSystem_catMacintosh"	1.19918257068099	0.530854108504187	2.25896823905156	0.0238895105956725	4
"98"	"channelGrouping_catPaid Search:operatingSystem_catMacintosh"	-0.322558314036826	0.704928342858746	-0.457576032095308	0.647258990377459	4
"99"	"channelGrouping_catReferral:operatingSystem_catMacintosh"	6.68718236248638	0.948222294414481	7.05233614720655	1.78140614858709e-12	4
"100"	"channelGrouping_catSocial:operatingSystem_catMacintosh"	-0.290273884364204	0.51919351419966	-0.559086114185504	0.57610537423581	4
"101"	"channelGrouping_catDirect:operatingSystem_catWindows"	1.60480854288665	0.56389627491242	2.84592861184603	0.00442995473655359	4
"102"	"channelGrouping_catDisplay:operatingSystem_catWindows"	0.40045463827066	0.637410442018825	0.628252397312992	0.529841387284764	4
"103"	"channelGrouping_catEmail:operatingSystem_catWindows"	0.0367986604862534	1.4775389704809	0.024905373882813	0.980130537010135	4
"104"	"channelGrouping_catOrganic Search:operatingSystem_catWindows"	1.53063145002579	0.532253706059096	2.87575536365705	0.00403226686315902	4
"105"	"channelGrouping_catPaid Search:operatingSystem_catWindows"	0.317365949379838	0.696445461589234	0.455693901221832	0.648612023346372	4
"106"	"channelGrouping_catReferral:operatingSystem_catWindows"	1.78360957259576	0.944269387824036	1.88887789395131	0.058913787761052	4
"107"	"channelGrouping_catSocial:operatingSystem_catWindows"	-0.048230398191076	0.510575454656365	-0.0944628218047356	0.924741880564311	4
"108"	"channelGrouping_catDirect:browser_catChrome"	-0.0567871799075393	0.206427960133777	-0.275094419722687	0.78324479869985	4
"109"	"channelGrouping_catDisplay:browser_catChrome"	0.0672200982796129	0.316768858118791	0.212205513757936	0.831947542449656	4
"110"	"channelGrouping_catEmail:browser_catChrome"	0.321865365941321	0.583469980772922	0.551639975573287	0.581197427910064	4
"111"	"channelGrouping_catOrganic Search:browser_catChrome"	0.272507260020855	0.263277515292689	1.03505709448034	0.300647092785754	4
"112"	"channelGrouping_catPaid Search:browser_catChrome"	0.280447757644512	0.349798827709192	0.801740130123206	0.422706984419661	4
"113"	"channelGrouping_catReferral:browser_catChrome"	-0.920860706187207	0.434727207420835	-2.11824953779756	0.034158700367576	4
"114"	"channelGrouping_catSocial:browser_catChrome"	-0.0612488701268006	0.187825133920412	-0.326095176126716	0.744353667355051	4
"115"	"channelGrouping_catDirect:browser_catFirefox"	1.45591000070151	0.26286188258977	5.53868817478434	3.06225717570507e-08	4
"116"	"channelGrouping_catDisplay:browser_catFirefox"	-0.15221904828273	0.378335000642297	-0.402339323679566	0.687435982581037	4
"117"	"channelGrouping_catEmail:browser_catFirefox"	-0.0650140760892041	0.715697106130467	-0.0908402109388332	0.927619910562104	4
"118"	"channelGrouping_catOrganic Search:browser_catFirefox"	0.774990986691232	0.310839945490981	2.49321555331993	0.0126623010759675	4
"119"	"channelGrouping_catPaid Search:browser_catFirefox"	1.7572052602489	0.444690826727482	3.95152126968825	7.77591213858241e-05	4
"120"	"channelGrouping_catReferral:browser_catFirefox"	0.434084887937142	0.474076704406645	0.915642730178957	0.359858585301909	4
"121"	"channelGrouping_catSocial:browser_catFirefox"	-0.123368326803951	0.259140056444427	-0.476068148230907	0.63402784113552	4
"122"	"channelGrouping_catDirect:browser_catInternet Explorer"	0.49339287052844	0.329873435821783	1.4957035546051	0.134737031513104	4
"123"	"channelGrouping_catDisplay:browser_catInternet Explorer"	-0.704914752501821	0.424840919932605	-1.65924401212022	0.0970727015667961	4
"124"	"channelGrouping_catEmail:browser_catInternet Explorer"	0.00958002462966356	0.798773623346258	0.0119934163443336	0.990430913982549	4
"125"	"channelGrouping_catOrganic Search:browser_catInternet Explorer"	0.527405511387389	0.334558400579571	1.57642286211836	0.114934505507621	4
"126"	"channelGrouping_catPaid Search:browser_catInternet Explorer"	-0.167234715599634	0.471972691572452	-0.354331338625684	0.723092030490349	4
"127"	"channelGrouping_catReferral:browser_catInternet Explorer"	-0.600715042837586	0.508379907170286	-1.18162624911998	0.237359472133343	4
"128"	"channelGrouping_catSocial:browser_catInternet Explorer"	-0.734739421145714	0.333151637177807	-2.20542041266804	0.027428994097956	4
"129"	"channelGrouping_catDirect:browser_catSafari"	0.500739362587058	0.269368731581405	1.85893648326339	0.0630418236062215	4
"130"	"channelGrouping_catDisplay:browser_catSafari"	0.306544949936383	0.384887173757525	0.796454054167842	0.425771830302153	4
"131"	"channelGrouping_catEmail:browser_catSafari"	1.96105078364924	0.711260850344353	2.75714708984729	0.00583285824492838	4
"132"	"channelGrouping_catOrganic Search:browser_catSafari"	0.403031048219571	0.315524646079499	1.27733618665727	0.201489323116014	4
"133"	"channelGrouping_catPaid Search:browser_catSafari"	0.785725942398815	0.434553261637398	1.80812344944368	0.0705931015124152	4
"134"	"channelGrouping_catReferral:browser_catSafari"	-1.9104664662058	0.511784978292699	-3.7329475213967	0.000189454880122082	4
"135"	"channelGrouping_catSocial:browser_catSafari"	-0.334163062491597	0.25528193614003	-1.30899611443051	0.190541488774616	4
"136"	"channelGrouping_catDirect:browser_catSafari (in-app)"	1.04489903353486	0.320677789204773	3.25840787453983	0.00112111585039775	4
"137"	"channelGrouping_catDisplay:browser_catSafari (in-app)"	-0.252533870544727	0.450622935260966	-0.560410602266569	0.575201831509357	4
"138"	"channelGrouping_catEmail:browser_catSafari (in-app)"	0.785017214738793	0.771874134644159	1.01702749127705	0.309145113968579	4
"139"	"channelGrouping_catOrganic Search:browser_catSafari (in-app)"	0.904144658099596	1.57166208567204	0.575279295939104	0.565104926788672	4
"140"	"channelGrouping_catPaid Search:browser_catSafari (in-app)"	-0.0400951121724032	0.472514172596079	-0.0848548350457158	0.932377127413896	4
"141"	"channelGrouping_catReferral:browser_catSafari (in-app)"	-3.44717453941204	0.631399705627473	-5.45957577852576	4.79465458832302e-08	4
"142"	"channelGrouping_catSocial:browser_catSafari (in-app)"	-0.243335017291587	0.313789295598723	-0.77547265220534	0.438063968583462	4
"143"	"deviceCategory_catmobile:javaEnabled_catYes"	-0.669914086594698	0.255010649482126	-2.62700435434817	0.00861656582990215	4
"144"	"deviceCategory_cattablet:javaEnabled_catYes"	-1.08556883549489	0.300791494774533	-3.6090409946884	0.000307621265974977	4
"145"	"deviceCategory_catmobile:browser_catChrome"	0.310419375624371	0.47340096099221	0.655721895819048	0.51200599781909	4
"146"	"deviceCategory_cattablet:browser_catChrome"	0.429615212137601	0.515124994358964	0.834001876908005	0.404283781991648	4
"147"	"deviceCategory_catmobile:browser_catFirefox"	-1.27765607137438	0.688692936458432	-1.85518974239036	0.0635748278318391	4
"148"	"deviceCategory_cattablet:browser_catFirefox"	-0.545010682348744	0.744274368635209	-0.732271196370958	0.464006377993814	4
"149"	"deviceCategory_catmobile:browser_catInternet Explorer"	0.847847056256785	0.532183135585332	1.59314904882182	0.111132875442545	4
"150"	"deviceCategory_cattablet:browser_catInternet Explorer"	-0.672740244509713	0.610323479506493	-1.10226833326761	0.270350166572519	4
"151"	"deviceCategory_catmobile:browser_catSafari"	-0.000920853121148087	0.442260204946863	-0.00208215234119635	0.998338692032853	4
"152"	"deviceCategory_cattablet:browser_catSafari"	0.437350052785776	0.482117772331908	0.90714360242395	0.364335093795074	4
"153"	"deviceCategory_catmobile:browser_catSafari (in-app)"	0.143638000430798	0.538108665228757	0.266931216150804	0.789523186727247	4
"154"	"deviceCategory_cattablet:browser_catSafari (in-app)"	-0.799013229138199	0.575443350541052	-1.3885176158295	0.164985470427141	4
"155"	"operatingSystem_catAndroid:browser_catChrome"	-0.410155969200618	0.506188900113392	-0.810282424424436	0.41778160636355	4
"156"	"operatingSystem_catiOS:browser_catChrome"	1.31699184771097	0.88236903979078	1.49256352877391	0.135557582139616	4
"157"	"operatingSystem_catLinux:browser_catChrome"	-0.612365959993396	1.4300946756012	-0.428199594363193	0.668507596526791	4
"158"	"operatingSystem_catMacintosh:browser_catChrome"	0.235857254471645	0.764719617587579	0.30842317765522	0.757761591250738	4
"159"	"operatingSystem_catWindows:browser_catChrome"	-0.275488255424424	0.553740403170246	-0.497504342914501	0.618835558355637	4
"160"	"operatingSystem_catAndroid:browser_catFirefox"	-7.52354969140056	2.71268054757894	-2.77347426629918	0.00554811119663483	4
"161"	"operatingSystem_catLinux:browser_catFirefox"	-8.60021720240882	3.029921079647	-2.83842944299089	0.00453538129670333	4
"162"	"operatingSystem_catMacintosh:browser_catFirefox"	-6.97516316467613	2.77957621804039	-2.50943403508958	0.012095513763926	4
"163"	"operatingSystem_catWindows:browser_catFirefox"	-7.68196801458692	2.72895927722857	-2.81498081656552	0.00487985981554007	4
"164"	"operatingSystem_catWindows:browser_catInternet Explorer"	2.16185501468781	0.581011579489216	3.72084669394774	0.000198766187002825	4
"165"	"operatingSystem_catiOS:browser_catSafari"	-0.711560142164316	0.80337715371645	-0.885711199120631	0.375777294138058	4
"166"	"operatingSystem_catLinux:browser_catSafari"	-1.81009732372671	1.87305743728768	-0.966386448003354	0.333855366166661	4
"167"	"operatingSystem_catMacintosh:browser_catSafari"	0.85812295724856	0.788159356136356	1.08876834432972	0.27626113295553	4
"168"	"operatingSystem_catWindows:browser_catSafari"	1.27577303123718	0.925072014914451	1.37910671890248	0.167867822361658	4
"169"	"javaEnabled_catYes:browser_catChrome"	0.23902684816381	0.490511291922767	0.487301418132175	0.626046810363297	4
"170"	"javaEnabled_catYes:browser_catFirefox"	-0.67890322042958	0.337847788904213	-2.00949434250128	0.0444899241624683	4
"171"	"javaEnabled_catYes:browser_catInternet Explorer"	0.368046678483773	0.420192424681979	0.875900318199043	0.381088298643075	4
"172"	"javaEnabled_catYes:browser_catSafari"	-1.07871141721451	0.456169177936548	-2.36471789280897	0.0180474842796241	4
"173"	"javaEnabled_catYes:browser_catSafari (in-app)"	-0.917931013673069	18.8460347525042	-0.0487068513736608	0.961153104020403	4
