"factor"	"estimate"	"stdErr"	"tValue"	"pValue"	"iter"
"1"	"(Intercept)"	0.461348256955677	0.310249831854864	1.48702177918181	0.137026790333904	1
"2"	"users"	1.8518387314563e-05	2.21945330567265e-05	0.834367060898838	0.404085382021265	1
"3"	"userType_catReturning Visitor"	0.816343082884242	0.273909657748026	2.9803369826237	0.00288320863077014	1
"4"	"channelGrouping_catDirect"	0.480263720324253	0.554104337825568	0.866738784628391	0.386096845215707	1
"5"	"channelGrouping_catDisplay"	0.425419011779836	0.596916235733731	0.712694656825526	0.476044075637282	1
"6"	"channelGrouping_catEmail"	2.50963625697664	1.46196643409176	1.71661687878336	0.0860666127154594	1
"7"	"channelGrouping_catOrganic Search"	0.726553398835473	0.519840493923395	1.39764679229191	0.16223659609632	1
"8"	"channelGrouping_catPaid Search"	1.15643962762338	0.683207929999859	1.69266130682004	0.0905374731419424	1
"9"	"channelGrouping_catReferral"	-1.74817144371635	0.933995179037524	-1.87171356228823	0.0612626468194993	1
"10"	"channelGrouping_catSocial"	0.219343299709186	0.503230213998245	0.435870688221339	0.662935844382579	1
"11"	"deviceCategory_catmobile"	-0.595788444745555	0.31187002029566	-1.91037421352887	0.0561011169603461	1
"12"	"deviceCategory_cattablet"	2.99968912391533	1.66062216260793	1.80636462132028	0.0708783045306098	1
"13"	"operatingSystem_catAndroid"	-1.39678851277083	0.441913173287201	-3.16077591075352	0.00157613458019913	1
"14"	"operatingSystem_catiOS"	-1.48808166884699	0.417488405469339	-3.56436645749261	0.000365691854318637	1
"15"	"operatingSystem_catLinux"	-0.0372500657944623	0.439990986347115	-0.0846609747706858	0.932531875280117	1
"16"	"operatingSystem_catMacintosh"	0.0375219529165457	0.314153523393364	0.119438268624996	0.90492949362754	1
"17"	"operatingSystem_catWindows"	-0.0454207044556498	0.315418461821693	-0.144001413846619	0.885500985103632	1
"18"	"users:userType_catReturning Visitor"	0.000103329759275238	1.52746818135288e-05	6.76477327231251	1.37676124956808e-11	1
"19"	"users:channelGrouping_catDirect"	-5.33422966933078e-05	9.73722062661244e-05	-0.547818507342023	0.583823405883482	1
"20"	"users:channelGrouping_catDisplay"	-0.00105189339312226	0.000361290098281446	-2.91149244921411	0.00360153415496103	1
"21"	"users:channelGrouping_catEmail"	-0.00103696387088954	0.000159596507069957	-6.49740956069291	8.38833519759218e-11	1
"22"	"users:channelGrouping_catOrganic Search"	0.000142726584301884	0.00017997898724716	0.793018043300142	0.427777891535121	1
"23"	"users:channelGrouping_catPaid Search"	-0.00129053238336739	0.000375034600025533	-3.4411021897167	0.000580680929673902	1
"24"	"users:channelGrouping_catReferral"	-0.000503730885061511	0.000384599049785634	-1.30975592722415	0.190295338724371	1
"25"	"users:channelGrouping_catSocial"	-3.61537545546259e-05	3.61476143820262e-05	-1.00016986384039	0.317241921198337	1
"26"	"users:deviceCategory_catmobile"	-2.77103219874264e-05	2.27200234539853e-05	-1.21964319462732	0.222616341648207	1
"27"	"users:deviceCategory_cattablet"	0.0012262759415019	0.000282258751581434	4.34450990316986	1.40360452264141e-05	1
"28"	"userType_catReturning Visitor:channelGrouping_catDirect"	0.264817430734145	0.125336915004472	2.11284465334652	0.0346279645877073	1
"29"	"userType_catReturning Visitor:channelGrouping_catDisplay"	-0.838805622946186	0.108720361813275	-7.71525783170974	1.27101730316674e-14	1
"30"	"userType_catReturning Visitor:channelGrouping_catEmail"	-0.276221298623362	0.185625428820206	-1.4880574303799	0.13675348218578	1
"31"	"userType_catReturning Visitor:channelGrouping_catOrganic Search"	0.978118911665744	0.0844105631725364	11.5876363680509	6.14972027662936e-31	1
"32"	"userType_catReturning Visitor:channelGrouping_catPaid Search"	0.454798838891312	0.12337307725748	3.68637022761574	0.000228151599474851	1
"33"	"userType_catReturning Visitor:channelGrouping_catReferral"	13.2666735727695	0.145380585637995	91.2547814727076	0	1
"34"	"userType_catReturning Visitor:channelGrouping_catSocial"	-0.43668282639684	0.0833213440965648	-5.24094793635048	1.61578578593866e-07	1
"35"	"userType_catReturning Visitor:deviceCategory_catmobile"	-0.415604495014751	0.156872996174955	-2.64930552197296	0.00807286859988269	1
"36"	"userType_catReturning Visitor:deviceCategory_cattablet"	0.35449635236279	0.174497576462312	2.03152593605995	0.0422165116122026	1
"37"	"userType_catReturning Visitor:operatingSystem_catAndroid"	0.202369403558306	0.258354944698212	0.783299904690026	0.43346145194894	1
"38"	"userType_catReturning Visitor:operatingSystem_catiOS"	0.209705921737257	0.259385262567906	0.808472770045513	0.418829291859132	1
"39"	"userType_catReturning Visitor:operatingSystem_catLinux"	-0.0717983474038062	0.455795003424514	-0.157523331463411	0.874834210219019	1
"40"	"userType_catReturning Visitor:operatingSystem_catMacintosh"	2.04644757797484	0.2783988308803	7.3507764795705	2.0560852104343e-13	1
"41"	"userType_catReturning Visitor:operatingSystem_catWindows"	1.00463098111217	0.276475509063647	3.6337069584015	0.000280165033314305	1
"42"	"channelGrouping_catDirect:deviceCategory_catmobile"	0.14764950763014	0.505252500428403	0.29222914781213	0.770114836565339	1
"43"	"channelGrouping_catDisplay:deviceCategory_catmobile"	-1.30120977363857	0.34476985620888	-3.77414019875979	0.000161081946057333	1
"44"	"channelGrouping_catEmail:deviceCategory_catmobile"	-1.70815714321402	1.25614414647036	-1.35984166149544	0.173897277231598	1
"45"	"channelGrouping_catOrganic Search:deviceCategory_catmobile"	0.556166831029774	0.471068130567233	1.18065051516024	0.237757380155334	1
"46"	"channelGrouping_catPaid Search:deviceCategory_catmobile"	-1.26376419252047	0.299726701822982	-4.21638841262414	2.4947311585424e-05	1
"47"	"channelGrouping_catReferral:deviceCategory_catmobile"	0.521759263730788	0.818918235838517	0.63713230564043	0.524046870059812	1
"48"	"channelGrouping_catSocial:deviceCategory_catmobile"	-0.284829214199891	0.499183913751785	-0.57058972926263	0.568284992518976	1
"49"	"channelGrouping_catDirect:deviceCategory_cattablet"	0.640134342553128	0.536525809820397	1.19311006262199	0.232842190679173	1
"50"	"channelGrouping_catDisplay:deviceCategory_cattablet"	-0.926884315606432	0.364348611255501	-2.54394908330376	0.0109690931065028	1
"51"	"channelGrouping_catEmail:deviceCategory_cattablet"	-1.7939597605221	1.30126991241854	-1.37862233146377	0.168028571263994	1
"52"	"channelGrouping_catOrganic Search:deviceCategory_cattablet"	1.87349134826983	0.517388418562511	3.62105389501191	0.00029422102797741	1
"53"	"channelGrouping_catPaid Search:deviceCategory_cattablet"	-1.34860854043328	0.360127763260202	-3.74480581065023	0.000181102745964654	1
"54"	"channelGrouping_catReferral:deviceCategory_cattablet"	1.54358038828723	0.85580632129559	1.80365621271695	0.0713021369350673	1
"55"	"channelGrouping_catSocial:deviceCategory_cattablet"	-0.722175569171035	0.521207959399764	-1.38558046965114	0.16589242411804	1
"56"	"channelGrouping_catDirect:operatingSystem_catAndroid"	-0.294878859343656	0.40988962776288	-0.719410395801095	0.471897548238956	1
"57"	"channelGrouping_catDisplay:operatingSystem_catAndroid"	1.46688580120292	0.630215890848168	2.32759253218564	0.0199449141605512	1
"58"	"channelGrouping_catEmail:operatingSystem_catAndroid"	0.574888018800077	1.04126907054067	0.552103231589866	0.580884567037042	1
"59"	"channelGrouping_catOrganic Search:operatingSystem_catAndroid"	-0.990182080921985	0.486130734758831	-2.03686376960554	0.0416784766899275	1
"60"	"channelGrouping_catPaid Search:operatingSystem_catAndroid"	0.371770823244244	0.6809796650779	0.545935278701335	0.585117276015533	1
"61"	"channelGrouping_catReferral:operatingSystem_catAndroid"	-2.40590036017139	1.04753606548859	-2.2967231768285	0.0216461339172504	1
"62"	"channelGrouping_catSocial:operatingSystem_catAndroid"	-0.0128362062688266	0.391876378642787	-0.0327557540295824	0.973869730086658	1
"63"	"channelGrouping_catDirect:operatingSystem_catiOS"	-0.156808931442534	0.424813218933522	-0.369124416222727	0.712039385760074	1
"64"	"channelGrouping_catDisplay:operatingSystem_catiOS"	1.66282821766941	0.625907774429165	2.65666650200332	0.00789879335926237	1
"65"	"channelGrouping_catEmail:operatingSystem_catiOS"	0.742850423604713	1.03831738998578	0.715436754473394	0.474348602179766	1
"66"	"channelGrouping_catOrganic Search:operatingSystem_catiOS"	-1.11438775683728	0.503057668406205	-2.21522864439757	0.0267569976754401	1
"67"	"channelGrouping_catPaid Search:operatingSystem_catiOS"	0.525263265962821	0.683620613794143	0.768354925764413	0.442286555602334	1
"68"	"channelGrouping_catReferral:operatingSystem_catiOS"	-0.606919020833878	1.0420486053108	-0.58242870605144	0.560285335544751	1
"69"	"channelGrouping_catSocial:operatingSystem_catiOS"	0.0292863428346211	0.394307519067419	0.0742728490288153	0.94079411617384	1
"70"	"channelGrouping_catDirect:operatingSystem_catLinux"	-0.0875040416307276	0.782537135728741	-0.11182094450922	0.910966642549139	1
"71"	"channelGrouping_catDisplay:operatingSystem_catLinux"	0.692790922460669	0.946672669910876	0.731816756182358	0.464290065090031	1
"72"	"channelGrouping_catEmail:operatingSystem_catLinux"	-0.4923626441284	2.13019710584289	-0.231134782212362	0.817212753741466	1
"73"	"channelGrouping_catOrganic Search:operatingSystem_catLinux"	0.908590250358871	0.778062523874561	1.1677599453503	0.24291926724606	1
"74"	"channelGrouping_catPaid Search:operatingSystem_catLinux"	-1.3469189940086	1.28737891193726	-1.04624907361714	0.295460273273212	1
"75"	"channelGrouping_catReferral:operatingSystem_catLinux"	0.197983289883267	1.24755916906854	0.158696512992716	0.873909787868349	1
"76"	"channelGrouping_catSocial:operatingSystem_catLinux"	-0.563541039020944	0.78800452738196	-0.715149493992419	0.474526063231086	1
"77"	"channelGrouping_catDirect:operatingSystem_catMacintosh"	1.30409109175136	0.5621758979391	2.31972074315544	0.0203672557747504	1
"78"	"channelGrouping_catDisplay:operatingSystem_catMacintosh"	0.125730266746426	0.608255480362424	0.206706344300443	0.836241569205244	1
"79"	"channelGrouping_catEmail:operatingSystem_catMacintosh"	-0.893235706885707	1.4789836680779	-0.603952380384675	0.54588300734011	1
"80"	"channelGrouping_catOrganic Search:operatingSystem_catMacintosh"	1.20016412143124	0.522893176196244	2.2952376815505	0.0217310936874206	1
"81"	"channelGrouping_catPaid Search:operatingSystem_catMacintosh"	-0.300575913178997	0.697148981737113	-0.431150186047809	0.666364398329585	1
"82"	"channelGrouping_catReferral:operatingSystem_catMacintosh"	6.14660917494327	0.942759135652996	6.51980865789846	7.22909871537009e-11	1
"83"	"channelGrouping_catSocial:operatingSystem_catMacintosh"	-0.549256941291913	0.509965357482925	-1.07704755476514	0.281473633313471	1
"84"	"channelGrouping_catDirect:operatingSystem_catWindows"	1.52655251519014	0.554488264844201	2.75308354022437	0.00590967318581206	1
"85"	"channelGrouping_catDisplay:operatingSystem_catWindows"	0.334919321903192	0.615833312668657	0.543847360987749	0.586553333261947	1
"86"	"channelGrouping_catEmail:operatingSystem_catWindows"	-0.335980668837895	1.45434239144218	-0.231018961432269	0.817302729372041	1
"87"	"channelGrouping_catOrganic Search:operatingSystem_catWindows"	1.50077860109473	0.52364240317941	2.8660371887044	0.00416133060917427	1
"88"	"channelGrouping_catPaid Search:operatingSystem_catWindows"	-0.0067019605025851	0.685175981821673	-0.00978137103517062	0.992195829247826	1
"89"	"channelGrouping_catReferral:operatingSystem_catWindows"	1.96828704191376	0.938823403838921	2.09654662832784	0.0360478212144334	1
"90"	"channelGrouping_catSocial:operatingSystem_catWindows"	-0.296847513005317	0.504486110035051	-0.588415631472377	0.55626082195105	1
"91"	"deviceCategory_catmobile:operatingSystem_catAndroid"	1.8014964960714	0.424752222579641	4.24128797992016	2.23364242571703e-05	1
"92"	"deviceCategory_cattablet:operatingSystem_catAndroid"	-1.79451943316101	1.67314695238227	-1.07254143493249	0.283491469677135	1
"93"	"deviceCategory_catmobile:operatingSystem_catiOS"	2.02309466405417	0.399177287129775	5.06816076285535	4.05706378390843e-07	1
"94"	"deviceCategory_cattablet:operatingSystem_catiOS"	-1.48813047565388	1.66415702197777	-0.894224797300263	0.371213730664263	1
"95"	"deviceCategory_catmobile:operatingSystem_catLinux"	1.36680937571847	2.65096236292265	0.515589883445793	0.606147287767557	1
"96"	"deviceCategory_cattablet:operatingSystem_catLinux"	-0.792140554449104	3.19367213528075	-0.248034400807229	0.8041106544653	1
"97"	"deviceCategory_catmobile:operatingSystem_catMacintosh"	0.726192963151779	0.539193889044207	1.3468123024151	0.178057856748903	1
"98"	"deviceCategory_cattablet:operatingSystem_catMacintosh"	-2.86142764497337	1.71001620511849	-1.67333364234119	0.0942792233295213	1
"99"	"deviceCategory_catmobile:operatingSystem_catWindows"	2.03076218059146	0.332374120214272	6.10986853995216	1.01788957559123e-09	1
"100"	"deviceCategory_cattablet:operatingSystem_catWindows"	-2.761754752827	1.66184738629638	-1.66185822813844	0.0965588316387115	1
