"userType_cat"	"channelGrouping_cat"	"deviceCategory_cat"	"operatingSystem_cat"	"DailyUsers"	"TotalRevenue"	"RevenuePerUser_Actual"	"RevenuePerUser_Predicted"
"195"	"Returning Visitor"	"Referral"	"desktop"	"Macintosh"	101.5	2484.03755555556	24.4279379578181	20.9884370229042
"196"	"Returning Visitor"	"Referral"	"desktop"	"Windows"	230.6	3571.39955555556	15.4578687830674	15.6365963440102
"199"	"Returning Visitor"	"Referral"	"mobile"	"iOS"	69.6666666666667	761.261444444444	11.0926515290602	12.4161382770062
"166"	"Returning Visitor"	"Organic Search"	"desktop"	"Macintosh"	282.822222222222	1810.83377777778	6.3895193375986	6.34050263453318
"167"	"Returning Visitor"	"Organic Search"	"desktop"	"Windows"	511.344444444444	3112.03077777778	5.99316983089207	5.57615465655796
"88"	"New Visitor"	"Referral"	"desktop"	"Macintosh"	83.0666666666667	48.6813333333333	0.83538848725569	4.85744586820731
"179"	"Returning Visitor"	"Paid Search"	"desktop"	"Macintosh"	112.077777777778	511.206666666667	4.79436805982088	4.54277927135957
"128"	"Returning Visitor"	"Direct"	"desktop"	"Windows"	103.166666666667	533.056111111111	5.11973316929709	4.51552513786903
"173"	"Returning Visitor"	"Organic Search"	"tablet"	"iOS"	100.6	393.672555555556	3.91803149685392	4.47747794570414
"155"	"Returning Visitor"	"Email"	"desktop"	"Windows"	77.8333333333333	302.362555555556	4.3376177212763	4.06389210767425
"180"	"Returning Visitor"	"Paid Search"	"desktop"	"Windows"	179.722222222222	634.698333333333	3.77467417634273	3.63370771009231
"114"	"Returning Visitor"	"(Other)"	"desktop"	"Macintosh"	1892.57777777778	6677.72811111111	3.52613381839996	3.58973382133497
"140"	"Returning Visitor"	"Display"	"desktop"	"Macintosh"	168.855555555556	421.206444444444	2.49695840070153	2.91868697014046
"59"	"New Visitor"	"Organic Search"	"desktop"	"Windows"	793.077777777778	1930.49222222222	2.40272305527819	2.76973408362878
"115"	"Returning Visitor"	"(Other)"	"desktop"	"Windows"	3507.8	9162.97477777778	2.58327559955961	2.65962363380076
"206"	"Returning Visitor"	"Social"	"desktop"	"Macintosh"	178.555555555556	352.081666666667	1.93821038050143	2.61019746736718
"122"	"Returning Visitor"	"(Other)"	"tablet"	"iOS"	548.655555555556	1605.94544444444	2.86943021645614	2.59689827847399
"58"	"New Visitor"	"Organic Search"	"desktop"	"Macintosh"	391.911111111111	959.088111111111	2.41404967536772	2.48808698990658
"20"	"New Visitor"	"Direct"	"desktop"	"Windows"	825.211111111111	1902.69588888889	2.37332385071365	2.39432250311717
"170"	"Returning Visitor"	"Organic Search"	"mobile"	"iOS"	660.033333333333	1328.949	2.00235516921732	2.3120891026204
"19"	"New Visitor"	"Direct"	"desktop"	"Macintosh"	379.577777777778	871.691222222222	2.36531951703857	2.27015189675887
"169"	"Returning Visitor"	"Organic Search"	"mobile"	"Android"	393.833333333333	859.075111111111	2.1806491187973	2.23629283626851
"66"	"New Visitor"	"Organic Search"	"tablet"	"iOS"	153.255555555556	415.940444444444	2.7253072244066	2.18079075361224
"158"	"Returning Visitor"	"Email"	"mobile"	"iOS"	143.933333333333	205.278888888889	1.74861149701693	2.14491271397018
"51"	"New Visitor"	"Email"	"mobile"	"iOS"	82.2444444444444	87.5733333333333	4.71600337763081	1.85980734178714
"141"	"Returning Visitor"	"Display"	"desktop"	"Windows"	391.055555555556	630.659444444444	1.64185652283175	1.79873166292878
"121"	"Returning Visitor"	"(Other)"	"tablet"	"Android"	94.4111111111111	186.172111111111	1.97352805310749	1.76881750865127
"131"	"Returning Visitor"	"Direct"	"mobile"	"iOS"	368.733333333333	609.313555555556	1.63916444928692	1.76181641118424
"207"	"Returning Visitor"	"Social"	"desktop"	"Windows"	357.255555555556	589.381444444444	1.64690607653176	1.75299294809036
"27"	"New Visitor"	"Direct"	"tablet"	"iOS"	188.744444444444	331.541333333333	1.73344920716749	1.67082311142779
"183"	"Returning Visitor"	"Paid Search"	"mobile"	"iOS"	238.744444444444	382.910444444444	1.75659161539305	1.60126112199006
"130"	"Returning Visitor"	"Direct"	"mobile"	"Android"	193.6	275.937222222222	1.43115849980558	1.4790388091217
"182"	"Returning Visitor"	"Paid Search"	"mobile"	"Android"	132.288888888889	187.416888888889	1.92695446838838	1.43609040487304
"73"	"New Visitor"	"Paid Search"	"desktop"	"Windows"	119.333333333333	186.595333333333	2.07051346050997	1.41553961173503
"118"	"Returning Visitor"	"(Other)"	"mobile"	"iOS"	4205.24444444444	6235.25811111111	1.44373716525408	1.4025396329901
"138"	"Returning Visitor"	"Display"	"desktop"	"iOS"	72.5222222222222	108.501333333333	2.01060662538229	1.17649046918424
"117"	"Returning Visitor"	"(Other)"	"mobile"	"Android"	2293.95555555556	2673.06288888889	1.16320333730149	1.08695071788473
"37"	"New Visitor"	"Display"	"mobile"	"iOS"	145.411111111111	87.3406666666667	0.589694728940349	1.03501220075706
"13"	"New Visitor"	"(Other)"	"tablet"	"iOS"	400.422222222222	298.751888888889	0.749163837134763	0.977791148698571
"31"	"New Visitor"	"Display"	"desktop"	"iOS"	86.7555555555556	74.3476666666667	2.03112779143012	0.969825271588095
"33"	"New Visitor"	"Display"	"desktop"	"Macintosh"	126.233333333333	180.615	1.44207184547272	0.921006593442649
"34"	"New Visitor"	"Display"	"desktop"	"Windows"	321.422222222222	274.310777777778	0.919893937375345	0.847766192029156
"144"	"Returning Visitor"	"Display"	"mobile"	"iOS"	153.111111111111	160.885888888889	1.10197592989428	0.814217592369824
"36"	"New Visitor"	"Display"	"mobile"	"Android"	71.6	36.9643333333333	0.479236198296755	0.786224001312997
"23"	"New Visitor"	"Direct"	"mobile"	"iOS"	1593.98888888889	1269.95333333333	0.786088128449643	0.773093606153785
