"factor"	"estimate"	"stdErr"	"tValue"	"pValue"	"iter"	"inMod"
"148"	"users"	-0.000336312182390197	4.45308477840212e-05	-7.55234178386504	4.45868283197797e-14	15	""
"149"	"monthFebruary"	-0.170835768288964	0.180793283108503	-0.944923203736706	0.344709517100135	15	""
"150"	"monthJanuary"	-0.419713542331037	0.268334469576963	-1.56414322391278	0.117799783121319	15	""
"151"	"monthMarch"	0.906385308620686	0.104915399287712	8.63920182141315	6.07978571431175e-18	15	""
"152"	"weekdayMonday"	-0.0147793672580553	0.0856682144342922	-0.172518679835344	0.863031525501003	15	""
"153"	"weekdaySaturday"	-0.308036500009658	0.0880727284471712	-3.49752421028296	0.000470618886567445	15	"a"
"154"	"weekdaySunday"	-0.260491435334379	0.0951322686838509	-2.73820270385918	0.00618307213995059	15	""
"155"	"weekdayThursday"	0.128726424611475	0.0879507052722589	1.46362015191341	0.143313503486955	15	"a"
"156"	"weekdayTuesday"	0.245568081852791	0.0859790809569379	2.85613755252609	0.00429271699357351	15	"y"
"157"	"weekdayWednesday"	0.516884254271313	0.0876025880307531	5.90033086796316	3.68630574616844e-09	15	"d"
"158"	"week"	-0.0500777353704517	0.0204503170083638	-2.44875105603355	0.0143437855547664	15	""
"159"	"userType_catReturning Visitor"	1.43065725143985	0.0512506286339733	27.9149210375047	2.96137666380334e-168	15	"e"
"160"	"channelGrouping_catDirect"	-0.639988303433417	0.1513043164289	-4.22980863030538	2.34931972928085e-05	15	"n"
"161"	"channelGrouping_catDisplay"	-1.96115031935675	0.301749708689394	-6.4992616823881	8.26222231126033e-11	15	"n"
"162"	"channelGrouping_catEmail"	-0.998112960184133	0.16523674942916	-6.04050227102806	1.56355311929465e-09	15	"n"
"163"	"channelGrouping_catOrganic Search"	-0.446332014361363	0.153615801299411	-2.90550848666552	0.00367059416459446	15	"n"
"164"	"channelGrouping_catPaid Search"	-0.956354193917304	0.156556488040904	-6.10868451307768	1.0231447939493e-09	15	"n"
"165"	"channelGrouping_catReferral"	2.93365390152898	0.16936966159544	17.3210117673634	1.00404277316919e-66	15	"n"
"166"	"channelGrouping_catSocial"	-1.22726551424653	0.170016142497711	-7.21852346616472	5.44393223890203e-13	15	"n"
"167"	"searchUsed_catVisits Without Site Search"	-1.03198677603304	0.111571784262991	-9.2495318852345	2.47577344304694e-20	15	"t"
"168"	"country_catAustralia"	1.76320896333802	0.105883251279106	16.6523878142941	7.59968412529569e-62	15	"s"
"169"	"country_catCanada"	-0.110105403908671	0.195072074720966	-0.56443447410998	0.572464822298665	15	"n"
"170"	"country_catFrance"	0.0196122675357092	0.266793808054047	0.073510954691033	0.941400263353853	15	"a"
"171"	"country_catGermany"	-0.233296733586865	0.217521607391078	-1.07252211118239	0.283498549017146	15	"r"
"172"	"country_catIndia"	0.0838502786522704	0.234706497764229	0.35725588959408	0.720904024212143	15	"d"
"173"	"country_catNew Zealand"	1.09675174096173	0.119974654000328	9.14152868453969	6.73248852171756e-20	15	"w"
"174"	"country_catSpain"	-0.128061511256281	0.300417508249424	-0.426278454949292	0.669909550079401	15	"a"
"175"	"country_catSweden"	-0.265257855479415	0.277062395445939	-0.957393929452158	0.33838005186847	15	"e"
"176"	"country_catUnited Kingdom"	0.152627119919257	0.16575468533069	0.920801240790006	0.357165330623409	15	"i"
"177"	"country_catUnited States"	-0.297389626218467	0.114054853501268	-2.60742631364794	0.00912935468363926	15	"i"
