"continent"	"users"	"revenuePerUser"	"cat"	"revPerU"	"catNum"
"1"	"(not set)"	4492	2.11148803406055	"(not set)"	1	1
"2"	"Africa"	28814	4.33909093784272	"Africa"	2	2
"3"	"Americas"	1481612	3.0123711714241	"Americas"	2	3
"4"	"Asia"	395063	2.21224733323546	"Asia"	1	4
"5"	"Europe"	2180505	2.74337465393842	"Europe"	1	5
"6"	"Oceania"	350104	4.88409856882241	"Oceania"	2	6
