"revenuePerUser"	"users"	"userType_cat"
"1"	0.236490224625624	9616	"New Visitor"
"3"	0.340377339403136	9885	"New Visitor"
"5"	0.271970217640321	7857	"New Visitor"
"7"	0.266399082568807	6976	"New Visitor"
"9"	0.34659195781147	7585	"New Visitor"
"11"	0.319151684645093	7509	"New Visitor"
"13"	0.373795309168444	9380	"New Visitor"
"15"	0.390604026845638	8642	"New Visitor"
"17"	0.281647850108095	8326	"New Visitor"
"19"	0.281125681449831	6787	"New Visitor"
"21"	0.132090132090132	6435	"New Visitor"
"23"	0.260890734641272	6983	"New Visitor"
"63"	0.471329303253147	16046	"New Visitor"
"73"	0.241794607337557	33935	"New Visitor"
"103"	0.449457994579946	10332	"New Visitor"
"105"	0.354443598390079	9193	"New Visitor"
"107"	0.371086174964593	9179	"New Visitor"
"109"	0.2070839680975	11159	"New Visitor"
"111"	0.334734277447845	13134	"New Visitor"
"113"	0.326349388042617	11357	"New Visitor"
"117"	0.359057269725606	8783	"New Visitor"
"119"	0.291906805640711	8155	"New Visitor"
"121"	0.236057150018799	7979	"New Visitor"
"123"	0.337376111817027	7870	"New Visitor"
"125"	0.331742535487029	8172	"New Visitor"
"127"	0.421065019123272	10197	"New Visitor"
"129"	0.29980736125912	12199	"New Visitor"
"131"	0.386186026757273	9418	"New Visitor"
"135"	0.336693786110129	8481	"New Visitor"
"137"	0.270412517780939	9842	"New Visitor"
"139"	0.402475881078953	10158	"New Visitor"
"141"	0.400531452314233	10349	"New Visitor"
"143"	0.38511835467598	10308	"New Visitor"
"145"	0.256215442092154	8030	"New Visitor"
"147"	0.382146799116998	7248	"New Visitor"
"149"	0.403530588907947	6996	"New Visitor"
"153"	0.418191603875135	7432	"New Visitor"
"157"	0.334756097560976	6068	"New Visitor"
"159"	0.160030052592036	5324	"New Visitor"
"161"	0.468841183826594	4798	"New Visitor"
"163"	0.339087546239211	5677	"New Visitor"
"8"	0.864840898808626	6631	"Returning Visitor"
"10"	0.877565967940814	8110	"Returning Visitor"
"18"	0.781238600212089	9430	"Returning Visitor"
"22"	0.77091910004787	6267	"Returning Visitor"
"24"	0.818750818384182	7637	"Returning Visitor"
"25"	0.556554100620262	7255	"New Visitor"
"27"	0.820877458396369	8593	"New Visitor"
"29"	0.890721538129186	9258	"New Visitor"
"31"	0.618448229613734	7456	"New Visitor"
"33"	0.693330362448009	6732	"New Visitor"
"35"	0.478126460052951	6421	"New Visitor"
"37"	0.707787570278073	6581	"New Visitor"
"39"	0.652441646191646	6512	"New Visitor"
"43"	0.731547485551626	11593	"New Visitor"
"45"	0.868302108712089	11903	"New Visitor"
"47"	0.845760500913123	11499	"New Visitor"
"49"	0.491577589384445	10852	"New Visitor"
"51"	0.663502766251729	11568	"New Visitor"
"53"	0.76035317089736	11779	"New Visitor"
"55"	0.755909789851358	11706	"New Visitor"
"57"	0.634677288245814	12302	"New Visitor"
"59"	0.531541142166276	14061	"New Visitor"
"61"	0.633613693374649	13554	"New Visitor"
"65"	0.595290423861852	16562	"New Visitor"
"67"	0.533792122726881	11603	"New Visitor"
"69"	0.75912542629784	13195	"New Visitor"
"71"	0.533385888845093	17759	"New Visitor"
"75"	0.572210753956552	10173	"New Visitor"
"77"	0.536218851570964	9230	"New Visitor"
"79"	0.575657263481098	10422	"New Visitor"
"81"	0.887901107391192	11649	"New Visitor"
"85"	0.886491363753545	11637	"New Visitor"
"87"	0.829075468394327	11422	"New Visitor"
"91"	0.557383736741909	7354	"New Visitor"
"93"	0.646193771626298	7514	"New Visitor"
"101"	0.619220112878399	9745	"New Visitor"
"115"	0.57846591530802	9139	"New Visitor"
"151"	0.486102048805951	7663	"New Visitor"
"155"	0.691775615688659	6578	"New Visitor"
"165"	0.524293683642253	5557	"New Visitor"
"2"	0.957395106715253	9605	"Returning Visitor"
"4"	1.02630230984827	10347	"Returning Visitor"
"6"	0.894544743021132	7666	"Returning Visitor"
"12"	1.30667454223272	8465	"Returning Visitor"
"14"	1.36242366793055	10022	"Returning Visitor"
"16"	1.40104495747266	10699	"Returning Visitor"
"20"	0.924519971969166	7135	"Returning Visitor"
"26"	2.50835131159598	8158	"Returning Visitor"
"41"	0.92758382852292	9424	"New Visitor"
"48"	2.24199280044305	10834	"Returning Visitor"
"52"	2.38717505064146	11848	"Returning Visitor"
"72"	2.42722974559687	12775	"Returning Visitor"
"74"	2.36769911504425	14125	"Returning Visitor"
"78"	2.11094272076372	8380	"Returning Visitor"
"83"	0.903536056948313	12924	"New Visitor"
"92"	2.23091655266758	7310	"Returning Visitor"
"95"	0.96172720712052	8314	"New Visitor"
"97"	0.909645542427497	9310	"New Visitor"
"99"	0.997306577959009	9319	"New Visitor"
"112"	2.43731447497986	11171	"Returning Visitor"
"114"	2.49210347505339	10302	"Returning Visitor"
"116"	2.51703772117441	10286	"Returning Visitor"
"118"	2.26503244412401	8322	"Returning Visitor"
"122"	2.29596810395747	8465	"Returning Visitor"
"126"	2.41771649260226	9192	"Returning Visitor"
"128"	2.05141150611621	10464	"Returning Visitor"
"130"	2.58320330969267	10998	"Returning Visitor"
"132"	2.46606967447173	8755	"Returning Visitor"
"134"	2.45268314781258	7726	"Returning Visitor"
"136"	2.33447078150669	8522	"Returning Visitor"
"138"	2.34329820025853	10057	"Returning Visitor"
"140"	2.54571538240092	10421	"Returning Visitor"
"146"	2.41594389396474	7771	"Returning Visitor"
"148"	2.12653201108356	6857	"Returning Visitor"
"150"	2.27784114052953	7365	"Returning Visitor"
"158"	2.28580306399802	8094	"Returning Visitor"
"160"	2.49740812668061	6694	"Returning Visitor"
"162"	2.01630776794494	6102	"Returning Visitor"
"164"	1.9718020917136	7458	"Returning Visitor"
"166"	2.5307468175389	7070	"Returning Visitor"
"28"	4.07006071883263	10211	"Returning Visitor"
"30"	3.85917271271083	10613	"Returning Visitor"
"32"	4.12623540856031	8224	"Returning Visitor"
"34"	2.68015751324226	7174	"Returning Visitor"
"36"	3.32954301487502	6521	"Returning Visitor"
"38"	3.20661606578115	7905	"Returning Visitor"
"40"	3.19821109123435	7826	"Returning Visitor"
"42"	3.561936429422	10917	"Returning Visitor"
"44"	3.5477520648278	12834	"Returning Visitor"
"46"	3.06296266815251	12563	"Returning Visitor"
"50"	2.72960801915021	10026	"Returning Visitor"
"54"	3.30783359809373	10072	"Returning Visitor"
"56"	2.60183299389002	11293	"Returning Visitor"
"58"	2.59303341672623	11192	"Returning Visitor"
"60"	2.75912287859008	12256	"Returning Visitor"
"62"	2.85758284223746	10351	"Returning Visitor"
"64"	2.91935490254279	10107	"Returning Visitor"
"66"	2.72688906331763	11466	"Returning Visitor"
"68"	3.23974319515245	10397	"Returning Visitor"
"70"	2.77983086680761	11825	"Returning Visitor"
"76"	2.864	9150	"Returning Visitor"
"80"	2.76534575569358	9660	"Returning Visitor"
"82"	3.29492480487341	10506	"Returning Visitor"
"84"	3.84307254868172	11606	"Returning Visitor"
"86"	3.23684313533614	10219	"Returning Visitor"
"88"	3.38307433047914	10978	"Returning Visitor"
"90"	2.58996685787126	7845	"Returning Visitor"
"96"	3.49755732227215	8679	"Returning Visitor"
"98"	4.10940846824408	9636	"Returning Visitor"
"100"	3.59268890597962	10402	"Returning Visitor"
"102"	3.19415373511368	11084	"Returning Visitor"
"104"	2.78768006065201	9233	"Returning Visitor"
"106"	2.59840121811953	7881	"Returning Visitor"
"108"	2.9936295441431	8665	"Returning Visitor"
"110"	3.14854679802956	9744	"Returning Visitor"
"124"	2.59623591028123	8783	"Returning Visitor"
"142"	2.78333433373349	9996	"Returning Visitor"
"144"	2.77198525014949	10034	"Returning Visitor"
"152"	2.66032369058239	7847	"Returning Visitor"
"154"	2.72086537287929	8193	"Returning Visitor"
"156"	2.79407238142292	8096	"Returning Visitor"
