"factor"	"estimate"	"stdErr"	"tValue"	"pValue"	"iter"
"84"	"users"	-0.000683755526083341	2.80024898736971e-05	-24.417668898993	3.7372081735033e-130	4
"85"	"monthFebruary"	-4.1512920643566	0.573202603292585	-7.24227705964836	4.53993701584605e-13	4
"86"	"monthJanuary"	-4.79369205379442	0.621910773339053	-7.70800613093898	1.3254639316781e-14	4
"87"	"monthMarch"	-3.93115684673442	0.527817233361184	-7.44795091607845	9.78714189283601e-14	4
"88"	"weekdayMonday"	0.120669582986666	0.0549790644438651	2.19482787143227	0.0281851239782794	4
"89"	"weekdaySaturday"	0.050526144747452	0.0552649603456094	0.914252800173522	0.360592856502832	4
"90"	"weekdaySunday"	0.135604199729095	0.0540298776575745	2.50980023661195	0.0120862242000426	4
"91"	"weekdayThursday"	0.216518720264678	0.0538448043749436	4.02116272457726	5.80817791460122e-05	4
"92"	"weekdayTuesday"	0.068557056566281	0.0550802792619941	1.24467518111489	0.213262858142991	4
"93"	"weekdayWednesday"	0.213649841840639	0.0559037735524043	3.82174276017991	0.000132833182586238	4
"94"	"week"	-0.0927807827460556	0.01205042783892	-7.6993766517066	1.4178849789744e-14	4
"95"	"PageDepth_cat"	3.89329104917772	0.0417751970500529	93.1962342275246	0	4
"96"	"flashVersion_cat| Other |"	-0.602997714098033	2.27356711954165	-0.265220986402899	0.790841418875501	4
"97"	"flashVersion_cat11.1 r115"	-1.37628696523727	3.69394432226985	-0.372579239199677	0.709464789976112	4
"98"	"flashVersion_cat11.2 r202"	-1.46824722430659	5.56849333474048	-0.263670464530604	0.792036032710334	4
"99"	"flashVersion_cat11.9 r900"	-1.06453739675089	1.68631967535076	-0.631278524654268	0.527864206385213	4
"100"	"flashVersion_cat12.0 r0"	-1.00002649057502	1.00533288462358	-0.994721754227158	0.31988125318212	4
"101"	"flashVersion_cat13.0 r0"	-1.03783800765411	1.01429553469037	-1.02321066410978	0.306218167636419	4
"102"	"flashVersion_cat14.0 r0"	-0.966414071110543	0.406799672558977	-2.37565105456282	0.0175255247630849	4
"103"	"flashVersion_cat15.0 r0"	-0.690304263386347	0.128926097841915	-5.35426321700028	8.66642525606785e-08	4
"104"	"flashVersion_cat16.0 r0"	-0.118045744445484	0.0325877077123397	-3.62240098283392	0.000292459842965462	4
"105"	"flashVersion_cat17.0 r0"	-0.203894907190301	0.073940157432035	-2.75756658183639	0.00582756861044118	4
"106"	"medium_cat| Other |"	0.11659147881812	0.0979631999432769	1.19015588389956	0.233996447720868	4
"107"	"medium_catAbout Me"	-0.193601374009824	0.0963726134403616	-2.00888371808689	0.0445602142006595	4
"108"	"medium_catcpc"	0.0099465034943485	0.116576013480558	0.0853220417938491	0.932006052881681	4
"109"	"medium_catdisplay"	-0.15158676383035	0.106673589071843	-1.42103368930672	0.155319457323215	4
"110"	"medium_catNewsfeed"	-0.25823759364129	0.133191470475926	-1.93884482781475	0.0525314919937658	4
"111"	"medium_catocpm"	0.703351512265524	0.0625906355242631	11.2373281781565	3.14267648662236e-29	4
"112"	"medium_catoCPM"	0.661870502483252	0.0601230770540503	11.0085932875364	4.03212514800378e-28	4
"113"	"medium_catorganic"	0.309144952752035	0.0679779924207574	4.54772113360671	5.44847766109592e-06	4
"114"	"medium_catpaid"	0.12192636011835	0.171641885084036	0.710353187152746	0.477491781238524	4
"115"	"medium_catreferral"	0.368271580457274	0.0633156070077746	5.81644238855758	6.08463472997832e-09	4
"116"	"userAgeBracket_cat25-34"	0.0610148360869308	0.029646791559729	2.05805865919774	0.0395948610745301	4
"117"	"userAgeBracket_cat35-44"	-0.422124640231164	0.0593681733819566	-7.11028512727423	1.18921203259489e-12	4
"118"	"userAgeBracket_cat45-54"	-0.587871159620736	0.111801579781181	-5.25816505250929	1.46697325279453e-07	4
"119"	"userAgeBracket_cat55-64"	-0.639060600269649	0.159816741957671	-3.99870872376381	6.38722477993387e-05	4
"120"	"userAgeBracket_cat65+"	-0.729204274944762	0.260030880678429	-2.80429875498728	0.005046510316604	4
